{
  "_id": "TYiIMLFmg8vY5SzD",
  "name": "+1 Weapon Special Ability",
  "description": "",
  "results": [
    {
      "_id": "r5HeRTOqMRjLXQIz",
      "flags": {},
      "type": 0,
      "text": "Impervious",
      "img": "icons/svg/d20-black.svg",
      "weight": 1,
      "range": [1, 1],
      "drawn": false,
      "documentId": null,
      "documentCollection": ""
    },
    {
      "_id": "SzorCZPlvB7VMhyK",
      "flags": {},
      "type": 0,
      "text": "Glamered",
      "img": "icons/svg/d20-black.svg",
      "weight": 1,
      "range": [2, 2],
      "drawn": false,
      "documentId": null,
      "documentCollection": ""
    },
    {
      "_id": "ezYZhY3wDzd8ai2N",
      "flags": {},
      "type": 0,
      "text": "Allying",
      "img": "icons/svg/d20-black.svg",
      "weight": 1,
      "range": [3, 3],
      "drawn": false,
      "documentId": null,
      "documentCollection": ""
    },
    {
      "_id": "5KtOmdZmSCqYjP9m",
      "flags": {},
      "type": 2,
      "text": "Bane Subtypes",
      "weight": 5,
      "range": [4, 8],
      "drawn": false,
      "documentCollection": "pf1.ultimate-equipment",
      "documentId": "9KbFFApRPfwhlQjF",
      "img": null
    },
    {
      "_id": "iuMlA5l2sAlo8a0g",
      "flags": {},
      "type": 0,
      "text": "Benevolent",
      "img": "icons/svg/d20-black.svg",
      "weight": 1,
      "range": [9, 9],
      "drawn": false,
      "documentId": null,
      "documentCollection": ""
    },
    {
      "_id": "fknZEeRhxqGYSYqi",
      "flags": {},
      "type": 0,
      "text": "Called",
      "img": "icons/svg/d20-black.svg",
      "weight": 1,
      "range": [10, 10],
      "drawn": false,
      "documentId": null,
      "documentCollection": ""
    },
    {
      "_id": "vXESU79jCPec8TJM",
      "flags": {},
      "type": 0,
      "text": "Conductive",
      "img": "icons/svg/d20-black.svg",
      "weight": 2,
      "range": [11, 12],
      "drawn": false,
      "documentId": null,
      "documentCollection": ""
    },
    {
      "_id": "fxyXpeSLrFvzLYXf",
      "flags": {},
      "type": 0,
      "text": "Corrosive",
      "img": "icons/svg/d20-black.svg",
      "weight": 4,
      "range": [13, 16],
      "drawn": false,
      "documentId": null,
      "documentCollection": ""
    },
    {
      "_id": "efXfwJoeWqIHAL8U",
      "flags": {},
      "type": 0,
      "text": "Countering",
      "img": "icons/svg/d20-black.svg",
      "weight": 1,
      "range": [17, 17],
      "drawn": false,
      "documentId": null,
      "documentCollection": ""
    },
    {
      "_id": "ektKMLjMore3E1nJ",
      "flags": {},
      "type": 0,
      "text": "Courageous",
      "img": "icons/svg/d20-black.svg",
      "weight": 1,
      "range": [18, 18],
      "drawn": false,
      "documentId": null,
      "documentCollection": ""
    },
    {
      "_id": "FOQNlpK1Vj2RJqYO",
      "flags": {},
      "type": 0,
      "text": "Cruel",
      "img": "icons/svg/d20-black.svg",
      "weight": 1,
      "range": [19, 19],
      "drawn": false,
      "documentId": null,
      "documentCollection": ""
    },
    {
      "_id": "aIo7qyud7kXm4jGM",
      "flags": {},
      "type": 0,
      "text": "Cunning",
      "img": "icons/svg/d20-black.svg",
      "weight": 2,
      "range": [20, 21],
      "drawn": false,
      "documentId": null,
      "documentCollection": ""
    },
    {
      "_id": "S833xCk9GBxOW4ah",
      "flags": {},
      "type": 0,
      "text": "Deadly",
      "img": "icons/svg/d20-black.svg",
      "weight": 1,
      "range": [22, 22],
      "drawn": false,
      "documentId": null,
      "documentCollection": ""
    },
    {
      "_id": "KtD7IaGLBg4V9aiw",
      "flags": {},
      "type": 0,
      "text": "Defending",
      "img": "icons/svg/d20-black.svg",
      "weight": 4,
      "range": [23, 26],
      "drawn": false,
      "documentId": null,
      "documentCollection": ""
    },
    {
      "_id": "NU9ZCta298L658bs",
      "flags": {},
      "type": 0,
      "text": "Dispelling",
      "img": "icons/svg/d20-black.svg",
      "weight": 1,
      "range": [27, 27],
      "drawn": false,
      "documentId": null,
      "documentCollection": ""
    },
    {
      "_id": "SsXg5iMJgmwAZ3tf",
      "flags": {},
      "type": 0,
      "text": "Flaming",
      "img": "icons/svg/d20-black.svg",
      "weight": 6,
      "range": [28, 33],
      "drawn": false,
      "documentId": null,
      "documentCollection": ""
    },
    {
      "_id": "KgCcxKHoVhfUcrJ6",
      "flags": {},
      "type": 0,
      "text": "Frost",
      "img": "icons/svg/d20-black.svg",
      "weight": 6,
      "range": [34, 39],
      "drawn": false,
      "documentId": null,
      "documentCollection": ""
    },
    {
      "_id": "IouNdbli4JcRf6Ch",
      "flags": {},
      "type": 0,
      "text": "Furious",
      "img": "icons/svg/d20-black.svg",
      "weight": 2,
      "range": [40, 41],
      "drawn": false,
      "documentId": null,
      "documentCollection": ""
    },
    {
      "_id": "qpAIRF2myxoonvQf",
      "flags": {},
      "type": 0,
      "text": "Ghost touch",
      "img": "icons/svg/d20-black.svg",
      "weight": 4,
      "range": [42, 45],
      "drawn": false,
      "documentId": null,
      "documentCollection": ""
    },
    {
      "_id": "mGIVdcxU8umKjBLd",
      "flags": {},
      "type": 0,
      "text": "Grayflame",
      "img": "icons/svg/d20-black.svg",
      "weight": 2,
      "range": [46, 47],
      "drawn": false,
      "documentId": null,
      "documentCollection": ""
    },
    {
      "_id": "eAJFKa0ldXmIqUhE",
      "flags": {},
      "type": 0,
      "text": "Grounding",
      "img": "icons/svg/d20-black.svg",
      "weight": 1,
      "range": [48, 48],
      "drawn": false,
      "documentId": null,
      "documentCollection": ""
    },
    {
      "_id": "Bk2sRsHW4XXUGJLg",
      "flags": {},
      "type": 0,
      "text": "Guardian",
      "img": "icons/svg/d20-black.svg",
      "weight": 1,
      "range": [49, 49],
      "drawn": false,
      "documentId": null,
      "documentCollection": ""
    },
    {
      "_id": "i8gNSWomKw1R2TrK",
      "flags": {},
      "type": 0,
      "text": "Heartseeker",
      "img": "icons/svg/d20-black.svg",
      "weight": 1,
      "range": [50, 50],
      "drawn": false,
      "documentId": null,
      "documentCollection": ""
    },
    {
      "_id": "h5ae8PdiMHGt5Bfy",
      "flags": {},
      "type": 0,
      "text": "Huntsman",
      "img": "icons/svg/d20-black.svg",
      "weight": 2,
      "range": [51, 52],
      "drawn": false,
      "documentId": null,
      "documentCollection": ""
    },
    {
      "_id": "tQFiKcpHmdJrDB7f",
      "flags": {},
      "type": 0,
      "text": "Jurist",
      "img": "icons/svg/d20-black.svg",
      "weight": 2,
      "range": [53, 54],
      "drawn": false,
      "documentId": null,
      "documentCollection": ""
    },
    {
      "_id": "wIosObZtXFll0AmL",
      "flags": {},
      "type": 0,
      "text": "Keen",
      "img": "icons/svg/d20-black.svg",
      "weight": 5,
      "range": [55, 59],
      "drawn": false,
      "documentId": null,
      "documentCollection": ""
    },
    {
      "_id": "EgC7QKL1ZkhWvwG0",
      "flags": {},
      "type": 0,
      "text": "Ki Focus",
      "img": "icons/svg/d20-black.svg",
      "weight": 2,
      "range": [60, 61],
      "drawn": false,
      "documentId": null,
      "documentCollection": ""
    },
    {
      "_id": "5gf5p8QPZzul8WtV",
      "flags": {},
      "type": 0,
      "text": "Limning",
      "img": "icons/svg/d20-black.svg",
      "weight": 1,
      "range": [62, 62],
      "drawn": false,
      "documentId": null,
      "documentCollection": ""
    },
    {
      "_id": "5i5RzO6q5W9VNgFM",
      "flags": {},
      "type": 0,
      "text": "Menacing",
      "img": "icons/svg/d20-black.svg",
      "weight": 2,
      "range": [63, 64],
      "drawn": false,
      "documentId": null,
      "documentCollection": ""
    },
    {
      "_id": "FNYClSGHDaF8z555",
      "flags": {},
      "type": 0,
      "text": "Merciful",
      "img": "icons/svg/d20-black.svg",
      "weight": 1,
      "range": [65, 65],
      "drawn": false,
      "documentId": null,
      "documentCollection": ""
    },
    {
      "_id": "dRe0kvCsMjpITYa6",
      "flags": {},
      "type": 0,
      "text": "Mighty cleaving",
      "img": "icons/svg/d20-black.svg",
      "weight": 3,
      "range": [66, 68],
      "drawn": false,
      "documentId": null,
      "documentCollection": ""
    },
    {
      "_id": "ZGejq3Z08OGL1yr0",
      "flags": {},
      "type": 0,
      "text": "Mimetic",
      "img": "icons/svg/d20-black.svg",
      "weight": 1,
      "range": [69, 69],
      "drawn": false,
      "documentId": null,
      "documentCollection": ""
    },
    {
      "_id": "fMOtvwh8sMsRRUcn",
      "flags": {},
      "type": 0,
      "text": "Neutralizing",
      "img": "icons/svg/d20-black.svg",
      "weight": 1,
      "range": [70, 70],
      "drawn": false,
      "documentId": null,
      "documentCollection": ""
    },
    {
      "_id": "ga5Hp26z24ow157k",
      "flags": {},
      "type": 0,
      "text": "Ominous",
      "img": "icons/svg/d20-black.svg",
      "weight": 1,
      "range": [71, 71],
      "drawn": false,
      "documentId": null,
      "documentCollection": ""
    },
    {
      "_id": "mynxtlLEjywN1bna",
      "flags": {},
      "type": 0,
      "text": "Planar",
      "img": "icons/svg/d20-black.svg",
      "weight": 1,
      "range": [72, 72],
      "drawn": false,
      "documentId": null,
      "documentCollection": ""
    },
    {
      "_id": "zG2VKRtG9c1GIrVS",
      "flags": {},
      "type": 0,
      "text": "Quenching",
      "img": "icons/svg/d20-black.svg",
      "weight": 1,
      "range": [73, 73],
      "drawn": false,
      "documentId": null,
      "documentCollection": ""
    },
    {
      "_id": "satYzq66zvgGnPm5",
      "flags": {},
      "type": 0,
      "text": "Seaborne",
      "img": "icons/svg/d20-black.svg",
      "weight": 1,
      "range": [74, 74],
      "drawn": false,
      "documentId": null,
      "documentCollection": ""
    },
    {
      "_id": "sNqKeI8seBNeX1J1",
      "flags": {},
      "type": 0,
      "text": "Shock",
      "img": "icons/svg/d20-black.svg",
      "weight": 6,
      "range": [75, 80],
      "drawn": false,
      "documentId": null,
      "documentCollection": ""
    },
    {
      "_id": "KE0r04ZDkLdgRjNp",
      "flags": {},
      "type": 0,
      "text": "Spell Storing",
      "img": "icons/svg/d20-black.svg",
      "weight": 5,
      "range": [81, 85],
      "drawn": false,
      "documentId": null,
      "documentCollection": ""
    },
    {
      "_id": "X68CA3Z7oXvme2ec",
      "flags": {},
      "type": 0,
      "text": "Thawing",
      "img": "icons/svg/d20-black.svg",
      "weight": 1,
      "range": [86, 86],
      "drawn": false,
      "documentId": null,
      "documentCollection": ""
    },
    {
      "_id": "pPtyAlHZHWmD4xlb",
      "flags": {},
      "type": 0,
      "text": "Throwing",
      "img": "icons/svg/d20-black.svg",
      "weight": 5,
      "range": [87, 91],
      "drawn": false,
      "documentId": null,
      "documentCollection": ""
    },
    {
      "_id": "euxPh4b3SlycZZED",
      "flags": {},
      "type": 0,
      "text": "Thundering",
      "img": "icons/svg/d20-black.svg",
      "weight": 5,
      "range": [92, 96],
      "drawn": false,
      "documentId": null,
      "documentCollection": ""
    },
    {
      "_id": "RUQT9QU9Z2PHdXbp",
      "flags": {},
      "type": 0,
      "text": "Valiant",
      "img": "icons/svg/d20-black.svg",
      "weight": 1,
      "range": [97, 97],
      "drawn": false,
      "documentId": null,
      "documentCollection": ""
    },
    {
      "_id": "S13O9PWtxno91dTD",
      "flags": {},
      "type": 0,
      "text": "Vicious",
      "img": "icons/svg/d20-black.svg",
      "weight": 3,
      "range": [98, 100],
      "drawn": false,
      "documentId": null,
      "documentCollection": ""
    }
  ],
  "formula": "1d100",
  "replacement": true,
  "displayRoll": true,
  "img": "icons/svg/d20-grey.svg",
  "sort": 0
}
