{
  "name": "+4 Ammunition Special Abilities",
  "description": "",
  "results": [
    {
      "_id": "9pklbCgDdfQ0xa7z",
      "flags": {},
      "type": 0,
      "text": "Brilliant Energy",
      "weight": 66,
      "range": [1, 66],
      "drawn": false,
      "img": null,
      "documentCollection": "",
      "documentId": null
    },
    {
      "_id": "EIOKzeWR1kyUI5Gl",
      "flags": {},
      "type": 0,
      "text": "Designating, Greater",
      "weight": 34,
      "range": [67, 100],
      "drawn": false,
      "img": null,
      "documentCollection": "",
      "documentId": null
    }
  ],
  "formula": "1d100",
  "replacement": true,
  "displayRoll": true,
  "_id": "dExpiqaOwkbTr2NL",
  "img": "icons/svg/d20-grey.svg",
  "sort": 0
}
