{
  "_id": "sUHYg8ip6QKq1uqm",
  "name": "Greater Major Weapon",
  "description": "",
  "results": [
    {
      "_id": "uNrU8EcnPTR8ytVv",
      "flags": {},
      "type": 0,
      "text": "+4",
      "img": "icons/svg/d20-black.svg",
      "weight": 10,
      "range": [1, 5],
      "drawn": false,
      "documentId": null,
      "documentCollection": ""
    },
    {
      "_id": "AUEODBHtpNlOuawf",
      "flags": {},
      "type": 2,
      "text": "Weapon Type",
      "img": "icons/svg/d20-black.svg",
      "weight": 20,
      "range": [1, 40],
      "drawn": false,
      "documentCollection": "pf1.ultimate-equipment",
      "documentId": "RwcA3WdbaYSp3xze"
    },
    {
      "_id": "plJbEN4oxsPWqCd0",
      "flags": {},
      "type": 0,
      "text": "+5",
      "img": "icons/svg/d20-black.svg",
      "weight": 10,
      "range": [6, 10],
      "drawn": false,
      "documentId": null,
      "documentCollection": ""
    },
    {
      "_id": "dv3c3SfRk0JwFkvn",
      "flags": {},
      "type": 0,
      "text": "+4, with one +1 special ability:",
      "img": "icons/svg/d20-black.svg",
      "weight": 10,
      "range": [11, 15],
      "drawn": false,
      "documentId": null,
      "documentCollection": ""
    },
    {
      "_id": "z5C2SISQ4nw15nLq",
      "flags": {},
      "type": 2,
      "text": "+1 Weapon Special Ability",
      "img": "icons/svg/d20-black.svg",
      "weight": 20,
      "range": [11, 15],
      "drawn": false,
      "documentCollection": "pf1.ultimate-equipment",
      "documentId": "TYiIMLFmg8vY5SzD"
    },
    {
      "_id": "cFviCArWjcx32puM",
      "flags": {},
      "type": 0,
      "text": "+4, with one +2 special ability:",
      "img": "icons/svg/d20-black.svg",
      "weight": 8,
      "range": [16, 19],
      "drawn": false,
      "documentId": null,
      "documentCollection": ""
    },
    {
      "_id": "tTFmYVRDrMFqX2an",
      "flags": {},
      "type": 2,
      "text": "+2 Weapon Special Abilities",
      "img": "icons/svg/d20-black.svg",
      "weight": 20,
      "range": [16, 19],
      "drawn": false,
      "documentCollection": "pf1.ultimate-equipment",
      "documentId": "SRngNw1UlfWrcahB"
    },
    {
      "_id": "IXxcKaPWqDLRQB8i",
      "flags": {},
      "type": 0,
      "text": "+4, with one +3 special ability:",
      "img": "icons/svg/d20-black.svg",
      "weight": 8,
      "range": [20, 23],
      "drawn": false,
      "documentId": null,
      "documentCollection": ""
    },
    {
      "_id": "b3ZMsBUBheWxCKIy",
      "flags": {},
      "type": 2,
      "text": "+3 Weapon Special Abilities",
      "img": "icons/svg/d20-black.svg",
      "weight": 20,
      "range": [20, 23],
      "drawn": false,
      "documentCollection": "pf1.ultimate-equipment",
      "documentId": "Z0DNpUSpACio9cau"
    },
    {
      "_id": "wa5YbOtf6vIOSWEK",
      "flags": {},
      "type": 0,
      "text": "+4, with one +4/5 special ability:",
      "img": "icons/svg/d20-black.svg",
      "weight": 5,
      "range": [24, 26],
      "drawn": false,
      "documentId": null,
      "documentCollection": ""
    },
    {
      "_id": "XjL6FS7hhgPbhBhw",
      "flags": {},
      "type": 2,
      "text": "+4/+5 Weapon Special Abilities",
      "img": "icons/svg/d20-black.svg",
      "weight": 20,
      "range": [24, 26],
      "drawn": false,
      "documentCollection": "pf1.ultimate-equipment",
      "documentId": "spkfuu4RLii1jfIU"
    },
    {
      "_id": "FS0dBjfMmUxsocq1",
      "flags": {},
      "type": 0,
      "text": "+5, with one +1 special ability:",
      "img": "icons/svg/d20-black.svg",
      "weight": 8,
      "range": [27, 29],
      "drawn": false,
      "documentId": null,
      "documentCollection": ""
    },
    {
      "_id": "NvBrrFxIqbW2siVP",
      "flags": {},
      "type": 2,
      "text": "+1 Weapon Special Ability",
      "img": "icons/svg/d20-black.svg",
      "weight": 20,
      "range": [27, 29],
      "drawn": false,
      "documentCollection": "pf1.ultimate-equipment",
      "documentId": "TYiIMLFmg8vY5SzD"
    },
    {
      "_id": "jTSNoLLyoRRFvxXn",
      "flags": {},
      "type": 0,
      "text": "+5, with one +2 special ability:",
      "img": "icons/svg/d20-black.svg",
      "weight": 8,
      "range": [30, 32],
      "drawn": false,
      "documentId": null,
      "documentCollection": ""
    },
    {
      "_id": "cGNo2rS8nMsUyboc",
      "flags": {},
      "type": 2,
      "text": "+2 Weapon Special Abilities",
      "img": "icons/svg/d20-black.svg",
      "weight": 20,
      "range": [30, 32],
      "drawn": false,
      "documentCollection": "pf1.ultimate-equipment",
      "documentId": "SRngNw1UlfWrcahB"
    },
    {
      "_id": "4opzdxjtf95U7Dqw",
      "flags": {},
      "type": 0,
      "text": "+5, with one +3 special ability:",
      "img": "icons/svg/d20-black.svg",
      "weight": 4,
      "range": [33, 34],
      "drawn": false,
      "documentId": null,
      "documentCollection": ""
    },
    {
      "_id": "pufVRgdEIfrsSl8o",
      "flags": {},
      "type": 2,
      "text": "+3 Weapon Special Abilities",
      "img": "icons/svg/d20-black.svg",
      "weight": 20,
      "range": [33, 34],
      "drawn": false,
      "documentCollection": "pf1.ultimate-equipment",
      "documentId": "Z0DNpUSpACio9cau"
    },
    {
      "_id": "TYjem7gBhHIfJOgt",
      "flags": {},
      "type": 0,
      "text": "+5, with one +4/5 special ability:",
      "img": "icons/svg/d20-black.svg",
      "weight": 3,
      "range": [35, 36],
      "drawn": false,
      "documentId": null,
      "documentCollection": ""
    },
    {
      "_id": "FzCGX844WBcuqcnq",
      "flags": {},
      "type": 2,
      "text": "+4/+5 Weapon Special Abilities",
      "img": "icons/svg/d20-black.svg",
      "weight": 20,
      "range": [35, 36],
      "drawn": false,
      "documentCollection": "pf1.ultimate-equipment",
      "documentId": "spkfuu4RLii1jfIU"
    },
    {
      "_id": "1KCE1Ijmmq7yV1QA",
      "flags": {},
      "type": 0,
      "text": "+5, with one +4/5 special ability and one +1 special ability:",
      "img": "icons/svg/d20-black.svg",
      "weight": 3,
      "range": [37, 38],
      "drawn": false,
      "documentId": null,
      "documentCollection": ""
    },
    {
      "_id": "vZSeae9635CT9vJh",
      "flags": {},
      "type": 2,
      "text": "+1 Weapon Special Ability",
      "img": "icons/svg/d20-black.svg",
      "weight": 20,
      "range": [37, 38],
      "drawn": false,
      "documentCollection": "pf1.ultimate-equipment",
      "documentId": "TYiIMLFmg8vY5SzD"
    },
    {
      "_id": "hcii7yXbtHtEVeyf",
      "flags": {},
      "type": 2,
      "text": "+4/+5 Weapon Special Abilities",
      "img": "icons/svg/d20-black.svg",
      "weight": 20,
      "range": [37, 38],
      "drawn": false,
      "documentCollection": "pf1.ultimate-equipment",
      "documentId": "spkfuu4RLii1jfIU"
    },
    {
      "_id": "bxP9UsWmXA9JtzLS",
      "flags": {},
      "type": 0,
      "text": "+5, with one +3 special ability and one +2 special ability:",
      "img": "icons/svg/d20-black.svg",
      "weight": 3,
      "range": [39, 40],
      "drawn": false,
      "documentId": null,
      "documentCollection": ""
    },
    {
      "_id": "BcqjTKK6n8LtAgwo",
      "flags": {},
      "type": 2,
      "text": "+3 Weapon Special Abilities",
      "img": "icons/svg/d20-black.svg",
      "weight": 20,
      "range": [39, 40],
      "drawn": false,
      "documentCollection": "pf1.ultimate-equipment",
      "documentId": "Z0DNpUSpACio9cau"
    },
    {
      "_id": "wvD4qyu6dTJ6lVlb",
      "flags": {},
      "type": 2,
      "text": "+2 Weapon Special Abilities",
      "img": "icons/svg/d20-black.svg",
      "weight": 20,
      "range": [39, 40],
      "drawn": false,
      "documentCollection": "pf1.ultimate-equipment",
      "documentId": "SRngNw1UlfWrcahB"
    },
    {
      "_id": "HlShHQDuRWkM3R9x",
      "flags": {},
      "type": 2,
      "text": "Ranged",
      "img": "icons/svg/d20-black.svg",
      "weight": 20,
      "range": [41, 65],
      "drawn": false,
      "documentCollection": "pf1.ultimate-equipment",
      "documentId": "QMDELLppsdz5zS7S"
    },
    {
      "_id": "s1DoX13EZYZlesps",
      "flags": {},
      "type": 0,
      "text": "+4",
      "img": "icons/svg/d20-black.svg",
      "weight": 20,
      "range": [41, 43],
      "drawn": false,
      "documentId": null,
      "documentCollection": ""
    },
    {
      "_id": "MS2DMzU1VBFi0gK5",
      "flags": {},
      "type": 0,
      "text": "+5",
      "img": "icons/svg/d20-black.svg",
      "weight": 20,
      "range": [44, 45],
      "drawn": false,
      "documentId": null,
      "documentCollection": ""
    },
    {
      "_id": "qfnbssFi68i8E29t",
      "flags": {},
      "type": 0,
      "text": "+4, with one +1 special ability:",
      "img": "icons/svg/d20-black.svg",
      "weight": 20,
      "range": [46, 47],
      "drawn": false,
      "documentId": null,
      "documentCollection": ""
    },
    {
      "_id": "PUf6Azabsumn3RON",
      "flags": {},
      "type": 2,
      "text": "+1 Ranged Weapon Special Abilities",
      "img": "icons/svg/d20-black.svg",
      "weight": 20,
      "range": [46, 47],
      "drawn": false,
      "documentCollection": "pf1.ultimate-equipment",
      "documentId": "wKfZAs85tvd6gN0b"
    },
    {
      "_id": "6VQtZP69xCuGzw5z",
      "flags": {},
      "type": 0,
      "text": "+4, with one +2 special ability:",
      "img": "icons/svg/d20-black.svg",
      "weight": 20,
      "range": [48, 49],
      "drawn": false,
      "documentId": null,
      "documentCollection": ""
    },
    {
      "_id": "O5pIG1sgTJ22gMWt",
      "flags": {},
      "type": 2,
      "text": "+2 Ranged Weapon Special Abilities",
      "img": "icons/svg/d20-black.svg",
      "weight": 20,
      "range": [48, 49],
      "drawn": false,
      "documentCollection": "pf1.ultimate-equipment",
      "documentId": "XEeC6Vz3hlDl4Tn2"
    },
    {
      "_id": "TfS2jMEMwcvvklMB",
      "flags": {},
      "type": 0,
      "text": "+4, with one +3/+4 special ability:",
      "img": "icons/svg/d20-black.svg",
      "weight": 20,
      "range": [50, 51],
      "drawn": false,
      "documentId": null,
      "documentCollection": ""
    },
    {
      "_id": "igofDCxgaZjrmdOl",
      "flags": {},
      "type": 2,
      "text": "+3/+4 Ranged Weapon Special Abilities",
      "img": "icons/svg/d20-black.svg",
      "weight": 20,
      "range": [50, 51],
      "drawn": false,
      "documentCollection": "pf1.ultimate-equipment",
      "documentId": "cYVk7OcxFqNyxdPc"
    },
    {
      "_id": "N3S4bu5gQiCgfBsx",
      "flags": {},
      "type": 0,
      "text": "+5, with one +1 special ability:",
      "img": "icons/svg/d20-black.svg",
      "weight": 20,
      "range": [58, 59],
      "drawn": false,
      "documentId": null,
      "documentCollection": ""
    },
    {
      "_id": "3WC4RgWftVnfp1RU",
      "flags": {},
      "type": 2,
      "text": "+1 Ranged Weapon Special Abilities",
      "img": "icons/svg/d20-black.svg",
      "weight": 20,
      "range": [58, 59],
      "drawn": false,
      "documentCollection": "pf1.ultimate-equipment",
      "documentId": "wKfZAs85tvd6gN0b"
    },
    {
      "_id": "vQ2Jw61t9LXhnzJ1",
      "flags": {},
      "type": 0,
      "text": "+5, with one +2 special ability:",
      "img": "icons/svg/d20-black.svg",
      "weight": 20,
      "range": [60, 61],
      "drawn": false,
      "documentId": null,
      "documentCollection": ""
    },
    {
      "_id": "rWiN79tDkhkRgUJ4",
      "flags": {},
      "type": 2,
      "text": "+2 Ranged Weapon Special Abilities",
      "img": "icons/svg/d20-black.svg",
      "weight": 20,
      "range": [60, 61],
      "drawn": false,
      "documentCollection": "pf1.ultimate-equipment",
      "documentId": "XEeC6Vz3hlDl4Tn2"
    },
    {
      "_id": "94IPV69RCkoTaQ7S",
      "flags": {},
      "type": 0,
      "text": "+5, with one +3/4 special ability:",
      "img": "icons/svg/d20-black.svg",
      "weight": 20,
      "range": [62, 63],
      "drawn": false,
      "documentId": null,
      "documentCollection": ""
    },
    {
      "_id": "2ZuqbVj6ltk3y9Hs",
      "flags": {},
      "type": 2,
      "text": "+3/+4 Ranged Weapon Special Abilities",
      "img": "icons/svg/d20-black.svg",
      "weight": 20,
      "range": [62, 63],
      "drawn": false,
      "documentCollection": "pf1.ultimate-equipment",
      "documentId": "cYVk7OcxFqNyxdPc"
    },
    {
      "_id": "PTCFs0jUoCTIj1G0",
      "flags": {},
      "type": 0,
      "text": "+5, with one +3/4 special ability and one +1 special ability:",
      "img": "icons/svg/d20-black.svg",
      "weight": 20,
      "range": [64, 64],
      "drawn": false,
      "documentId": null,
      "documentCollection": ""
    },
    {
      "_id": "0qirUJXkQ9AiffUr",
      "flags": {},
      "type": 2,
      "text": "+3/+4 Ranged Weapon Special Abilities",
      "img": "icons/svg/d20-black.svg",
      "weight": 20,
      "range": [64, 64],
      "drawn": false,
      "documentCollection": "pf1.ultimate-equipment",
      "documentId": "cYVk7OcxFqNyxdPc"
    },
    {
      "_id": "IXWWYABIOz78lNph",
      "flags": {},
      "type": 2,
      "text": "+1 Ranged Weapon Special Abilities",
      "img": "icons/svg/d20-black.svg",
      "weight": 20,
      "range": [64, 64],
      "drawn": false,
      "documentCollection": "pf1.ultimate-equipment",
      "documentId": "wKfZAs85tvd6gN0b"
    },
    {
      "_id": "tX4rdJKmlWsC3AMN",
      "flags": {},
      "type": 0,
      "text": "+5, with one +3/4 special ability and one +2 special ability:",
      "img": "icons/svg/d20-black.svg",
      "weight": 20,
      "range": [65, 65],
      "drawn": false,
      "documentId": null,
      "documentCollection": ""
    },
    {
      "_id": "MjThzjO6bTXOiIa7",
      "flags": {},
      "type": 2,
      "text": "+3/+4 Ranged Weapon Special Abilities",
      "img": "icons/svg/d20-black.svg",
      "weight": 20,
      "range": [65, 65],
      "drawn": false,
      "documentCollection": "pf1.ultimate-equipment",
      "documentId": "cYVk7OcxFqNyxdPc"
    },
    {
      "_id": "qdBU9qCcpcxqa1pT",
      "flags": {},
      "type": 2,
      "text": "+2 Ranged Weapon Special Abilities",
      "img": "icons/svg/d20-black.svg",
      "weight": 20,
      "range": [65, 65],
      "drawn": false,
      "documentCollection": "pf1.ultimate-equipment",
      "documentId": "XEeC6Vz3hlDl4Tn2"
    },
    {
      "_id": "dpdRzKNDlrSeb475",
      "flags": {},
      "type": 0,
      "text": "+4",
      "img": "icons/svg/d20-black.svg",
      "weight": 20,
      "range": [66, 68],
      "drawn": false,
      "documentId": null,
      "documentCollection": ""
    },
    {
      "_id": "sQDlQwz1PmzP4XG1",
      "flags": {},
      "type": 2,
      "text": "Ammunition",
      "img": "icons/svg/d20-black.svg",
      "weight": 20,
      "range": [66, 80],
      "drawn": false,
      "documentCollection": "pf1.ultimate-equipment",
      "documentId": "HIi7oxxt0rIhvNA6"
    },
    {
      "_id": "ZET14PfIKueSfBvz",
      "flags": {},
      "type": 0,
      "text": "+5",
      "img": "icons/svg/d20-black.svg",
      "weight": 20,
      "range": [69, 70],
      "drawn": false,
      "documentId": null,
      "documentCollection": ""
    },
    {
      "_id": "lrGsqYcjdKIzhYiO",
      "flags": {},
      "type": 0,
      "text": "+4, with one +1 special ability:",
      "img": "icons/svg/d20-black.svg",
      "weight": 20,
      "range": [71, 71],
      "drawn": false,
      "documentId": null,
      "documentCollection": ""
    },
    {
      "_id": "AauY7UtAMvuXTXN8",
      "flags": {},
      "type": 2,
      "text": "+1 Ammunition Special Abilities",
      "img": "icons/svg/d20-black.svg",
      "weight": 20,
      "range": [71, 71],
      "drawn": false,
      "documentCollection": "pf1.ultimate-equipment",
      "documentId": "y7aKImUJ8DQV1UaB"
    },
    {
      "_id": "qZA3556LJq1wxXG1",
      "flags": {},
      "type": 0,
      "text": "+4, with one +2 special ability:",
      "img": "icons/svg/d20-black.svg",
      "weight": 20,
      "range": [72, 72],
      "drawn": false,
      "documentId": null,
      "documentCollection": ""
    },
    {
      "_id": "Y9IRMjR91rilnQoe",
      "flags": {},
      "type": 2,
      "text": "+2 Ammunition Special Abilities",
      "img": "icons/svg/d20-black.svg",
      "weight": 20,
      "range": [72, 72],
      "drawn": false,
      "documentCollection": "pf1.ultimate-equipment",
      "documentId": "lkywV5vZLD28Vcf1"
    },
    {
      "_id": "gi1KQG8atJKbh6tD",
      "flags": {},
      "type": 0,
      "text": "+4, with one +2/+4 special ability:",
      "img": "icons/svg/d20-black.svg",
      "weight": 20,
      "range": [73, 73],
      "drawn": false,
      "documentId": null,
      "documentCollection": ""
    },
    {
      "_id": "XXYkbGHrAlToYKlT",
      "flags": {},
      "type": 2,
      "text": "+2/+4 Ammunition Special Abilities",
      "img": "icons/svg/d20-black.svg",
      "weight": 20,
      "range": [73, 73],
      "drawn": false,
      "documentCollection": "pf1.ultimate-equipment",
      "documentId": "FADt3fmJbBueHAz5"
    },
    {
      "_id": "1OzdW9bC6uDzEwGK",
      "flags": {},
      "type": 0,
      "text": "+4, with one +4 special ability:",
      "img": "icons/svg/d20-black.svg",
      "weight": 20,
      "range": [74, 74],
      "drawn": false,
      "documentId": null,
      "documentCollection": ""
    },
    {
      "_id": "ZuVg9867vMYgzY4Q",
      "flags": {},
      "type": 2,
      "text": "+4 Ammunition Special Abilities",
      "img": "icons/svg/d20-black.svg",
      "weight": 20,
      "range": [74, 74],
      "drawn": false,
      "documentCollection": "pf1.ultimate-equipment",
      "documentId": "dExpiqaOwkbTr2NL"
    },
    {
      "_id": "72cgPaemJYNjkCLm",
      "flags": {},
      "type": 0,
      "text": "+5, with one +1 special ability:",
      "img": "icons/svg/d20-black.svg",
      "weight": 20,
      "range": [75, 75],
      "drawn": false,
      "documentId": null,
      "documentCollection": ""
    },
    {
      "_id": "X9ZtzCvfCfC9Nxu0",
      "flags": {},
      "type": 2,
      "text": "+1 Ammunition Special Abilities",
      "img": "icons/svg/d20-black.svg",
      "weight": 20,
      "range": [75, 75],
      "drawn": false,
      "documentCollection": "pf1.ultimate-equipment",
      "documentId": "y7aKImUJ8DQV1UaB"
    },
    {
      "_id": "QKUaSo6oSQImnzGo",
      "flags": {},
      "type": 0,
      "text": "+5, with one +2 special ability:",
      "img": "icons/svg/d20-black.svg",
      "weight": 20,
      "range": [76, 76],
      "drawn": false,
      "documentId": null,
      "documentCollection": ""
    },
    {
      "_id": "NCf2Vmw37r7YdFiz",
      "flags": {},
      "type": 2,
      "text": "+2 Ammunition Special Abilities",
      "img": "icons/svg/d20-black.svg",
      "weight": 20,
      "range": [76, 76],
      "drawn": false,
      "documentCollection": "pf1.ultimate-equipment",
      "documentId": "lkywV5vZLD28Vcf1"
    },
    {
      "_id": "U71WXqJFENEUYIFS",
      "flags": {},
      "type": 0,
      "text": "+5, with one +2/+4 special ability:",
      "img": "icons/svg/d20-black.svg",
      "weight": 20,
      "range": [77, 77],
      "drawn": false,
      "documentId": null,
      "documentCollection": ""
    },
    {
      "_id": "9oX8ebUz7LKpP2uE",
      "flags": {},
      "type": 2,
      "text": "+2/+4 Ammunition Special Abilities",
      "img": "icons/svg/d20-black.svg",
      "weight": 20,
      "range": [77, 77],
      "drawn": false,
      "documentCollection": "pf1.ultimate-equipment",
      "documentId": "FADt3fmJbBueHAz5"
    },
    {
      "_id": "DzknRvozsNI26YbK",
      "flags": {},
      "type": 0,
      "text": "+5, with one +4 special ability:",
      "img": "icons/svg/d20-black.svg",
      "weight": 20,
      "range": [78, 78],
      "drawn": false,
      "documentId": null,
      "documentCollection": ""
    },
    {
      "_id": "SRpBa3MCDuJ3jGUJ",
      "flags": {},
      "type": 2,
      "text": "+4 Ammunition Special Abilities",
      "img": "icons/svg/d20-black.svg",
      "weight": 20,
      "range": [78, 78],
      "drawn": false,
      "documentCollection": "pf1.ultimate-equipment",
      "documentId": "dExpiqaOwkbTr2NL"
    },
    {
      "_id": "s2X3578qszb1yEhV",
      "flags": {},
      "type": 0,
      "text": "+5, with one +4 special ability and one +1 special ability:",
      "img": "icons/svg/d20-black.svg",
      "weight": 20,
      "range": [79, 79],
      "drawn": false,
      "documentId": null,
      "documentCollection": ""
    },
    {
      "_id": "6dw49Tt3ViLkb7b0",
      "flags": {},
      "type": 2,
      "text": "+1 Ammunition Special Abilities",
      "img": "icons/svg/d20-black.svg",
      "weight": 20,
      "range": [79, 79],
      "drawn": false,
      "documentCollection": "pf1.ultimate-equipment",
      "documentId": "y7aKImUJ8DQV1UaB"
    },
    {
      "_id": "Hq7U0nK47TZK9irS",
      "flags": {},
      "type": 2,
      "text": "+4 Ammunition Special Abilities",
      "img": "icons/svg/d20-black.svg",
      "weight": 20,
      "range": [79, 79],
      "drawn": false,
      "documentCollection": "pf1.ultimate-equipment",
      "documentId": "dExpiqaOwkbTr2NL"
    },
    {
      "_id": "smnTyciO5BvuAvEl",
      "flags": {},
      "type": 0,
      "text": "+5, with one +4 special ability and one +2 special ability:",
      "img": "icons/svg/d20-black.svg",
      "weight": 20,
      "range": [80, 80],
      "drawn": false,
      "documentId": null,
      "documentCollection": ""
    },
    {
      "_id": "x6ukuojuDGDHlyN1",
      "flags": {},
      "type": 2,
      "text": "+4 Ammunition Special Abilities",
      "img": "icons/svg/d20-black.svg",
      "weight": 20,
      "range": [80, 80],
      "drawn": false,
      "documentCollection": "pf1.ultimate-equipment",
      "documentId": "dExpiqaOwkbTr2NL"
    },
    {
      "_id": "T7ASvfeRXgu8wRRs",
      "flags": {},
      "type": 2,
      "text": "+2 Ammunition Special Abilities",
      "img": "icons/svg/d20-black.svg",
      "weight": 20,
      "range": [80, 80],
      "drawn": false,
      "documentCollection": "pf1.ultimate-equipment",
      "documentId": "lkywV5vZLD28Vcf1"
    }
  ],
  "formula": "1d100",
  "replacement": true,
  "displayRoll": true,
  "img": "icons/svg/d20-grey.svg",
  "sort": 0
}
