{
  "name": "Greater Major Hand",
  "description": "",
  "results": [
    {
      "_id": "ckMJdxmU5tTLjPeJ",
      "flags": {},
      "type": 0,
      "text": "Talons of Leng",
      "weight": 60,
      "range": [1, 60],
      "drawn": false,
      "img": null,
      "documentCollection": "",
      "documentId": null
    },
    {
      "_id": "PKLyhNrFE8IIQjO3",
      "flags": {},
      "type": 0,
      "text": "Gauntlets of the Weaponmaster",
      "weight": 40,
      "range": [61, 100],
      "drawn": false,
      "img": null,
      "documentCollection": "",
      "documentId": null
    }
  ],
  "formula": "1d100",
  "replacement": true,
  "displayRoll": true,
  "_id": "l7sgI97nrwqkrhVH",
  "img": "icons/svg/d20-grey.svg",
  "sort": 0
}
