{
  "name": "Greater Medium Head",
  "description": "",
  "results": [
    {
      "_id": "eXTNPAThAlZDzNJA",
      "flags": {},
      "type": 0,
      "text": "Cat's Eye Crown",
      "weight": 6,
      "range": [1, 6],
      "drawn": false,
      "img": null,
      "documentCollection": "",
      "documentId": null
    },
    {
      "_id": "zoubtUWpFQL5g72z",
      "flags": {},
      "type": 0,
      "text": "Maw of the Wyrm",
      "weight": 6,
      "range": [7, 12],
      "drawn": false,
      "img": null,
      "documentCollection": "",
      "documentId": null
    },
    {
      "_id": "buDrCJ8VKCqpBSfP",
      "flags": {},
      "type": 0,
      "text": "Mitre of the Hierophant",
      "weight": 7,
      "range": [13, 19],
      "drawn": false,
      "img": null,
      "documentCollection": "",
      "documentId": null
    },
    {
      "_id": "Sna4KC7D1jMNmNhS",
      "flags": {},
      "type": 0,
      "text": "Magician's Hat",
      "weight": 8,
      "range": [20, 27],
      "drawn": false,
      "img": null,
      "documentCollection": "",
      "documentId": null
    },
    {
      "_id": "at0dzEbtXSP6cwii",
      "flags": {},
      "type": 0,
      "text": "Circlet of Mindsight",
      "weight": 7,
      "range": [28, 34],
      "drawn": false,
      "img": null,
      "documentCollection": "",
      "documentId": null
    },
    {
      "_id": "3Vvluz1CUWxktdOY",
      "flags": {},
      "type": 0,
      "text": "Mask of the Skull",
      "weight": 8,
      "range": [35, 42],
      "drawn": false,
      "img": null,
      "documentCollection": "",
      "documentId": null
    },
    {
      "_id": "A0zdhvNg1TJ9UHcQ",
      "flags": {},
      "type": 0,
      "text": "Howling Helm",
      "weight": 8,
      "range": [43, 50],
      "drawn": false,
      "img": null,
      "documentCollection": "",
      "documentId": null
    },
    {
      "_id": "SAM5TmsBu6ZezgCy",
      "flags": {},
      "type": 0,
      "text": "Crown of Blasting, Major",
      "weight": 12,
      "range": [51, 62],
      "drawn": false,
      "img": null,
      "documentCollection": "",
      "documentId": null
    },
    {
      "_id": "Kc9puDWQn23nwQA8",
      "flags": {},
      "type": 0,
      "text": "Helm of Underwater Action",
      "weight": 10,
      "range": [63, 72],
      "drawn": false,
      "img": null,
      "documentCollection": "",
      "documentId": null
    },
    {
      "_id": "15vas8LsFxVo6Rxl",
      "flags": {},
      "type": 0,
      "text": "Crown of Conquest",
      "weight": 7,
      "range": [73, 79],
      "drawn": false,
      "img": null,
      "documentCollection": "",
      "documentId": null
    },
    {
      "_id": "Rul5NAPhDF1qgPJo",
      "flags": {},
      "type": 0,
      "text": "Batrachian Helm",
      "weight": 6,
      "range": [80, 85],
      "drawn": false,
      "img": null,
      "documentCollection": "",
      "documentId": null
    },
    {
      "_id": "4LFZTVYCXzk3d6oP",
      "flags": {},
      "type": 0,
      "text": "Helm of Telepathy",
      "weight": 9,
      "range": [86, 94],
      "drawn": false,
      "img": null,
      "documentCollection": "",
      "documentId": null
    },
    {
      "_id": "HllJSgHGuUjbNlOz",
      "flags": {},
      "type": 0,
      "text": "Plague Mask",
      "weight": 6,
      "range": [95, 100],
      "drawn": false,
      "img": null,
      "documentCollection": "",
      "documentId": null
    }
  ],
  "formula": "1d100",
  "replacement": true,
  "displayRoll": true,
  "_id": "IFLfKfodblA7qcb5",
  "img": "icons/svg/d20-grey.svg",
  "sort": 0
}
