{
  "name": "Greater Major Headband",
  "description": "",
  "results": [
    {
      "_id": "IxPgKZ7LsrtnUL8B",
      "flags": {},
      "type": 0,
      "text": "Headband of Mental Resilience",
      "weight": 20,
      "range": [1, 20],
      "drawn": false,
      "img": null,
      "documentCollection": "",
      "documentId": null
    },
    {
      "_id": "0d0jjP3OLQADiTDf",
      "flags": {},
      "type": 0,
      "text": "Headband of Mental Superiority +4",
      "weight": 30,
      "range": [21, 50],
      "drawn": false,
      "img": null,
      "documentCollection": "",
      "documentId": null
    },
    {
      "_id": "V0ljo5b7SPHrBlAr",
      "flags": {},
      "type": 0,
      "text": "Headband of Aerial Agility +6",
      "weight": 15,
      "range": [51, 65],
      "drawn": false,
      "img": null,
      "documentCollection": "",
      "documentId": null
    },
    {
      "_id": "wuKz7gYihVzJlohR",
      "flags": {},
      "type": 0,
      "text": "Headband of Metal Prowess +6",
      "weight": 20,
      "range": [66, 85],
      "drawn": false,
      "img": null,
      "documentCollection": "",
      "documentId": null
    },
    {
      "_id": "1PzjwWFffAGcFYam",
      "flags": {},
      "type": 0,
      "text": "Headband of Mental Superiority +6",
      "weight": 15,
      "range": [86, 100],
      "drawn": false,
      "img": null,
      "documentCollection": "",
      "documentId": null
    }
  ],
  "formula": "1d100",
  "replacement": true,
  "displayRoll": true,
  "_id": "SMa8b1IuhvqsGPmw",
  "img": "icons/svg/d20-grey.svg",
  "sort": 0
}
