{
  "name": "Greater Minor Head",
  "description": "",
  "results": [
    {
      "_id": "9RchuLzW5jG2L1Jg",
      "flags": {},
      "type": 0,
      "text": "Circlet of Persuasion",
      "weight": 12,
      "range": [1, 12],
      "drawn": false,
      "img": null,
      "documentCollection": "",
      "documentId": null
    },
    {
      "_id": "7w6B7HFs0YEwqX2t",
      "flags": {},
      "type": 0,
      "text": "Grappler's Mask",
      "weight": 9,
      "range": [13, 21],
      "drawn": false,
      "img": null,
      "documentCollection": "",
      "documentId": null
    },
    {
      "_id": "OB2PQHBfSqR9Z8aS",
      "flags": {},
      "type": 0,
      "text": "Helm of Fearsome Mien",
      "weight": 10,
      "range": [22, 31],
      "drawn": false,
      "img": null,
      "documentCollection": "",
      "documentId": null
    },
    {
      "_id": "H5bepjNGXEKM23cO",
      "flags": {},
      "type": 0,
      "text": "Jingasa of the Fortunate Soldier",
      "weight": 9,
      "range": [32, 40],
      "drawn": false,
      "img": null,
      "documentCollection": "",
      "documentId": null
    },
    {
      "_id": "vMtH0BBqIekTEukG",
      "flags": {},
      "type": 0,
      "text": "Helm of Comprehend Languages and Read Magic",
      "weight": 14,
      "range": [41, 54],
      "drawn": false,
      "img": null,
      "documentCollection": "",
      "documentId": null
    },
    {
      "_id": "SA7W6YqgnCSt2vZE",
      "flags": {},
      "type": 0,
      "text": "Crown of Swords",
      "weight": 13,
      "range": [55, 67],
      "drawn": false,
      "img": null,
      "documentCollection": "",
      "documentId": null
    },
    {
      "_id": "dPQxbAT1cn0mgynS",
      "flags": {},
      "type": 0,
      "text": "Crown of Blasting, Minor",
      "weight": 20,
      "range": [68, 87],
      "drawn": false,
      "img": null,
      "documentCollection": "",
      "documentId": null
    },
    {
      "_id": "8jcpfXAHre3vzyA2",
      "flags": {},
      "type": 0,
      "text": "Mask of the Krenshar",
      "weight": 13,
      "range": [88, 100],
      "drawn": false,
      "img": null,
      "documentCollection": "",
      "documentId": null
    }
  ],
  "formula": "1d100",
  "replacement": true,
  "displayRoll": true,
  "_id": "qZjNxM6hpunJYUAi",
  "img": "icons/svg/d20-grey.svg",
  "sort": 0
}
