{
  "name": "Greater Minor Eye",
  "description": "",
  "results": [
    {
      "_id": "aDgLDV2HkLZ7HUpI",
      "flags": {},
      "type": 0,
      "text": "Eyes of the Owl",
      "weight": 20,
      "range": [1, 20],
      "drawn": false,
      "img": null,
      "documentCollection": "",
      "documentId": null
    },
    {
      "_id": "hdt8KJ9bFCna6dP4",
      "flags": {},
      "type": 0,
      "text": "Eyes of Keen Sigh",
      "weight": 24,
      "range": [21, 44],
      "drawn": false,
      "img": null,
      "documentCollection": "",
      "documentId": null
    },
    {
      "_id": "AWJ1wBoorz0IeQ18",
      "flags": {},
      "type": 0,
      "text": "Treasure Hunter's Goggles",
      "weight": 22,
      "range": [45, 66],
      "drawn": false,
      "img": null,
      "documentCollection": "",
      "documentId": null
    },
    {
      "_id": "LcBCtASjkNSGpYLQ",
      "flags": {},
      "type": 0,
      "text": "Inquisitor's Monocle",
      "weight": 18,
      "range": [67, 84],
      "drawn": false,
      "img": null,
      "documentCollection": "",
      "documentId": null
    },
    {
      "_id": "KYSU8i420js8vxzE",
      "flags": {},
      "type": 0,
      "text": "Kinsight Goggles",
      "weight": 16,
      "range": [85, 100],
      "drawn": false,
      "img": null,
      "documentCollection": "",
      "documentId": null
    }
  ],
  "formula": "1d100",
  "replacement": true,
  "displayRoll": true,
  "_id": "ZV3fUhKDmAd0jnLt",
  "img": "icons/svg/d20-grey.svg",
  "sort": 0
}
