{
  "name": "Greater Major Chest",
  "description": "",
  "results": [
    {
      "_id": "gVIObwxCm6XxG9AL",
      "flags": {},
      "type": 0,
      "text": "Merciful Baldric",
      "weight": 35,
      "range": [1, 35],
      "drawn": false,
      "img": null,
      "documentCollection": "",
      "documentId": null
    },
    {
      "_id": "WsRHBLxfgbMZz0uz",
      "flags": {},
      "type": 0,
      "text": "Mantle of Faith",
      "weight": 35,
      "range": [36, 70],
      "drawn": false,
      "img": null,
      "documentCollection": "",
      "documentId": null
    },
    {
      "_id": "CwWPDD35LSB4lLsS",
      "flags": {},
      "type": 0,
      "text": "Mantle of Spell Resistance",
      "weight": 30,
      "range": [71, 100],
      "drawn": false,
      "img": null,
      "documentCollection": "",
      "documentId": null
    }
  ],
  "formula": "1d100",
  "replacement": true,
  "displayRoll": true,
  "_id": "TcnIsPGLMyQvtoBp",
  "img": "icons/svg/d20-grey.svg",
  "sort": 0
}
