{
  "name": "Greater Major Shoulders",
  "description": "",
  "results": [
    {
      "_id": "aBdF7VWUlcZ88ata",
      "flags": {},
      "type": 0,
      "text": "Cloak of Displacement, Major",
      "weight": 15,
      "range": [1, 15],
      "drawn": false,
      "img": null,
      "documentCollection": "",
      "documentId": null
    },
    {
      "_id": "PVZ59SyDN771Y87v",
      "flags": {},
      "type": 0,
      "text": "Wings of Flying",
      "weight": 20,
      "range": [16, 35],
      "drawn": false,
      "img": null,
      "documentCollection": "",
      "documentId": null
    },
    {
      "_id": "NKFd1AN3vktR62fr",
      "flags": {},
      "type": 0,
      "text": "Cloak of Etherealness",
      "weight": 20,
      "range": [36, 55],
      "drawn": false,
      "img": null,
      "documentCollection": "",
      "documentId": null
    },
    {
      "_id": "vLnMbKrrIpdlbe0d",
      "flags": {},
      "type": 0,
      "text": "Wings of the Gargoyle",
      "weight": 25,
      "range": [56, 80],
      "drawn": false,
      "img": null,
      "documentCollection": "",
      "documentId": null
    },
    {
      "_id": "8LGoiUqOlt61u1ZB",
      "flags": {},
      "type": 0,
      "text": "Wyvern Cloak",
      "weight": 20,
      "range": [81, 100],
      "drawn": false,
      "img": null,
      "documentCollection": "",
      "documentId": null
    }
  ],
  "formula": "1d100",
  "replacement": true,
  "displayRoll": true,
  "_id": "DcS9DCq2sDXm5Qwl",
  "img": "icons/svg/d20-grey.svg",
  "sort": 0
}
