{
  "name": "Lesser Medium Wrists",
  "description": "",
  "results": [
    {
      "_id": "Ae8Io2CMJ0Pc6ikv",
      "flags": {},
      "type": 0,
      "text": "Charm Bracelet",
      "img": "icons/svg/d20-black.svg",
      "weight": 4,
      "range": [1, 4],
      "drawn": false,
      "documentId": null,
      "documentCollection": ""
    },
    {
      "_id": "MRiWbBPBTakJvpTp",
      "flags": {},
      "type": 0,
      "text": "Duelist's Vambraces",
      "img": "icons/svg/d20-black.svg",
      "weight": 4,
      "range": [5, 8],
      "drawn": false,
      "documentId": null,
      "documentCollection": ""
    },
    {
      "_id": "tnIyg8W6XHiBDurS",
      "flags": {},
      "type": 0,
      "text": "Merciful Vambraces",
      "img": "icons/svg/d20-black.svg",
      "weight": 5,
      "range": [9, 13],
      "drawn": false,
      "documentId": null,
      "documentCollection": ""
    },
    {
      "_id": "BPl0ekW0i57E5iCR",
      "flags": {},
      "type": 0,
      "text": "Vambraces of the Tactician",
      "img": "icons/svg/d20-black.svg",
      "weight": 5,
      "range": [14, 18],
      "drawn": false,
      "documentId": null,
      "documentCollection": ""
    },
    {
      "_id": "mhnGFIvYyOHn9J5v",
      "flags": {},
      "type": 0,
      "text": "Bracers of Armor +3",
      "img": "icons/svg/d20-black.svg",
      "weight": 25,
      "range": [19, 43],
      "drawn": false,
      "documentId": null,
      "documentCollection": ""
    },
    {
      "_id": "hDMDT04QcK4VKjxe",
      "flags": {},
      "type": 0,
      "text": "Seducer's Bane",
      "img": "icons/svg/d20-black.svg",
      "weight": 10,
      "range": [44, 53],
      "drawn": false,
      "documentId": null,
      "documentCollection": ""
    },
    {
      "_id": "gWr1vqk5dctry3nw",
      "flags": {},
      "type": 0,
      "text": "Bracers of the Avenging Knight",
      "img": "icons/svg/d20-black.svg",
      "weight": 5,
      "range": [54, 58],
      "drawn": false,
      "documentId": null,
      "documentCollection": ""
    },
    {
      "_id": "sNrEH3H3f8ofe3qP",
      "flags": {},
      "type": 0,
      "text": "Arrowmaster's Bracers",
      "img": "icons/svg/d20-black.svg",
      "weight": 5,
      "range": [59, 63],
      "drawn": false,
      "documentId": null,
      "documentCollection": ""
    },
    {
      "_id": "Y1iQTjTCW5ZkQYkZ",
      "flags": {},
      "type": 0,
      "text": "Vambraces of the Genie (Efreeti)",
      "img": "icons/svg/d20-black.svg",
      "weight": 10,
      "range": [64, 73],
      "drawn": false,
      "documentId": null,
      "documentCollection": ""
    },
    {
      "_id": "Ck5bydNGvGzukdqM",
      "flags": {},
      "type": 0,
      "text": "Bracelet of Bargaining",
      "img": "icons/svg/d20-black.svg",
      "weight": 5,
      "range": [74, 78],
      "drawn": false,
      "documentId": null,
      "documentCollection": ""
    },
    {
      "_id": "Fgd0JcrkLsaGPano",
      "flags": {},
      "type": 0,
      "text": "Bracelet of Mercy",
      "img": "icons/svg/d20-black.svg",
      "weight": 4,
      "range": [79, 82],
      "drawn": false,
      "documentId": null,
      "documentCollection": ""
    },
    {
      "_id": "lCtbisJaY3T0dqk4",
      "flags": {},
      "type": 0,
      "text": "Bracers of the Merciful Knight",
      "img": "icons/svg/d20-black.svg",
      "weight": 4,
      "range": [83, 86],
      "drawn": false,
      "documentId": null,
      "documentCollection": ""
    },
    {
      "_id": "Nylp4vb8FpYfDXNd",
      "flags": {},
      "type": 0,
      "text": "Bracelet of Second Chances",
      "img": "icons/svg/d20-black.svg",
      "weight": 4,
      "range": [87, 90],
      "drawn": false,
      "documentId": null,
      "documentCollection": ""
    },
    {
      "_id": "MDo2X5AbGTJ5kDgh",
      "flags": {},
      "type": 0,
      "text": "Bracers of Armor +4",
      "img": "icons/svg/d20-black.svg",
      "weight": 9,
      "range": [91, 99],
      "drawn": false,
      "documentId": null,
      "documentCollection": ""
    },
    {
      "_id": "gyKxzRBhysNlnu1h",
      "flags": {},
      "type": 0,
      "text": "Shackles of Durance Vile",
      "img": "icons/svg/d20-black.svg",
      "weight": 1,
      "range": [100, 100],
      "drawn": false,
      "documentId": null,
      "documentCollection": ""
    }
  ],
  "formula": "1d100",
  "replacement": true,
  "displayRoll": true,
  "_id": "ZCud0FVyAuzDhtny",
  "img": "icons/svg/d20-grey.svg",
  "sort": 0
}
