{
  "name": "Lesser Minor Shoulders",
  "description": "",
  "results": [
    {
      "_id": "Vxu6yoaHdFCkuCU7",
      "flags": {},
      "type": 0,
      "text": "Catching Cape",
      "img": "icons/svg/d20-black.svg",
      "weight": 6,
      "range": [1, 6],
      "drawn": false,
      "documentId": null,
      "documentCollection": ""
    },
    {
      "_id": "ZORRWRLt3brOQm2b",
      "flags": {},
      "type": 0,
      "text": "Cloak of Human Guise",
      "img": "icons/svg/d20-black.svg",
      "weight": 4,
      "range": [7, 10],
      "drawn": false,
      "documentId": null,
      "documentCollection": ""
    },
    {
      "_id": "AKgUXkUsikpyYjV5",
      "flags": {},
      "type": 0,
      "text": "Cloak of Resistance +1",
      "img": "icons/svg/d20-black.svg",
      "weight": 20,
      "range": [11, 30],
      "drawn": false,
      "documentId": null,
      "documentCollection": ""
    },
    {
      "_id": "PT5necSLlfRHehp0",
      "flags": {},
      "type": 0,
      "text": "Muleback Cords",
      "img": "icons/svg/d20-black.svg",
      "weight": 6,
      "range": [31, 36],
      "drawn": false,
      "documentId": null,
      "documentCollection": ""
    },
    {
      "_id": "ABFwKF11yy18mmxH",
      "flags": {},
      "type": 0,
      "text": "Shawl of Life-Keeping",
      "img": "icons/svg/d20-black.svg",
      "weight": 2,
      "range": [37, 38],
      "drawn": false,
      "documentId": null,
      "documentCollection": ""
    },
    {
      "_id": "1LvTurDbM1xKVMas",
      "flags": {},
      "type": 0,
      "text": "Shield Cloak",
      "img": "icons/svg/d20-black.svg",
      "weight": 6,
      "range": [39, 44],
      "drawn": false,
      "documentId": null,
      "documentCollection": ""
    },
    {
      "_id": "2HVFjNYfRzkBMJQl",
      "flags": {},
      "type": 0,
      "text": "Quickchange Cloak",
      "img": "icons/svg/d20-black.svg",
      "weight": 6,
      "range": [45, 50],
      "drawn": false,
      "documentId": null,
      "documentCollection": ""
    },
    {
      "_id": "2V0oGmhAvzxHOspW",
      "flags": {},
      "type": 0,
      "text": "Cowardly Crouching Cloak",
      "img": "icons/svg/d20-black.svg",
      "weight": 6,
      "range": [51, 56],
      "drawn": false,
      "documentId": null,
      "documentCollection": ""
    },
    {
      "_id": "LdOecEHQmJYTb4gH",
      "flags": {},
      "type": 0,
      "text": "Cloak of Elvenkind",
      "img": "icons/svg/d20-black.svg",
      "weight": 18,
      "range": [57, 74],
      "drawn": false,
      "documentId": null,
      "documentCollection": ""
    },
    {
      "_id": "f6aO90tdvRgfR5I4",
      "flags": {},
      "type": 0,
      "text": "Cloak of the Hedge Wizard",
      "img": "icons/svg/d20-black.svg",
      "weight": 6,
      "range": [75, 80],
      "drawn": false,
      "documentId": null,
      "documentCollection": ""
    },
    {
      "_id": "27n2PxvVlTtbcJ4C",
      "flags": {},
      "type": 0,
      "text": "Cloak of Fiery Vanishing",
      "img": "icons/svg/d20-black.svg",
      "weight": 5,
      "range": [81, 85],
      "drawn": false,
      "documentId": null,
      "documentCollection": ""
    },
    {
      "_id": "31iOMGoZ2QkBCZbD",
      "flags": {},
      "type": 0,
      "text": "Cloak of Fangs",
      "img": "icons/svg/d20-black.svg",
      "weight": 9,
      "range": [86, 94],
      "drawn": false,
      "documentId": null,
      "documentCollection": ""
    },
    {
      "_id": "Z3Ekp227WMGmZERv",
      "flags": {},
      "type": 0,
      "text": "Pauldrons of the Serpent",
      "img": "icons/svg/d20-black.svg",
      "weight": 3,
      "range": [95, 97],
      "drawn": false,
      "documentId": null,
      "documentCollection": ""
    },
    {
      "_id": "NKHHyCXnmcoCEmum",
      "flags": {},
      "type": 0,
      "text": "Stonemist Cloak",
      "img": "icons/svg/d20-black.svg",
      "weight": 3,
      "range": [98, 100],
      "drawn": false,
      "documentId": null,
      "documentCollection": ""
    }
  ],
  "formula": "1d100",
  "replacement": true,
  "displayRoll": true,
  "_id": "MrpqT5oFVRYyf9F0",
  "img": "icons/svg/d20-grey.svg",
  "sort": 0
}
