{
  "_id": "QeTShHO47dPTHdOm",
  "name": "Lesser Major Divine Scrolls",
  "description": "",
  "results": [
    {
      "_id": "oh5j2UFsBDWykLAR",
      "flags": {},
      "type": 2,
      "text": "Common Level 4 Divine Scrolls",
      "img": "icons/svg/d20-black.svg",
      "weight": 30,
      "range": [1, 30],
      "drawn": false,
      "documentCollection": "pf1.ultimate-equipment",
      "documentId": "RNrVll5rxHRbCQR3"
    },
    {
      "_id": "uQbIyD1aF39jLkLi",
      "flags": {},
      "type": 2,
      "text": "Common Level 5 Divine Scrolls",
      "img": "icons/svg/d20-black.svg",
      "weight": 35,
      "range": [31, 65],
      "drawn": false,
      "documentCollection": "pf1.ultimate-equipment",
      "documentId": "BG4XznAfOTCnSRPR"
    },
    {
      "_id": "JtJVGuhSLnLP6aYg",
      "flags": {},
      "type": 2,
      "text": "Common Level 6 Divine Scrolls",
      "img": "icons/svg/d20-black.svg",
      "weight": 25,
      "range": [66, 90],
      "drawn": false,
      "documentCollection": "pf1.ultimate-equipment",
      "documentId": "zsWLHWfWBY4Shqpg"
    },
    {
      "_id": "vH2lgnkXlpD1LiQe",
      "flags": {},
      "type": 2,
      "text": "Common Level 7 Divine Scrolls",
      "weight": 10,
      "range": [91, 100],
      "drawn": false,
      "documentCollection": "pf1.ultimate-equipment",
      "documentId": "8E3ZJ2ipJI34hFyS",
      "img": null
    }
  ],
  "formula": "1d100",
  "replacement": true,
  "displayRoll": true,
  "img": "icons/svg/d20-grey.svg",
  "sort": 0
}
