{
  "name": "Lesser Minor Neck",
  "description": "",
  "results": [
    {
      "_id": "EnZcixoGpvY2qbuK",
      "flags": {},
      "type": 0,
      "text": "Hand of the Mage",
      "weight": 10,
      "range": [1, 10],
      "drawn": false,
      "img": null,
      "documentCollection": "",
      "documentId": null
    },
    {
      "_id": "IjKm1LCTtiwgnuhe",
      "flags": {},
      "type": 0,
      "text": "Aegis of Recovery",
      "weight": 8,
      "range": [11, 18],
      "drawn": false,
      "img": null,
      "documentCollection": "",
      "documentId": null
    },
    {
      "_id": "01Pr1dsqdvHJc2zk",
      "flags": {},
      "type": 0,
      "text": "Amulet of Bullet Protection +1",
      "weight": 7,
      "range": [19, 25],
      "drawn": false,
      "img": null,
      "documentCollection": "",
      "documentId": null
    },
    {
      "_id": "K4VfFUbqhlu87miQ",
      "flags": {},
      "type": 0,
      "text": "Brooch of Shielding",
      "weight": 12,
      "range": [26, 37],
      "drawn": false,
      "img": null,
      "documentCollection": "",
      "documentId": null
    },
    {
      "_id": "f4JBrMipEN1QdGrf",
      "flags": {},
      "type": 0,
      "text": "Necklace of Fireballs (Type I)",
      "weight": 12,
      "range": [38, 49],
      "drawn": false,
      "img": null,
      "documentCollection": "",
      "documentId": null
    },
    {
      "_id": "I0q4S4Q0kwvpAJMy",
      "flags": {},
      "type": 0,
      "text": "Amulet of Natural Armor +1",
      "weight": 14,
      "range": [50, 63],
      "drawn": false,
      "img": null,
      "documentCollection": "",
      "documentId": null
    },
    {
      "_id": "s7U3mQZjjmwWpXmx",
      "flags": {},
      "type": 0,
      "text": "Golembane Scarab",
      "weight": 9,
      "range": [64, 72],
      "drawn": false,
      "img": null,
      "documentCollection": "",
      "documentId": null
    },
    {
      "_id": "FLMVLzxzvaNbvOah",
      "flags": {},
      "type": 0,
      "text": "Necklace of Fireballs (Type II)",
      "weight": 10,
      "range": [73, 82],
      "drawn": false,
      "img": null,
      "documentCollection": "",
      "documentId": null
    },
    {
      "_id": "dAvM3gqhGQifKDC9",
      "flags": {},
      "type": 0,
      "text": "Swarmbane Clasp",
      "weight": 7,
      "range": [83, 89],
      "drawn": false,
      "img": null,
      "documentCollection": "",
      "documentId": null
    },
    {
      "_id": "RCQf4cKukvgIkYwd",
      "flags": {},
      "type": 0,
      "text": "Mind Sentinel Medallion",
      "weight": 6,
      "range": [90, 95],
      "drawn": false,
      "img": null,
      "documentCollection": "",
      "documentId": null
    },
    {
      "_id": "EZ672MljktPaD8Lf",
      "flags": {},
      "type": 0,
      "text": "Mummer's Ruff",
      "weight": 5,
      "range": [96, 100],
      "drawn": false,
      "img": null,
      "documentCollection": "",
      "documentId": null
    }
  ],
  "formula": "1d100",
  "replacement": true,
  "displayRoll": true,
  "_id": "F7Ktrb2HmQonmhhC",
  "img": "icons/svg/d20-grey.svg",
  "sort": 0
}
