{
  "name": "Lesser Minor Specific Weapons",
  "description": "",
  "results": [
    {
      "_id": "EmyuNTXR5QOlw6Ke",
      "flags": {},
      "type": 0,
      "text": "Tracer Bullet",
      "weight": 2,
      "range": [1, 2],
      "drawn": false,
      "img": null,
      "documentCollection": "",
      "documentId": null
    },
    {
      "_id": "ak8GoD7RvkIyOaMI",
      "flags": {},
      "type": 0,
      "text": "Sleep Arrow",
      "weight": 6,
      "range": [3, 8],
      "drawn": false,
      "img": null,
      "documentCollection": "",
      "documentId": null
    },
    {
      "_id": "AHcTwalNTGvYHnc6",
      "flags": {},
      "type": 0,
      "text": "Dustburst Bullet",
      "weight": 2,
      "range": [9, 10],
      "drawn": false,
      "img": null,
      "documentCollection": "",
      "documentId": null
    },
    {
      "_id": "03SivOaHCHVDnvS0",
      "flags": {},
      "type": 0,
      "text": "Tangle Bolt",
      "weight": 6,
      "range": [11, 16],
      "drawn": false,
      "img": null,
      "documentCollection": "",
      "documentId": null
    },
    {
      "_id": "gsoDGr0qjD1jRXZh",
      "flags": {},
      "type": 0,
      "text": "Screaming Bolt",
      "weight": 6,
      "range": [17, 22],
      "drawn": false,
      "img": null,
      "documentCollection": "",
      "documentId": null
    },
    {
      "_id": "rlaGL9YCR99hZLDP",
      "flags": {},
      "type": 0,
      "text": "Masterwork Silver Dagger",
      "weight": 10,
      "range": [23, 32],
      "drawn": false,
      "img": null,
      "documentCollection": "",
      "documentId": null
    },
    {
      "_id": "foLiCAFSaodOorwi",
      "flags": {},
      "type": 0,
      "text": "Alchemist's Bullet",
      "weight": 2,
      "range": [33, 34],
      "drawn": false,
      "img": null,
      "documentCollection": "",
      "documentId": null
    },
    {
      "_id": "nDa0r1HATyrq1mDz",
      "flags": {},
      "type": 0,
      "text": "Cold Iron Masterwork Longsword",
      "weight": 10,
      "range": [35, 44],
      "drawn": false,
      "img": null,
      "documentCollection": "",
      "documentId": null
    },
    {
      "_id": "A6ol72pNZmjFhQiq",
      "flags": {},
      "type": 0,
      "text": "Hushing Arrow",
      "weight": 6,
      "range": [45, 50],
      "drawn": false,
      "img": null,
      "documentCollection": "",
      "documentId": null
    },
    {
      "_id": "V8MNTY8icRDSiCwl",
      "flags": {},
      "type": 0,
      "text": "Hushing Arrow, Greater",
      "weight": 6,
      "range": [51, 56],
      "drawn": false,
      "img": null,
      "documentCollection": "",
      "documentId": null
    },
    {
      "_id": "ZTcpY39WwQoQRIbu",
      "flags": {},
      "type": 0,
      "text": "Javelin of Lightning",
      "weight": 10,
      "range": [57, 66],
      "drawn": false,
      "img": null,
      "documentCollection": "",
      "documentId": null
    },
    {
      "_id": "0DIfpmgw0fWVbK83",
      "flags": {},
      "type": 0,
      "text": "Searing Arrow",
      "weight": 8,
      "range": [67, 74],
      "drawn": false,
      "img": null,
      "documentCollection": "",
      "documentId": null
    },
    {
      "_id": "7HOTSvO3Y6fYlnSd",
      "flags": {},
      "type": 0,
      "text": "Sizzling Arrow",
      "weight": 8,
      "range": [75, 82],
      "drawn": false,
      "img": null,
      "documentCollection": "",
      "documentId": null
    },
    {
      "_id": "gHlzyRLq4K1uggI3",
      "flags": {},
      "type": 0,
      "text": "Burrowing Bullet, Lesser",
      "weight": 2,
      "range": [83, 84],
      "drawn": false,
      "img": null,
      "documentCollection": "",
      "documentId": null
    },
    {
      "_id": "2jRLacOT49cwn7Ia",
      "flags": {},
      "type": 0,
      "text": "Dust Bolt",
      "weight": 8,
      "range": [85, 92],
      "drawn": false,
      "img": null,
      "documentCollection": "",
      "documentId": null
    },
    {
      "_id": "mj0PKFsACu7sZj0d",
      "flags": {},
      "type": 0,
      "text": "Halfling Slaying Arrow",
      "weight": 8,
      "range": [93, 100],
      "drawn": false,
      "img": null,
      "documentCollection": "",
      "documentId": null
    }
  ],
  "formula": "1d100",
  "replacement": true,
  "displayRoll": true,
  "_id": "g95u0EKJ4nNqKi9j",
  "img": "icons/svg/d20-grey.svg",
  "sort": 0
}
