{
  "name": "Lesser Medium Hand",
  "description": "",
  "results": [
    {
      "_id": "suT8B7JLxbuf5eXr",
      "flags": {},
      "type": 0,
      "text": "Deliquescent Gloves",
      "weight": 2,
      "range": [1, 2],
      "drawn": false,
      "img": null,
      "documentCollection": "",
      "documentId": null
    },
    {
      "_id": "54qbfN3fn5q0G8yA",
      "flags": {},
      "type": 0,
      "text": "Form-Fixing Gauntlets",
      "weight": 3,
      "range": [3, 5],
      "drawn": false,
      "img": null,
      "documentCollection": "",
      "documentId": null
    },
    {
      "_id": "8B5que9IwrccMZ8c",
      "flags": {},
      "type": 0,
      "text": "Iron Cobra Gauntlet",
      "weight": 3,
      "range": [6, 8],
      "drawn": false,
      "img": null,
      "documentCollection": "",
      "documentId": null
    },
    {
      "_id": "h6DTcxv9JCdwnEmP",
      "flags": {},
      "type": 0,
      "text": "Shadow Falconer's Glove",
      "weight": 8,
      "range": [9, 16],
      "drawn": false,
      "img": null,
      "documentCollection": "",
      "documentId": null
    },
    {
      "_id": "fUrVYT99WDdHATQu",
      "flags": {},
      "type": 0,
      "text": "Spellstrike Gloves",
      "weight": 4,
      "range": [17, 20],
      "drawn": false,
      "img": null,
      "documentCollection": "",
      "documentId": null
    },
    {
      "_id": "a3Z7NhK4j5o9wut5",
      "flags": {},
      "type": 0,
      "text": "Glyphbane Gloves",
      "weight": 8,
      "range": [21, 28],
      "drawn": false,
      "img": null,
      "documentCollection": "",
      "documentId": null
    },
    {
      "_id": "tQ9cBpc0kJdpsk9A",
      "flags": {},
      "type": 0,
      "text": "Glove of Storing",
      "weight": 12,
      "range": [29, 40],
      "drawn": false,
      "img": null,
      "documentCollection": "",
      "documentId": null
    },
    {
      "_id": "JiBnL5TFgNxbTSYT",
      "flags": {},
      "type": 0,
      "text": "Gloves of Shaping",
      "weight": 6,
      "range": [41, 46],
      "drawn": false,
      "img": null,
      "documentCollection": "",
      "documentId": null
    },
    {
      "_id": "IDntNeabn0ox1OnC",
      "flags": {},
      "type": 0,
      "text": "Pliant Gloves",
      "weight": 8,
      "range": [47, 54],
      "drawn": false,
      "img": null,
      "documentCollection": "",
      "documentId": null
    },
    {
      "_id": "NneRpCGrwq4f1znB",
      "flags": {},
      "type": 0,
      "text": "Gauntlet of Rust",
      "weight": 22,
      "range": [55, 76],
      "drawn": false,
      "img": null,
      "documentCollection": "",
      "documentId": null
    },
    {
      "_id": "vxgzzcjiXxPH66X7",
      "flags": {},
      "type": 0,
      "text": "Gloves of Dueling",
      "weight": 24,
      "range": [77, 100],
      "drawn": false,
      "img": null,
      "documentCollection": "",
      "documentId": null
    }
  ],
  "formula": "1d100",
  "replacement": true,
  "displayRoll": true,
  "_id": "xTJbKOirGKWjnx5q",
  "img": "icons/svg/d20-grey.svg",
  "sort": 0
}
