{
  "name": "Medium Armours",
  "description": "",
  "results": [
    {
      "_id": "LzuyvcmQHY9M9n6G",
      "flags": {},
      "type": 0,
      "text": "Armored Coat",
      "weight": 1,
      "range": [1, 1],
      "drawn": false,
      "img": null,
      "documentCollection": "",
      "documentId": null
    },
    {
      "_id": "NUkjlGMpfUHjy5KZ",
      "flags": {},
      "type": 0,
      "text": "Hide",
      "weight": 1,
      "range": [2, 2],
      "drawn": false,
      "img": null,
      "documentCollection": "",
      "documentId": null
    },
    {
      "_id": "4YKRSpbVVfentccG",
      "flags": {},
      "type": 0,
      "text": "Do-Maru",
      "weight": 1,
      "range": [3, 3],
      "drawn": false,
      "img": null,
      "documentCollection": "",
      "documentId": null
    },
    {
      "_id": "My5v5pvHV2cTROun",
      "flags": {},
      "type": 0,
      "text": "Kikko",
      "weight": 1,
      "range": [4, 4],
      "drawn": false,
      "img": null,
      "documentCollection": "",
      "documentId": null
    },
    {
      "_id": "dOUJ7CqwAKUZtwOu",
      "flags": {},
      "type": 0,
      "text": "Lamellar (Horn)",
      "weight": 1,
      "range": [5, 5],
      "drawn": false,
      "img": null,
      "documentCollection": "",
      "documentId": null
    },
    {
      "_id": "SKkpoaeApynXsmYe",
      "flags": {},
      "type": 0,
      "text": "Scale Mail",
      "weight": 1,
      "range": [6, 6],
      "drawn": false,
      "img": null,
      "documentCollection": "",
      "documentId": null
    },
    {
      "_id": "GfWIPvIYKgQPzbZe",
      "flags": {},
      "type": 0,
      "text": "Agile Breastplate",
      "weight": 1,
      "range": [7, 7],
      "drawn": false,
      "img": null,
      "documentCollection": "",
      "documentId": null
    },
    {
      "_id": "ZiwVDYkCl8L1KpJs",
      "flags": {},
      "type": 0,
      "text": "Breastplate",
      "weight": 1,
      "range": [8, 8],
      "drawn": false,
      "img": null,
      "documentCollection": "",
      "documentId": null
    },
    {
      "_id": "5wSG5NxrXIMcAtku",
      "flags": {},
      "type": 0,
      "text": "Chainmail",
      "weight": 1,
      "range": [9, 9],
      "drawn": false,
      "img": null,
      "documentCollection": "",
      "documentId": null
    },
    {
      "_id": "3roIQtnPU8sA7bDO",
      "flags": {},
      "type": 0,
      "text": "Four-Mirror",
      "weight": 1,
      "range": [10, 10],
      "drawn": false,
      "img": null,
      "documentCollection": "",
      "documentId": null
    },
    {
      "_id": "aBz2XtIkLgo8BnTC",
      "flags": {},
      "type": 0,
      "text": "Lamellar (Steel)",
      "weight": 1,
      "range": [11, 11],
      "drawn": false,
      "img": null,
      "documentCollection": "",
      "documentId": null
    },
    {
      "_id": "fda1szQIVwBSTKj1",
      "flags": {},
      "type": 0,
      "text": "Mountain Pattern",
      "weight": 1,
      "range": [12, 12],
      "drawn": false,
      "img": null,
      "documentCollection": "",
      "documentId": null
    }
  ],
  "formula": "1d12",
  "replacement": true,
  "displayRoll": true,
  "_id": "TpPETWczOodgPRXE",
  "img": "icons/svg/d20-grey.svg",
  "sort": 0
}
