{
  "_id": "5TzaS38RPAx1oj9p",
  "name": "Breastplate",
  "type": "equipment",
  "img": "systems/pf1/icons/items/armor/breastplate.PNG",
  "system": {
    "description": {
      "value": "<p>A breastplate protects a wearer’s torso with a single piece of sculpted metal, similar to the core piece of a suit of full plate. Despite its sturdiness, its inflexibility and open back make it inferior to complete suits of metal armor, but still an improvement over most non-metal armors.</p>"
    },
    "weight": {
      "value": 30
    },
    "price": 200,
    "hp": {
      "max": 30,
      "value": 30
    },
    "hardness": 10,
    "baseTypes": ["Breastplate"],
    "equipmentSubtype": "mediumArmor",
    "armor": {
      "value": 6,
      "dex": 3,
      "acp": 4
    },
    "spellFailure": 25,
    "slot": "armor"
  }
}
