{
  "_id": "zJLsDErTaV81BkJM",
  "name": "Lamellar Cuirass",
  "type": "equipment",
  "img": "systems/pf1/icons/items/armor/lamellar-cuirass.png",
  "system": {
    "description": {
      "value": "<p>This armor consists of a light breastplate and shoulder guards made from lacquered leather plates bound together and fitted over a silk shirt.</p>"
    },
    "weight": {
      "value": 8
    },
    "price": 15,
    "hardness": 2,
    "baseTypes": ["Lamellar Cuirass"],
    "armor": {
      "value": 2,
      "dex": 4
    },
    "spellFailure": 5,
    "slot": "armor"
  }
}
