{
  "_id": "gcw5rPJ8u0i6IjhV",
  "name": "Rosewood Armor",
  "type": "equipment",
  "img": "systems/pf1/icons/items/armor/rosewood.png",
  "system": {
    "description": {
      "value": "<p>This suit of leather armor is wrapped in special rose vines. Treat this as leather armor with armor spikes. The vines must be watered with at least 1 gallon of water each day or they wither and die, turning the armor into normal leather armor.</p>"
    },
    "weight": {
      "value": 15
    },
    "price": 50,
    "hardness": 2,
    "baseTypes": ["Rosewood Armor"],
    "armor": {
      "value": 2,
      "dex": 6
    },
    "spellFailure": 10,
    "slot": "armor"
  }
}
