{
  "_id": "OZHfmAh4i6Bkoun3",
  "name": "Wooden Snarlshield",
  "type": "equipment",
  "img": "systems/pf1/icons/items/armor/shield-heavy-wood.png",
  "system": {
    "description": {
      "value": "<p>The snarlshield is a heavy shield that features a dozen rods protruding from its surface. When used as a weapon to bash an opponent, a snarlshield has the disarm quality.</p>"
    },
    "weight": {
      "value": 20
    },
    "price": 50,
    "hp": {
      "max": 15,
      "value": 15
    },
    "hardness": 5,
    "subType": "shield",
    "equipmentSubtype": "heavyShield",
    "armor": {
      "value": 2,
      "acp": 3
    },
    "spellFailure": 15,
    "slot": "shield"
  }
}
