{
  "_id": "Mzd7VOaRHy5ne6nW",
  "name": "Bard (Rebuild)",
  "type": "feat",
  "img": "systems/pf1/icons/skills/violet_07.jpg",
  "system": {
    "description": {
      "value": "<p><b>Acquired/Inherited Template</b> Acquired<br><b>Simple Template</b> Yes<br><b>Usable with Summons</b> No<p>Capable of inspiring its companions to accomplish great things, a bard creature is most effective when surrounded by allies. It also gains some limited spellcasting. A bard creature's CR increases by 2 if the creature has 10 or more HD.<p><b>Quick Rules:</b> +2 on all rolls based on Cha; can use bardic performance† for a number of rounds per day equal to 4 + its HD + its Cha modifier (using its HD as its bard level to determine the bonuses and types of performance); can cast a small number of bard spells (see the Bard Spells Known table, below) using its HD as its CL and gaining two spell slots of each level for every level of spells known.<p><b>Rebuild Rules:</b> Special Attacks bardic performance† (can be used a number of rounds per day equal to 4 + the creature's HD + its Cha modifier, using its HD as its bard level to determine bonuses and types of performance); Bard Spells can cast a small number of bard spells (see the Bard Spells Known table below) using its HD as its CL and gaining two spell slots of each level for every level of spells known; Ability Scores +4 Charisma.<p>Bard Spells Known</p>\n<hr>\n<table>\n<tbody>\n<tr>\n<td><b>HD</b></td>\n<td><b>0</b></td>\n<td><b>1</b></td>\n<td><b>2</b></td>\n<td><b>3</b></td>\n<td><b>4</b></td>\n<td><b>5</b></td>\n<td><b>6</b></td>\n</tr>\n<tr>\n<td>1-4</td>\n<td>2</td>\n<td>1</td>\n<td>—</td>\n<td>—</td>\n<td>—</td>\n<td>—</td>\n<td>—</td>\n</tr>\n<tr>\n<td>5-8</td>\n<td>2</td>\n<td>2</td>\n<td>1</td>\n<td>—</td>\n<td>—</td>\n<td>—</td>\n<td>—</td>\n</tr>\n<tr>\n<td>9-12</td>\n<td>‡</td>\n<td>2</td>\n<td>2</td>\n<td>1</td>\n<td>—</td>\n<td>—</td>\n<td>—</td>\n</tr>\n<tr>\n<td>13-16</td>\n<td>‡</td>\n<td>‡</td>\n<td>2</td>\n<td>2</td>\n<td>1</td>\n<td>—</td>\n<td>—</td>\n</tr>\n<tr>\n<td>17-20</td>\n<td>‡</td>\n<td>‡</td>\n<td>‡</td>\n<td>2</td>\n<td>2</td>\n<td>1</td>\n<td>—</td>\n</tr>\n<tr>\n<td>21+</td>\n<td>‡</td>\n<td>‡</td>\n<td>‡</td>\n<td>‡</td>\n<td>2</td>\n<td>2</td>\n<td>1</td>\n</tr>\n</tbody>\n</table>"
    },
    "changes": [
      {
        "_id": "xlpt0yzw",
        "formula": "4",
        "subTarget": "cha",
        "modifier": "untyped"
      }
    ],
    "subType": "template",
    "crOffset": "@attributes.hd.total >= 10 ? 2 : 1"
  }
}
