{
  "_id": "JijLUMbU0f062mnv",
  "name": "Fungoid Creature",
  "type": "feat",
  "img": "systems/pf1/icons/skills/violet_07.jpg",
  "system": {
    "description": {
      "value": "<p><b>Acquired/Inherited Template</b> Acquired<br><b>Simple Template</b> Yes<br><b>Usable with Summons</b> No<p>Creatures with the fungoid template appear as they did in life, save that their flesh is pallid and moist, and mushrooms and mold cake their bodies. This template can be applied to any living, non-plant creature. A fungoid creature’s quick and rebuild rules are the same.<p><b>Rebuild Rules:</b> The creature’s type changes to plant, and it gains all of the traits of the plant type. The creature gains telepathy 100 ft. with other fungoid creatures. Its alignment changes to chaotic evil.</p>"
    },
    "subType": "template",
    "crOffset": "1"
  }
}
