{
  "_id": "Q1cY8r0Pvb66pMG0",
  "name": "Alertness",
  "type": "feat",
  "img": "systems/pf1/icons/feats/alertness.jpg",
  "system": {
    "description": {
      "value": "<i>You often notice things that others might miss.</i>\n<p><b>Benefits</b></p>\n<p>You get a +2 bonus on Perception and Sense Motive skill checks. If you have 10 or more ranks in one of these skills, the bonus increases to +4 for that skill.</p>"
    },
    "tags": ["General", "Skill"],
    "changes": [
      {
        "_id": "4lwdra12",
        "formula": "@skills.sen.rank>=10?4:2",
        "subTarget": "skill.sen",
        "modifier": "untyped"
      },
      {
        "_id": "3f1srila",
        "formula": "@skills.per.rank>=10?4:2",
        "subTarget": "skill.per",
        "modifier": "untyped"
      }
    ],
    "tag": "feat_alertness",
    "useCustomTag": true
  }
}
