{
  "_id": "bqoIfsrF8BF1GC28",
  "name": "Animal Affinity",
  "type": "feat",
  "img": "systems/pf1/icons/feats/animal-affinity.jpg",
  "system": {
    "description": {
      "value": "<em>You are skilled at working with animals and mounts.</em><p><b>Benefits</b><br>You get a +2 bonus on all Handle Animal and Ride skill checks. If you have 10 or more ranks in one of these skills, the bonus increases to +4 for that skill."
    },
    "tags": ["PFS", "General"],
    "changes": [
      {
        "_id": "twf87ij3",
        "formula": "@skills.han.rank >= 10 ? 4 : 2",
        "subTarget": "skill.han",
        "modifier": "untyped"
      },
      {
        "_id": "6cfv98e5",
        "formula": "@skills.rid.rank >= 10 ? 4 : 2",
        "subTarget": "skill.rid",
        "modifier": "untyped"
      }
    ],
    "tag": "feat_animalAffinity",
    "useCustomTag": true
  }
}
