{
  "_id": "rt2cBQvEU0ANE3z4",
  "name": "Craft Rod",
  "type": "feat",
  "img": "systems/pf1/icons/feats/craft-rod.jpg",
  "system": {
    "description": {
      "value": "<i>You can create magic rods.</i>\n<p><b>Prerequisites</b></p>\n<p>Caster level 9th.</p>\n<p><b>Benefits</b></p>\n<p>You can create magic rods. Crafting a rod takes 1 day for each 1,000 gp in its base price. To craft a rod, you must use up raw materials costing half of its base price. See the magic item creation rules in Magic Items for more information.</p>"
    },
    "tags": ["General", "Item Creation"],
    "tag": "feat_craftRod",
    "useCustomTag": true
  }
}
