{
  "_id": "btXWioB3SKJv8YEG",
  "name": "Extend Spell",
  "type": "feat",
  "img": "systems/pf1/icons/feats/extend-spell.jpg",
  "system": {
    "description": {
      "value": "<p><em>You can make your spells last twice as long.</em> \n<p><b>Benefits</b></p>\n<p>An extended spell lasts twice as long as normal. A spell with a duration of concentration, instantaneous, or permanent is not affected by this feat. An extended spell uses up a spell slot one level higher than the spell's actual level.</p>\n<p><b><br>Usage</b>: create copies of spells and adjust them.</p>"
    },
    "tags": ["Metamagic", "Magic"],
    "tag": "feat_extendSpell",
    "useCustomTag": true
  }
}
