{
  "_id": "RDgJ7awoKBhacWsu",
  "name": "Extra Lay On Hands",
  "type": "feat",
  "img": "systems/pf1/icons/feats/extra-lay-on-hands.jpg",
  "system": {
    "description": {
      "value": "<i>You can use your lay on hands ability more often.</i>\n<p><b>Prerequisites</b></p>\n<p>Lay on hands class feature.</p>\n<p><b>Benefits</b></p>\n<p>You can use your lay on hands ability two additional times per day.</p>\n<p><b>Special</b></p>\n<p>You can gain Extra Lay On Hands multiple times. Its effects stack.</p>"
    },
    "tags": ["General"],
    "tag": "feat_extraLayOnHands",
    "useCustomTag": true
  }
}
