{
  "_id": "3HjwKckDBDDPcY2c",
  "name": "Greater Spell Penetration",
  "type": "feat",
  "img": "systems/pf1/icons/feats/greater-spell-penetration.jpg",
  "system": {
    "description": {
      "value": "<i>Your spells break through spell resistance much more easily than most.</i>\n<p><b>Prerequisites</b></p>\n<p>Spell Penetration.</p>\n<p><b>Benefits</b></p>\n<p>You get a +2 bonus on caster level checks (1d20 + caster level) made to overcome a creature's spell resistance. This bonus stacks with the one from Spell Penetration.</p>"
    },
    "tags": ["General", "Magic"],
    "contextNotes": [
      {
        "text": "+[[2]] spell penetration",
        "subTarget": "cl"
      }
    ],
    "tag": "feat_greaterSpellPenetration",
    "useCustomTag": true
  }
}
