{
  "_id": "xq2TFr7bsYBBHOi5",
  "name": "Lunge",
  "type": "feat",
  "img": "systems/pf1/icons/feats/lunge.jpg",
  "system": {
    "description": {
      "value": "<i>You can strike foes that would normally be out of reach.</i>\n<p><b>Prerequisites</b></p>\n<p>Base attack bonus +6.</p>\n<p><b>Benefits</b></p>\n<p>You can increase the reach of your melee attacks by 5 feet until the end of your turn by taking a -2 penalty to your AC until your next turn. You must decide to use this ability before any attacks are made.</p>"
    },
    "tags": ["Combat", "Offensive"],
    "tag": "feat_lunge",
    "useCustomTag": true
  }
}
