{
  "_id": "IPfsLy9sWXF6IBP1",
  "name": "Martial Weapon Proficiency",
  "type": "feat",
  "img": "systems/pf1/icons/feats/martial-weapon-proficiency.jpg",
  "system": {
    "description": {
      "value": "<i>Choose a type of martial weapon. You understand how to use that type of martial weapon in combat.</i>\n<p><b>Benefits</b></p>\n<p>You make attack rolls with the selected weapon normally (without the non-proficient penalty).</p>\n<p><b>Normal</b></p>\n<p>When using a weapon with which you are not proficient, you take a -4 penalty on attack rolls.</p>\n<p><b>Special</b></p>\n<p>Barbarians, fighters, paladins, and rangers are proficient with all martial weapons. They need not select this feat.</p><p>You can gain Martial Weapon Proficiency multiple times. Each time you take the feat, it applies to a new type of weapon.</p>"
    },
    "tags": ["Combat", "Weapon", "Proficiency"],
    "tag": "feat_martialWeaponProficiency",
    "useCustomTag": true,
    "weaponProf": {
      "value": ["mar"]
    }
  }
}
