{
  "_id": "sOCyCmNxe2MBbEaI",
  "name": "Medusa's Wrath",
  "type": "feat",
  "img": "systems/pf1/icons/feats/medusas-wrath.jpg",
  "system": {
    "description": {
      "value": "<i>You can take advantage of your opponent's confusion, delivering multiple blows.</i>\n<p><b>Prerequisites</b></p>\n<p>Improved Unarmed Strike, Gorgon's Fist, Scorpion Style, base attack bonus +11.</p>\n<p><b>Benefits</b></p>\n<p>Whenever you use the full-attack action and make at least one unarmed strike, you can make two additional unarmed strikes at your highest base attack bonus. These bonus attacks must be made against a dazed, flat-footed, paralyzed, staggered, stunned, or unconscious foe.</p>"
    },
    "tags": ["Combat", "Unarmed", "Offensive"],
    "tag": "feat_medusasWrath",
    "useCustomTag": true
  }
}
