{
  "_id": "8rsFtye3PwM6CKli",
  "name": "Point-Blank Shot",
  "type": "feat",
  "img": "systems/pf1/icons/feats/point-blank-shot.jpg",
  "system": {
    "description": {
      "value": "<p><em>You are especially accurate when making ranged attacks against close targets.</em><p><b>Benefits</b><br>You get a +1 bonus on attack and damage rolls with ranged weapons at ranges of up to 30 feet.<p><b>Combat Trick</b><br>You can spend up to 6 stamina points to increase this feat's range by 5 feet for each stamina point you spent.</p>"
    },
    "tags": ["PFS", "Combat"],
    "contextNotes": [
      {
        "subTarget": "attack",
        "target": "attacks",
        "text": "+1 bonus on attack and damage rolls with ranged weapons at ranges of up to 30 feet."
      }
    ],
    "tag": "feat_pointblankShot",
    "useCustomTag": true
  }
}
