{
  "_id": "WnWRcte0jppClLpz",
  "name": "Selective Channeling",
  "type": "feat",
  "img": "systems/pf1/icons/feats/selective-channeling.jpg",
  "system": {
    "description": {
      "value": "<i>You can choose whom to affect when you channel energy.</i>\n<p><b>Prerequisites</b></p>\n<p>Cha 13, channel energy class feature.</p>\n<p><b>Benefits</b></p>\n<p>When you channel energy, you can choose a number of targets in the area up to your Charisma modifier. These targets are not affected by your channeled energy.</p>\n<p><b>Normal</b></p>\n<p>All targets in a 30-foot burst are affected when you channel energy. You can only choose whether or not you are affected.</p>"
    },
    "tags": ["Channeling"],
    "tag": "feat_selectiveChanneling",
    "useCustomTag": true
  }
}
