{
  "_id": "R58RSCpPHbpmtQhU",
  "name": "Reincarnation",
  "img": "icons/magic/nature/leaf-juggle-humanoid-green.webp",
  "description": "Roll table for the reincarnation spell.",
  "results": [
    {
      "_id": "UEvoLBz9gxib3GQD",
      "flags": {},
      "type": 0,
      "text": "Bugbear",
      "img": "icons/svg/d20-black.svg",
      "weight": 1,
      "range": [1, 1],
      "drawn": false,
      "documentCollection": "",
      "documentId": null
    },
    {
      "_id": "I2nfbgjHKYFFiDDg",
      "flags": {},
      "type": 0,
      "text": "Dwarf",
      "img": "icons/svg/d20-black.svg",
      "weight": 1,
      "range": [2, 13],
      "drawn": false,
      "documentCollection": "",
      "documentId": null
    },
    {
      "_id": "vwnUE0AhVLDvizah",
      "flags": {},
      "type": 0,
      "text": "Elf",
      "img": "icons/svg/d20-black.svg",
      "weight": 1,
      "range": [14, 25],
      "drawn": false,
      "documentCollection": "",
      "documentId": null
    },
    {
      "_id": "oEqL1iGgAoXxuRQg",
      "flags": {},
      "type": 0,
      "text": "Gnoll",
      "img": "icons/svg/d20-black.svg",
      "weight": 1,
      "range": [26, 26],
      "drawn": false,
      "documentCollection": "",
      "documentId": null
    },
    {
      "_id": "NksS9k7ywYtlzMTU",
      "flags": {},
      "type": 0,
      "text": "Gnome",
      "img": "icons/svg/d20-black.svg",
      "weight": 1,
      "range": [27, 38],
      "drawn": false,
      "documentCollection": "",
      "documentId": null
    },
    {
      "_id": "1AXZghQFoaeK64EG",
      "flags": {},
      "type": 0,
      "text": "Goblin",
      "img": "icons/svg/d20-black.svg",
      "weight": 1,
      "range": [39, 42],
      "drawn": false,
      "documentCollection": "",
      "documentId": null
    },
    {
      "_id": "dvucUBfNfWeotzsm",
      "flags": {},
      "type": 0,
      "text": "Half-elf",
      "img": "icons/svg/d20-black.svg",
      "weight": 1,
      "range": [43, 52],
      "drawn": false,
      "documentCollection": "",
      "documentId": null
    },
    {
      "_id": "nE1cpWtiYY4fuzN5",
      "flags": {},
      "type": 0,
      "text": "Half-orc",
      "img": "icons/svg/d20-black.svg",
      "weight": 1,
      "range": [53, 62],
      "drawn": false,
      "documentCollection": "",
      "documentId": null
    },
    {
      "_id": "rhL25JZNYBs5V6cA",
      "flags": {},
      "type": 0,
      "text": "Halfling",
      "img": "icons/svg/d20-black.svg",
      "weight": 1,
      "range": [63, 74],
      "drawn": false,
      "documentCollection": "",
      "documentId": null
    },
    {
      "_id": "S89LgRIxwDlTPuNT",
      "flags": {},
      "type": 0,
      "text": "Human",
      "img": "icons/svg/d20-black.svg",
      "weight": 1,
      "range": [75, 89],
      "drawn": false,
      "documentCollection": "",
      "documentId": null
    },
    {
      "_id": "t3TadBWvUTFv5ROH",
      "flags": {},
      "type": 0,
      "text": "Kobold",
      "img": "icons/svg/d20-black.svg",
      "weight": 1,
      "range": [90, 93],
      "drawn": false,
      "documentCollection": "",
      "documentId": null
    },
    {
      "_id": "0IhpvBL5r0z6B6Xz",
      "flags": {},
      "type": 0,
      "text": "Lizardfolk",
      "img": "icons/svg/d20-black.svg",
      "weight": 1,
      "range": [94, 94],
      "drawn": false,
      "documentCollection": "",
      "documentId": null
    },
    {
      "_id": "7AHoO2xsqLoP7Spw",
      "flags": {},
      "type": 0,
      "text": "Orc",
      "img": "icons/svg/d20-black.svg",
      "weight": 1,
      "range": [95, 98],
      "drawn": false,
      "documentCollection": "",
      "documentId": null
    },
    {
      "_id": "u9tIPtIMJ9WsTnyS",
      "flags": {},
      "type": 0,
      "text": "Troglodyte",
      "img": "icons/svg/d20-black.svg",
      "weight": 1,
      "range": [99, 99],
      "drawn": false,
      "documentCollection": "",
      "documentId": null
    },
    {
      "_id": "Ty72CDy9Ma2dXWia",
      "flags": {},
      "type": 0,
      "text": "Other (GM's choice)",
      "img": "icons/svg/d20-black.svg",
      "weight": 1,
      "range": [100, 100],
      "drawn": false,
      "documentCollection": "",
      "documentId": null
    }
  ],
  "formula": "1d100",
  "replacement": true,
  "displayRoll": true,
  "sort": 100001
}
