{
  "_id": "FWSxNZMxtRX1Ygqx",
  "name": "Atlatl Dart",
  "type": "loot",
  "img": "icons/weapons/ammunition/arrows-bodkin-yellow-red.webp",
  "system": {
    "description": {
      "value": "<p><b>Source</b> <em>Ultimate Equipment pg. 22</em></p><h3>Description</h3><p>An atlatl dart is the equivalent of a javelin except it has fletching. If thrown without an atlatl, treat it as a javelin.</p>"
    },
    "tags": ["PFS"],
    "weight": {
      "value": 2
    },
    "price": 1,
    "equipped": false,
    "hp": {
      "max": 1,
      "value": 1
    },
    "hardness": 5,
    "tag": "atlatlDart",
    "subType": "ammo"
  }
}
