{
  "_id": "JIljkqPWhmvAPYbI",
  "name": "Battle Axe",
  "type": "weapon",
  "img": "systems/pf1/icons/items/weapons/battleaxe.PNG",
  "system": {
    "description": {
      "value": "<p><b>Source</b> <em>Ultimate Equipment pg. 18</em>, <em>PRPG Core Rulebook pg. 142</em></p><h3>Statistics</h3><p><b>Damage</b> 1d6 (small), 1d8 (medium); <b>Critical</b> x3; <b>Range</b> -; <b>Type</b> S</p><p><b>Weapon Groups</b> Axes</p><h3>Description</h3><p>The handle of this axe is long enough that you can wield it one-handed or two-handed. The head may have one blade or two, with blade shapes ranging from half-moons to squared edges like narrower versions of woodcutting axes. The wooden haft may be protected and strengthened with metal bands called langets.</p>"
    },
    "tags": ["PFS"],
    "weight": {
      "value": 6
    },
    "price": 10,
    "hp": {
      "max": 5,
      "value": 5
    },
    "hardness": 5,
    "actions": [
      {
        "_id": "19zgpmrxx14jpf78",
        "name": "Attack",
        "img": "systems/pf1/icons/items/weapons/battleaxe.PNG",
        "activation": {
          "type": "attack"
        },
        "duration": {
          "units": "inst"
        },
        "range": {
          "value": "0",
          "units": "melee"
        },
        "actionType": "mwak",
        "damage": {
          "parts": [
            {
              "formula": "sizeRoll(1, 8, @size)",
              "type": {
                "values": ["slashing"],
                "custom": ""
              }
            }
          ]
        },
        "formulaicAttacks": {
          "count": {
            "formula": "min(3, ceil(@attributes.bab.total / 5) - 1)"
          },
          "bonus": {
            "formula": "@formulaicAttack * -5"
          }
        },
        "ability": {
          "attack": "str",
          "damage": "str",
          "critMult": 3
        }
      }
    ],
    "tag": "battleAxe",
    "baseTypes": ["Battle Axe"],
    "weaponGroups": {
      "value": ["axes"]
    },
    "subType": "martial",
    "weaponSubtype": "1h"
  }
}
