{
  "_id": "WKd82kvMjQdU8K50",
  "name": "Double Chicken Saber",
  "type": "weapon",
  "img": "systems/pf1/icons/items/weapons/sabre-sawtooth.png",
  "system": {
    "description": {
      "value": "<p><b>Source</b> <em>Ultimate Equipment pg. 18</em>, <em>Ultimate Combat pg. 130</em></p><h3>Statistics</h3><p><b>Damage</b> 1d4 (small), 1d6 (medium); <b>Critical</b> 19-20/x2; <b>Range</b> -; <b>Type</b> S</p><p><b>Weapon Groups</b> Blades, Heavy; Monk</p><h3>Description</h3><p>The tip of this 3-foot-long, straight-bladed sword is bent into two staggered, opposing sharpened spurs that can be used to pull weapons from an opponent's hands.</p>"
    },
    "tags": ["PFS"],
    "weight": {
      "value": 3
    },
    "price": 12,
    "hp": {
      "max": 5,
      "value": 5
    },
    "hardness": 10,
    "actions": [
      {
        "_id": "vq4340eaiosyjvux",
        "name": "Attack",
        "img": "systems/pf1/icons/items/weapons/sabre-sawtooth.png",
        "activation": {
          "type": "attack"
        },
        "duration": {
          "units": "inst"
        },
        "range": {
          "value": "0",
          "units": "melee"
        },
        "actionType": "mwak",
        "damage": {
          "parts": [
            {
              "formula": "sizeRoll(1, 6, @size)",
              "type": {
                "values": ["slashing"],
                "custom": ""
              }
            }
          ]
        },
        "formulaicAttacks": {
          "count": {
            "formula": "min(3, ceil(@attributes.bab.total / 5) - 1)"
          },
          "bonus": {
            "formula": "@formulaicAttack * -5"
          }
        },
        "ability": {
          "attack": "str",
          "damage": "str",
          "critRange": 19
        }
      }
    ],
    "tag": "doubleChickenSaber",
    "baseTypes": ["Double Chicken Saber"],
    "weaponGroups": {
      "value": ["bladesHeavy", "monk"]
    },
    "subType": "martial",
    "weaponSubtype": "1h",
    "properties": {
      "dis": true,
      "mnk": true
    }
  }
}
