{
  "_id": "qfGr6bMC2JWEhtqW",
  "name": "Entangling Bolt (Siege)",
  "type": "loot",
  "img": "systems/pf1/icons/items/potions/magic-green.jpg",
  "system": {
    "description": {
      "value": "<p><b>Source</b> <em>Belkzen, Hold of the Orc Hordes pg. 39</em></p>\n<h3>Statistics</h3><p><b>Category</b> Ammunition; <b>Proficiency</b> Siege Engine</p>\n<h3>Description</h3>\n<p>When launched from a ballista, this specialized bolt unfurls into a large net. An attack with entangling ammunition is a ranged touch attack, but it's only effective within one range increment. If it hits, the target is entangled, but the attack deals no damage.</p>\n<p>An entangled creature can escape with a successful <b>DC 20 Escape Artist check</b> (a full-round action). The net has 5 hit points and can be burst with a successful <b>DC 25 Strength check</b> (also a full-round action).</p>\n<p>Entangling ammunition is useful only against creatures within one size category of the firing ballista.</p>"
    },
    "weight": {
      "value": 25
    },
    "price": 50,
    "equipped": false,
    "hp": {
      "max": 1,
      "value": 1
    },
    "hardness": 5,
    "tag": "entanglingBoltSiege"
  }
}
