{
  "_id": "WKeBSFyzkZeAl3B9",
  "name": "Fighting Fan",
  "type": "weapon",
  "img": "icons/weapons/fist/glove-spiked.webp",
  "system": {
    "description": {
      "value": "<p><b>Source</b> <em>Ultimate Equipment pg. 20</em>, <em>Ultimate Combat pg. 130</em></p><h3>Statistics</h3><p><b>Damage</b> 1d3 (small), 1d4 (medium); <b>Critical</b> x3; <b>Range</b> -; <b>Type</b> P</p><p><b>Weapon Groups</b> Close; Monk</p><h3>Description</h3><p>Made to resemble a courtier's fan, this device consists of silk paper stretched and folded over a folding frame of hardened steel. Folding fans are typically wielded in pairs using a technique that distracts the opponent. The fans sport sharp tips, which can be poisoned. For a list of appropriate poisons, see Poisons on page 110.</p>"
    },
    "tags": ["PFS"],
    "price": 5,
    "hp": {
      "max": 2,
      "value": 2
    },
    "hardness": 10,
    "actions": [
      {
        "_id": "jy7qxtnwj4yses5n",
        "name": "Attack",
        "img": "icons/weapons/fist/glove-spiked.webp",
        "activation": {
          "type": "attack"
        },
        "duration": {
          "units": "inst"
        },
        "range": {
          "value": "0",
          "units": "melee"
        },
        "actionType": "mwak",
        "damage": {
          "parts": [
            {
              "formula": "sizeRoll(1, 4, @size)",
              "type": {
                "values": ["piercing"],
                "custom": ""
              }
            }
          ]
        },
        "formulaicAttacks": {
          "count": {
            "formula": "min(3, ceil(@attributes.bab.total / 5) - 1)"
          },
          "bonus": {
            "formula": "@formulaicAttack * -5"
          }
        },
        "ability": {
          "attack": "str",
          "damage": "str",
          "critMult": 3
        }
      }
    ],
    "tag": "fightingFan",
    "baseTypes": ["Fighting Fan"],
    "weaponGroups": {
      "value": ["close", "monk"]
    },
    "subType": "exotic",
    "properties": {
      "dst": true,
      "mnk": true
    }
  }
}
