{
  "_id": "8ZULFlFHvgrLZn3N",
  "name": "Gas Cylinder",
  "type": "weapon",
  "img": "icons/weapons/thrown/bomb-gas-grey-purple.webp",
  "system": {
    "description": {
      "value": "<p><b>Source</b> <em>Pathfinder #71: Rasputin Must Die! pg. 64</em></p><h3>Statistics</h3><p><b>Damage</b> see description (medium); <b>Critical</b> -; <b>Range</b> -; <b>Type</b> -</p><p><b>Category</b> Explosive; <b>Proficiency</b> Exotic</p><h3>Description</h3><p>This large metal canister  releases a cloud of toxic gas. It is usually placed on the  ground and triggered so that the wind blows the gas toward  enemy positions. Normally, multiple gas cylinders are  placed in line and triggered together to cover a wider area  of the battlefield. First, determine what direction the wind  is blowing by rolling 1d4 (1 is north, 2 is east, 3 is south,  and 4 is west). When triggered, a gas cylinder releases a  cloud of mustard gas (see the sidebar on page 67) in a 15-  foot cone. On the following 2 rounds, the cloud extends  by an additional 15-foot square away from the canister,  forming a 15-foot-wide, 45-foot-long cloud at the end of  3 rounds. The cloud moves with the wind, rolling along  the surface of the ground, and disperses after 10 rounds. A  strong wind (21+ mph) disperses the cloud in 4 rounds, and  a severe wind (31+ mph) disperses it in 1 round.</p>"
    },
    "tags": ["Modern Firearm"],
    "weight": {
      "value": 50
    },
    "price": 300,
    "hardness": 10,
    "actions": [
      {
        "_id": "p6zuetip9wyfsbsh",
        "name": "Attack",
        "img": "icons/weapons/thrown/bomb-gas-grey-purple.webp",
        "activation": {
          "type": "attack"
        },
        "duration": {
          "units": "inst"
        },
        "range": {
          "value": "0",
          "units": "melee"
        },
        "actionType": "mwak",
        "formulaicAttacks": {
          "count": {
            "formula": "min(3, ceil(@attributes.bab.total / 5) - 1)"
          },
          "bonus": {
            "formula": "@formulaicAttack * -5"
          }
        },
        "ability": {
          "attack": "str",
          "damage": "str",
          "critRange": null
        }
      }
    ],
    "tag": "gasCylinder",
    "baseTypes": ["Gas Cylinder"],
    "subType": "misc",
    "weaponSubtype": "other",
    "properties": {
      "spc": true
    }
  }
}
