{
  "_id": "QIZOnIIzvUKYLekN",
  "name": "Halfling Rope-Shot",
  "type": "weapon",
  "img": "systems/pf1/icons/items/weapons/halfling-hope-shot.PNG",
  "system": {
    "description": {
      "value": "<p><b>Source</b> <em>Melee Tactics Toolbox pg. 19</em></p><h3>Statistics</h3><p><b>Damage</b> 1d4 (small), 1d6 (medium); <b>Critical</b> x2; <b>Range</b> -; <b>Type</b> B</p><p><b>Weapon Groups</b> Flails</p><h3>Description</h3><p>One end of this short rope has a sling bullet wrapped in a monkey's fist knot, and the other end is tied in a small loop. You wrap the loop around your wrist as a full-round action and swing the weighted end like a flail. If the loop is properly attached to your wrist and you drop the rope-shot or are disarmed, you can recover it as a swift action. Removing the weapon's loop is a full-round action. You get a +2 bonus on Sleight of Hand checks made to conceal a rope-shot on your body. Halflings treat rope-shots as martial weapons.</p>"
    },
    "tags": ["PFS", "Halfling"],
    "weight": {
      "value": 1
    },
    "price": 1,
    "hp": {
      "max": 2,
      "value": 2
    },
    "hardness": 10,
    "actions": [
      {
        "_id": "1gehl5rdmr8uhnvv",
        "name": "Attack",
        "img": "systems/pf1/icons/items/weapons/halfling-hope-shot.PNG",
        "activation": {
          "type": "attack"
        },
        "duration": {
          "units": "inst"
        },
        "range": {
          "value": "0",
          "units": "melee"
        },
        "actionType": "mwak",
        "damage": {
          "parts": [
            {
              "formula": "sizeRoll(1, 6, @size)",
              "type": {
                "values": ["bludgeoning"],
                "custom": ""
              }
            }
          ]
        },
        "formulaicAttacks": {
          "count": {
            "formula": "min(3, ceil(@attributes.bab.total / 5) - 1)"
          },
          "bonus": {
            "formula": "@formulaicAttack * -5"
          }
        },
        "ability": {
          "attack": "str",
          "damage": "str"
        },
        "usesAmmo": true
      }
    ],
    "tag": "halflingRopeshot",
    "baseTypes": ["Halfling Rope-Shot"],
    "weaponGroups": {
      "value": ["flails"]
    },
    "subType": "exotic",
    "properties": {
      "dis": true
    },
    "ammoType": "slingBullet"
  }
}
