{
  "_id": "4ZPiCFQ4y1bXrz3l",
  "name": "Hotchkiss 6 Pounder",
  "type": "weapon",
  "img": "icons/weapons/artillery/cannon-engraved-gold.webp",
  "system": {
    "description": {
      "value": "<p><b>Source</b> <em>Pathfinder #71: Rasputin Must Die! pg. 64</em></p><h3>Statistics</h3><p><b>Damage</b> 8d6 ; <b>Critical</b> x3; <b>Range</b> 300 ft.; <b>Type</b> B, P, and S</p><p><b>Misfire</b> 1; <b>Crew</b> 2; <b>Aim</b> 0; <b>Load</b> 2</p><p><b>Category</b> Siege; <b>Proficiency</b> Exotic</p><h3>Description</h3><p>The Hotchkiss 6 pounder  gun is a shortened version of the Hotchkiss 6 pounder  naval gun, designed for use in the sponsons of World  War I-era tanks such as the Mark IV. The Hotchkiss  6 pounder is a direct-f ire advanced siege f irearm that  must be mounted in place on a vehicle to be used. It  f ires high explosive (HE) shells that deal 8d6 points  of bludgeoning, piercing, and slashing  damage in a 30-foot radius around the  point of impact (Ref lex DC 20 for  half ). A Hotchkiss 6 pounder is a Medium weapon and  has hardness 10 and 70 hit points. Hotchkiss HE shells  cost 25 gp each and weigh 6 pounds each.\"</p>"
    },
    "tags": ["Modern Firearm"],
    "price": 2000,
    "hardness": 10,
    "actions": [
      {
        "_id": "dlfa3883plfrhgsa",
        "name": "Attack",
        "img": "icons/weapons/artillery/cannon-engraved-gold.webp",
        "activation": {
          "type": "attack"
        },
        "duration": {
          "units": "inst"
        },
        "range": {
          "value": "300",
          "units": "ft",
          "maxIncrements": 10
        },
        "actionType": "rwak",
        "damage": {
          "parts": [
            {
              "formula": "sizeRoll(8, 6, @size)",
              "type": {
                "values": ["slashing"],
                "custom": ""
              }
            }
          ]
        },
        "formulaicAttacks": {
          "count": {
            "formula": "min(3, ceil(@attributes.bab.total / 5) - 1)"
          },
          "bonus": {
            "formula": "@formulaicAttack * -5"
          }
        },
        "ability": {
          "attack": "dex",
          "critMult": 3
        }
      }
    ],
    "tag": "hotchkiss6Pounder",
    "baseTypes": ["Hotchkiss 6 Pounder"],
    "weaponGroups": {
      "value": ["firearms"]
    },
    "subType": "exotic",
    "weaponSubtype": "ranged"
  }
}
