{
  "_id": "Yeli1JRCgnmVyhWT",
  "name": "Light Mace",
  "type": "weapon",
  "img": "systems/pf1/icons/items/weapons/mace-light.png",
  "system": {
    "description": {
      "value": "<p><b>Source</b> <em>Ultimate Equipment pg. 17</em>, <em>PRPG Core Rulebook pg. 142</em></p><h3>Statistics</h3><p><b>Damage</b> 1d4 (small), 1d6 (medium); <b>Critical</b> x2; <b>Range</b> -; <b>Type</b> B</p><p><b>Weapon Groups</b> Hammers</p><h3>Description</h3><p>A mace is made up of an ornate metal head attached to a simple wooden or metal shaft. The mace's head is usually flanged to cause more pain or damage. Some more primitive maces are made with stone bound to a wooden haft with leather straps.</p>"
    },
    "tags": ["PFS"],
    "weight": {
      "value": 4
    },
    "price": 5,
    "hp": {
      "max": 2,
      "value": 2
    },
    "hardness": 10,
    "actions": [
      {
        "_id": "yx8alqrgkwcot6eg",
        "name": "Attack",
        "img": "systems/pf1/icons/items/weapons/mace-light.png",
        "activation": {
          "type": "attack"
        },
        "duration": {
          "units": "inst"
        },
        "range": {
          "value": "0",
          "units": "melee"
        },
        "actionType": "mwak",
        "damage": {
          "parts": [
            {
              "formula": "sizeRoll(1, 6, @size)",
              "type": {
                "values": ["bludgeoning"],
                "custom": ""
              }
            }
          ]
        },
        "formulaicAttacks": {
          "count": {
            "formula": "min(3, ceil(@attributes.bab.total / 5) - 1)"
          },
          "bonus": {
            "formula": "@formulaicAttack * -5"
          }
        },
        "ability": {
          "attack": "str",
          "damage": "str"
        }
      }
    ],
    "tag": "lightMace",
    "baseTypes": ["Light Mace"],
    "weaponGroups": {
      "value": ["hammers"]
    }
  }
}
