{
  "_id": "KVnt2bU40TdySu6L",
  "name": "Lizard King War Trident",
  "type": "weapon",
  "img": "icons/weapons/polearms/trident-silver-blue.webp",
  "system": {
    "description": {
      "value": "<p><b>Source</b> <em>Classic Monsters Revisited pg. 38</em></p>\n<h3>Statistics</h3><p><b>Damage</b> see text (small), see text (medium); <b>Critical</b> x3; <b>Range</b> 10 ft.; <b>Type</b> P</p>\n<h3>Description</h3>\n<p>Upon his 100th birthday, a lizard king's status is officially acknowledged, and he is honored with the presentation of a special weapon, the war trident, reserved exclusively for the use of his kind. These large, two-handed tridents are much heavier than normal (12 pounds) in order to take advantage of their wielders' great strength, and as a result they lose their range increment but deal 1d10 points of damage and have a x3 critical hit multiplier. In addition, extensive ritualistic practice with this weapon gives the lizard king the Improved Critical (war trident) feat as a bonus feat. A war trident is worth 20 gp, although most are masterwork and many are inlaid with precious metals and fetch higher prices.</p>"
    },
    "tags": ["D&D 3.5"],
    "weight": {
      "value": 12
    },
    "price": 20,
    "hardness": 10,
    "actions": [
      {
        "_id": "4gghr0xjseu2iw4h",
        "name": "Attack",
        "img": "icons/weapons/polearms/trident-silver-blue.webp",
        "activation": {
          "type": "attack"
        },
        "duration": {
          "units": "inst"
        },
        "range": {
          "value": "10",
          "units": "melee"
        },
        "actionType": "mwak",
        "damage": {
          "parts": [
            {
              "formula": "NULL",
              "type": {
                "values": ["piercing"],
                "custom": ""
              }
            }
          ]
        },
        "formulaicAttacks": {
          "count": {
            "formula": "min(3, ceil(@attributes.bab.total / 5) - 1)"
          },
          "bonus": {
            "formula": "@formulaicAttack * -5"
          }
        },
        "ability": {
          "attack": "str",
          "damage": "str",
          "damageMult": 1.5,
          "critMult": 3
        }
      }
    ],
    "tag": "lizardKingWarTrident",
    "held": "2h",
    "baseTypes": ["Lizard King War Trident"],
    "subType": "martial",
    "weaponSubtype": "2h",
    "properties": {
      "brc": true
    }
  }
}
