{
  "_id": "oXoCHa3VES4B98oz",
  "name": "Lucerne Hammer",
  "type": "weapon",
  "img": "systems/pf1/icons/items/weapons/hammer-lucerne.PNG",
  "system": {
    "description": {
      "value": "<p><b>Source</b> <em>Ultimate Equipment pg. 19</em>, <em>Adventurer's Armory pg. 4</em>, <em>Advanced Player's Guide pg. 179</em></p><h3>Statistics</h3><p><b>Damage</b> 1d10 (small), 1d12 (medium); <b>Critical</b> x2; <b>Range</b> -; <b>Type</b> B or P</p><p><b>Weapon Groups</b> Polearms</p><h3>Description</h3><p>This polearm has both a pronged hammer head for crushing blows and a spiked head for piercing and peeling armor. The long haft allows the wielder to put amazing force behind the head of this weapon. You gain a +2 bonus on combat maneuver checks to sunder medium or heavy armor with a lucerne hammer.</p>"
    },
    "tags": ["PFS"],
    "weight": {
      "value": 12
    },
    "price": 15,
    "hardness": 10,
    "actions": [
      {
        "_id": "oedqn3n666dneh82",
        "name": "Attack",
        "img": "systems/pf1/icons/items/weapons/hammer-lucerne.PNG",
        "activation": {
          "type": "attack"
        },
        "duration": {
          "units": "inst"
        },
        "range": {
          "value": "0",
          "units": "reach"
        },
        "actionType": "mwak",
        "damage": {
          "parts": [
            {
              "formula": "sizeRoll(1, 12, @size)",
              "type": {
                "values": ["bludgeoning", "piercing"],
                "custom": ""
              }
            }
          ]
        },
        "formulaicAttacks": {
          "count": {
            "formula": "min(3, ceil(@attributes.bab.total / 5) - 1)"
          },
          "bonus": {
            "formula": "@formulaicAttack * -5"
          }
        },
        "ability": {
          "attack": "str",
          "damage": "str",
          "damageMult": 1.5
        }
      }
    ],
    "tag": "lucerneHammer",
    "held": "2h",
    "baseTypes": ["Lucerne Hammer"],
    "weaponGroups": {
      "value": ["polearms"]
    },
    "subType": "martial",
    "weaponSubtype": "2h",
    "properties": {
      "brc": true,
      "rch": true,
      "spc": true
    }
  }
}
