{
  "_id": "xFxquLFo0ZnpHraP",
  "name": "M1914 Grenade (Fragmentation)",
  "type": "weapon",
  "img": "icons/weapons/thrown/bomb-fuse-black.webp",
  "system": {
    "description": {
      "value": "<p><b>Source</b> <em>Pathfinder #71: Rasputin Must Die! pg. 64</em></p>\n<h3>Statistics</h3><p><b>Damage</b> 4d6 (medium); <b>Critical</b> x2; <b>Range</b> 20 ft.; <b>Type</b> B, P, and S</p>\n<p><b>Category</b> Explosive; <b>Proficiency</b> Exotic</p>\n<h3>Description</h3>\n<p>Standard M1914 grenades can be fitted with an optional fragmentation sleeve. This sleeve converts the normal concussive blasts into a cloud of deadly shrapnel at the expense of a decreased damage radius.</p>\n<p>The device is armed and detonated in the same manner as a regular M1914 grenade, though the explosion radius is reduced to a 15-foot radius and the grenade instead deals 4d6 bludgeoning, piercing, and slashing damage (Reflex DC 15 for half ).</p>"
    },
    "tags": ["Modern Firearm"],
    "weight": {
      "value": 1
    },
    "price": 75,
    "hardness": 10,
    "actions": [
      {
        "_id": "4pok671vfi75rydu",
        "name": "Attack",
        "img": "icons/weapons/thrown/bomb-fuse-black.webp",
        "activation": {
          "type": "attack"
        },
        "duration": {
          "units": "inst"
        },
        "range": {
          "value": "20",
          "units": "ft",
          "maxIncrements": 5
        },
        "measureTemplate": {
          "type": "circle",
          "size": "20"
        },
        "actionType": "save",
        "damage": {
          "parts": [
            {
              "formula": "sizeRoll(4, 6, @size)",
              "type": {
                "values": ["slashing"],
                "custom": ""
              }
            }
          ]
        },
        "formulaicAttacks": {
          "count": {
            "formula": "min(3, ceil(@attributes.bab.total / 5) - 1)"
          },
          "bonus": {
            "formula": "@formulaicAttack * -5"
          }
        },
        "ability": {
          "attack": "dex"
        },
        "save": {
          "dc": "15",
          "type": "ref",
          "description": "Reflex half"
        }
      }
    ],
    "tag": "m1914GrenadeFragmentation",
    "baseTypes": ["M1914 Grenade (Fragmentation)"],
    "subType": "misc",
    "weaponSubtype": "other",
    "properties": {
      "spc": true
    }
  }
}
