{
  "_id": "QhRGBeQuwG6OWZxM",
  "name": "Paddle-Foot Pistol",
  "type": "weapon",
  "img": "icons/weapons/guns/gun-pistol-wood.webp",
  "system": {
    "description": {
      "value": "<p><b>Source</b> <em>People of the Wastes pg. 15</em></p>\n<h3>Statistics</h3><p><b>Damage</b> 1d4 (small), 1d6 (medium); <b>Critical</b> x3; <b>Range</b> 20 ft.; <b>Type</b> B and P</p>\n<p><b>Misfire</b> 1-2 (5 ft.); <b>Capacity</b> 4</p>\n<h3>Description</h3>\n<p>This early firearm has four barrels, each of which can be fired one at a time with a single adjustable flintlock. The paddle-foot pistol fires in a 20-foot cone when making a scattering shot, and it has a 20-foot range increment when firing a bullet.</p>\n<p>Additionally, the paddle-foot pistol has a maximum range of three range increments. Each barrel of a paddle-foot pistol can hold 1 dose of black powder, along with either pellets or a bullet, or it can hold a single alchemical cartridge.</p>"
    },
    "tags": ["PFS", "Early Firearm"],
    "weight": {
      "value": 5
    },
    "price": 2500,
    "hardness": 10,
    "actions": [
      {
        "_id": "ljd4otk2q4sfyy7r",
        "name": "Attack",
        "img": "icons/weapons/guns/gun-pistol-wood.webp",
        "activation": {
          "type": "attack"
        },
        "duration": {
          "units": "inst"
        },
        "range": {
          "value": "20",
          "units": "ft",
          "maxIncrements": 10
        },
        "actionType": "rwak",
        "damage": {
          "parts": [
            {
              "formula": "sizeRoll(1, 6, @size)",
              "type": {
                "values": ["bludgeoning", "piercing"],
                "custom": ""
              }
            }
          ]
        },
        "formulaicAttacks": {
          "count": {
            "formula": "min(3, ceil(@attributes.bab.total / 5) - 1)"
          },
          "bonus": {
            "formula": "@formulaicAttack * -5"
          },
          "label": ""
        },
        "ability": {
          "attack": "dex",
          "critMult": 3
        },
        "usesAmmo": true
      }
    ],
    "tag": "paddlefootPistol",
    "baseTypes": ["Paddle-Foot Pistol"],
    "weaponGroups": {
      "value": ["firearms"]
    },
    "subType": "exotic",
    "weaponSubtype": "ranged",
    "properties": {
      "sct": true
    },
    "ammoType": "gunBullet"
  }
}
