{
  "_id": "VhBxnIv5zfzrlb93",
  "name": "Pepperbox",
  "type": "weapon",
  "img": "icons/weapons/guns/gun-pistol-wood.webp",
  "system": {
    "description": {
      "value": "<p><b>Source</b> <em>Ultimate Equipment pg. 43</em>, <em>Ultimate Combat pg. 138</em></p>\n<h3>Statistics</h3><p><b>Damage</b> 1d6 (small), 1d8 (medium); <b>Critical</b> x4; <b>Range</b> 20 ft.; <b>Type</b> B and P</p>\n<p><b>Misfire</b> 1-2 (5 ft.); <b>Capacity</b> 6</p>\n<h3>Description</h3>\n<p>This pistol has six barrels instead of one. The entire barrel housing can be quickly rotated by hand between shots (a free action requiring one free hand), allowing all six bullets to be fired before the weapon must be reloaded.</p>\n<p>Each barrel of a pepperbox uses either a bullet and 1 dose of black powder or a single alchemical cartridge as ammunition.</p>"
    },
    "tags": ["PFS", "Early Firearm"],
    "weight": {
      "value": 5
    },
    "price": 3000,
    "hardness": 10,
    "actions": [
      {
        "_id": "7pp2xx0umlcl4qyr",
        "name": "Attack",
        "img": "icons/weapons/guns/gun-pistol-wood.webp",
        "activation": {
          "type": "attack"
        },
        "duration": {
          "units": "inst"
        },
        "range": {
          "value": "20",
          "units": "ft",
          "maxIncrements": 10
        },
        "actionType": "rwak",
        "damage": {
          "parts": [
            {
              "formula": "sizeRoll(1, 8, @size)",
              "type": {
                "values": ["bludgeoning", "piercing"],
                "custom": ""
              }
            }
          ]
        },
        "formulaicAttacks": {
          "count": {
            "formula": "min(3, ceil(@attributes.bab.total / 5) - 1)"
          },
          "bonus": {
            "formula": "@formulaicAttack * -5"
          }
        },
        "ability": {
          "attack": "dex",
          "critMult": 4
        },
        "usesAmmo": true
      }
    ],
    "tag": "pepperbox",
    "baseTypes": ["Pepperbox"],
    "weaponGroups": {
      "value": ["firearms"]
    },
    "subType": "exotic",
    "weaponSubtype": "ranged",
    "ammoType": "gunBullet"
  }
}
