{
  "_id": "qqfGSep9THDz7Ptx",
  "name": "Pheromone Arrow",
  "type": "loot",
  "img": "systems/pf1/icons/items/weapons/arrow-special.PNG",
  "system": {
    "description": {
      "value": "<p><b>Source</b> <em>Alchemy Manual pg. 21</em>, <em>Elves of Golarion pg. 22</em><h3>Statistics</h3><p><b>Category</b> Alchemical Weapons</p>\n<h3>Description</h3>\n<p>The arrowhead of this arrow is coated with potent substances that react to blood and sweat, releasing a strong aroma that most predators recognize as the scent of tasty injured prey and other creatures perceive as merely unpleasant.</p>\n<p>Any creature with the scent ability gains a <b>+2 circumstance bonus on attack and damage rolls</b> against a target marked with a pheromone arrow.</p>\n<p>This effect lasts for 1 hour or until the target spends 1 minute washing it off.</p>\n<h3>Alchemical Recipe</h3>\n<p><b>Recipe</b> (10 myrrh + 10 salt + 14 urea)/congelation; <b>Craft</b> 25<br><b>Time</b> 10 minutes; <b>Tools</b> alchemist's lab; <b>Type</b> alchemical weapon</p>"
    },
    "price": 15,
    "equipped": false,
    "hp": {
      "max": 1,
      "value": 1
    },
    "hardness": 5,
    "tag": "pheromoneArrow",
    "subType": "ammo",
    "extraType": "arrow"
  }
}
