{
  "_id": "05NnBuNnkMsaNoXf",
  "name": "Punching Dagger",
  "type": "weapon",
  "img": "systems/pf1/icons/items/weapons/dagger-punching.PNG",
  "system": {
    "description": {
      "value": "<p><b>Source</b> <em>Ultimate Equipment pg. 17</em>, <em>PRPG Core Rulebook pg. 142</em></p><h3>Statistics</h3><p><b>Damage</b> 1d3 (small), 1d4 (medium); <b>Critical</b> x3; <b>Range</b> -; <b>Type</b> P</p><p><b>Weapon Groups</b> Close</p><h3>Description</h3><p>A punching dagger's blade is attached to a horizontal handle that projects out from the fist when held.</p>"
    },
    "tags": ["PFS"],
    "weight": {
      "value": 1
    },
    "price": 2,
    "hp": {
      "max": 2,
      "value": 2
    },
    "hardness": 10,
    "actions": [
      {
        "_id": "462qfl1buzz5focd",
        "name": "Attack",
        "img": "systems/pf1/icons/items/weapons/dagger-punching.PNG",
        "activation": {
          "type": "attack"
        },
        "duration": {
          "units": "inst"
        },
        "range": {
          "value": "0",
          "units": "melee"
        },
        "actionType": "mwak",
        "damage": {
          "parts": [
            {
              "formula": "sizeRoll(1, 4, @size)",
              "type": {
                "values": ["piercing"],
                "custom": ""
              }
            }
          ]
        },
        "formulaicAttacks": {
          "count": {
            "formula": "min(3, ceil(@attributes.bab.total / 5) - 1)"
          },
          "bonus": {
            "formula": "@formulaicAttack * -5"
          }
        },
        "ability": {
          "attack": "str",
          "damage": "str",
          "critMult": 3
        }
      }
    ],
    "tag": "punchingDagger",
    "baseTypes": ["Punching Dagger"],
    "weaponGroups": {
      "value": ["close"]
    }
  }
}
