{
  "_id": "JIB2GKFRf0FLPUCN",
  "name": "Quadrens",
  "type": "weapon",
  "img": "systems/pf1/icons/items/weapons/quadrens.png",
  "system": {
    "description": {
      "value": "<p><b>Source</b> <em>Ultimate Equipment pg. 20</em>, <em>Ultimate Combat pg. 144</em></p><h3>Statistics</h3><p><b>Damage</b> 1d4 (small), 1d6 (medium); <b>Critical</b> 19-20/x2; <b>Range</b> -; <b>Type</b> P</p><p><b>Weapon Groups</b> Blades, Light</p><h3>Description</h3><p>A quadrens looks similar to a sturdy dagger, but with four spikes mounted in a square pattern in place of a blade. When you score a critical hit with a quadrens, the resulting gaping wound causes 1 point of bleed damage. In addition to punching through hide and armor, the spikes can also be used to snag opponents' blades and twist them out of their grips.</p>"
    },
    "tags": ["PFS"],
    "weight": {
      "value": 2
    },
    "price": 8,
    "hp": {
      "max": 2,
      "value": 2
    },
    "hardness": 10,
    "actions": [
      {
        "_id": "vksammi22cfok3cw",
        "name": "Attack",
        "img": "systems/pf1/icons/items/weapons/quadrens.png",
        "activation": {
          "type": "attack"
        },
        "duration": {
          "units": "inst"
        },
        "range": {
          "value": "0",
          "units": "melee"
        },
        "actionType": "mwak",
        "damage": {
          "parts": [
            {
              "formula": "sizeRoll(1, 6, @size)",
              "type": {
                "values": ["piercing"],
                "custom": ""
              }
            }
          ]
        },
        "formulaicAttacks": {
          "count": {
            "formula": "min(3, ceil(@attributes.bab.total / 5) - 1)"
          },
          "bonus": {
            "formula": "@formulaicAttack * -5"
          }
        },
        "ability": {
          "attack": "str",
          "damage": "str",
          "critRange": 19
        }
      }
    ],
    "tag": "quadrens",
    "baseTypes": ["Quadrens"],
    "weaponGroups": {
      "value": ["bladesLight"]
    },
    "subType": "exotic",
    "properties": {
      "prf": true
    }
  }
}
