{
  "_id": "naiJiv2t267Xyi09",
  "name": "Ranseur",
  "type": "weapon",
  "img": "systems/pf1/icons/items/weapons/ranseur.PNG",
  "system": {
    "description": {
      "value": "<p><b>Source</b> <em>Ultimate Equipment pg. 19</em>, <em>PRPG Core Rulebook pg. 143</em></p><h3>Statistics</h3><p><b>Damage</b> 1d6 (small), 2d4 (medium); <b>Critical</b> x3; <b>Range</b> -; <b>Type</b> P</p><p><b>Weapon Groups</b> Polearms</p><h3>Description</h3><p>Similar in appearance to a trident, a ranseur has a single spear at its tip, flanked by a pair of short, curving blades.</p>"
    },
    "tags": ["PFS"],
    "weight": {
      "value": 12
    },
    "price": 10,
    "hardness": 10,
    "actions": [
      {
        "_id": "9jr391wrtml36nx9",
        "name": "Attack",
        "img": "systems/pf1/icons/items/weapons/ranseur.PNG",
        "activation": {
          "type": "attack"
        },
        "duration": {
          "units": "inst"
        },
        "range": {
          "value": "0",
          "units": "reach"
        },
        "actionType": "mwak",
        "damage": {
          "parts": [
            {
              "formula": "sizeRoll(2, 4, @size)",
              "type": {
                "values": ["piercing"],
                "custom": ""
              }
            }
          ]
        },
        "formulaicAttacks": {
          "count": {
            "formula": "min(3, ceil(@attributes.bab.total / 5) - 1)"
          },
          "bonus": {
            "formula": "@formulaicAttack * -5"
          }
        },
        "ability": {
          "attack": "str",
          "damage": "str",
          "damageMult": 1.5,
          "critMult": 3
        }
      }
    ],
    "tag": "ranseur",
    "held": "2h",
    "baseTypes": ["Ranseur"],
    "weaponGroups": {
      "value": ["polearms"]
    },
    "subType": "martial",
    "weaponSubtype": "2h",
    "properties": {
      "dis": true,
      "rch": true
    }
  }
}
