{
  "_id": "fqiZkTAd1BlgOaII",
  "name": "Scizore",
  "type": "weapon",
  "img": "systems/pf1/icons/items/weapons/scizore.png",
  "system": {
    "description": {
      "value": "<p><b>Source</b> <em>Ultimate Equipment pg. 18</em>, <em>Adventurer's Armory pg. 4</em>, <em>Ultimate Combat pg. 144</em></p><h3>Statistics</h3><p><b>Damage</b> 1d8 (small), 1d10 (medium); <b>Critical</b> x2; <b>Range</b> -; <b>Type</b> P</p><p><b>Weapon Groups</b> Blades, Light; Close</p><h3>Description</h3><p>The scizore is a hardened tube that fits over the forearm, ending in a semicircular blade used for devastating bladed punch attacks. The scizore grants a +1 shield bonus to AC, but if you attack with the blade, you lose the AC bonus that round and take a -1 penalty on attack rolls with it. While wearing a scizore, you cannot use that hand for anything else. A scizore provides a +10 bonus to your CMD against being disarmed of your scizore. Donning a scizore is a full-round action.</p>"
    },
    "tags": ["PFS"],
    "weight": {
      "value": 3
    },
    "price": 20,
    "hp": {
      "max": 5,
      "value": 5
    },
    "hardness": 10,
    "actions": [
      {
        "_id": "4zurgoz5jiqg90fr",
        "name": "Attack",
        "img": "systems/pf1/icons/items/weapons/scizore.png",
        "activation": {
          "type": "attack"
        },
        "duration": {
          "units": "inst"
        },
        "range": {
          "value": "0",
          "units": "melee"
        },
        "actionType": "mwak",
        "damage": {
          "parts": [
            {
              "formula": "sizeRoll(1, 10, @size)",
              "type": {
                "values": ["piercing"],
                "custom": ""
              }
            }
          ]
        },
        "formulaicAttacks": {
          "count": {
            "formula": "min(3, ceil(@attributes.bab.total / 5) - 1)"
          },
          "bonus": {
            "formula": "@formulaicAttack * -5"
          }
        },
        "ability": {
          "attack": "str",
          "damage": "str"
        }
      }
    ],
    "tag": "scizore",
    "baseTypes": ["Scizore"],
    "weaponGroups": {
      "value": ["bladesLight", "close"]
    },
    "subType": "martial",
    "weaponSubtype": "1h",
    "properties": {
      "prf": true
    }
  }
}
