{
  "_id": "a6w5DSGKSZo6LvTN",
  "name": "Sickle-Sword",
  "type": "weapon",
  "img": "systems/pf1/icons/items/weapons/sickle-sword.png",
  "system": {
    "description": {
      "value": "<p><b>Source</b> <em>Adventurer's Armory 2 pg. 9</em></p><h3>Statistics</h3><p><b>Damage</b> 1d6 (small), 1d8 (medium); <b>Critical</b> 19-20/x2; <b>Range</b> -; <b>Type</b> S</p><p><b>Weapon Groups</b> Blades, Heavy</p><h3>Description</h3><p>Favored by those residents of Irrisen with no talent for witchcraft, this exotic blade curves multiple times along its 3-1/2 feet. The sickle-sword's hilt is long and curved, and its blade bears a small secondary grip partway up its length. These allow a wielder with a free hand to rapidly twist the sword in unpredictable ways. When wielding a sickle-sword in one hand and nothing in the other, you can spend a swift action to gain a +2 bonus on your next attack roll before the end of your turn.</p>"
    },
    "tags": ["PFS"],
    "weight": {
      "value": 4
    },
    "price": 20,
    "hp": {
      "max": 5,
      "value": 5
    },
    "hardness": 10,
    "actions": [
      {
        "_id": "hn3eshanjle8bkrc",
        "name": "Attack",
        "img": "systems/pf1/icons/items/weapons/sickle-sword.png",
        "activation": {
          "type": "attack"
        },
        "duration": {
          "units": "inst"
        },
        "range": {
          "value": "0",
          "units": "melee"
        },
        "actionType": "mwak",
        "damage": {
          "parts": [
            {
              "formula": "sizeRoll(1, 8, @size)",
              "type": {
                "values": ["slashing"],
                "custom": ""
              }
            }
          ]
        },
        "formulaicAttacks": {
          "count": {
            "formula": "min(3, ceil(@attributes.bab.total / 5) - 1)"
          },
          "bonus": {
            "formula": "@formulaicAttack * -5"
          }
        },
        "ability": {
          "attack": "str",
          "damage": "str",
          "critRange": 19
        }
      }
    ],
    "tag": "sicklesword",
    "baseTypes": ["Sickle-Sword"],
    "weaponGroups": {
      "value": ["bladesHeavy"]
    },
    "subType": "exotic",
    "weaponSubtype": "1h",
    "properties": {
      "dst": true,
      "spc": true
    }
  }
}
