{
  "_id": "0WEDRHec9z871p4t",
  "name": "Smoke Sling Bullet",
  "type": "loot",
  "img": "systems/pf1/icons/items/weapons/bullet.png",
  "system": {
    "description": {
      "value": "<p>Smoke bullets require only a successful touch attack to release the smoke. When they strike a target, they burst, releasing a cloud of noxious gas that requires the creature struck to attempt a DC 13 <em>Fortitude</em> save. If the save fails, the target is nauseated for 2 rounds.</p>"
    },
    "weight": {
      "value": 0.5
    },
    "price": 10,
    "equipped": false,
    "hp": {
      "max": 1,
      "value": 1
    },
    "hardness": 1,
    "unidentified": {
      "price": 10
    },
    "subType": "ammo",
    "extraType": "slingBullet"
  }
}
