{
  "_id": "qHpg24J89cj8hpfK",
  "name": "Standard Catapult",
  "type": "weapon",
  "img": "icons/weapons/artillery/catapult-simple.webp",
  "system": {
    "description": {
      "value": "<p><b>Source</b> <em>Ultimate Combat pg. 162</em></p><h3>Statistics</h3><p><b>Damage</b> 6d6; <b>Critical</b> x2; <b>Range</b> 200 ft. (100 ft. min.); <b>Type</b> B</p><p><b>Crew</b> 3; <b>Aim</b> 2; <b>Load</b> 3; <b>Speed</b> 0 ft.</p><p><b>Category</b> Indirect-Fire (Huge); <b>Proficiency</b> Siege Engine</p><h3>Description</h3><p>Catapults are stone-throwing siege engines powered by winched arms that run through torsion skeins, and hold their payload in a cup that swings up and over the weapon when released. Catapults can hurl a variety of different types of ammunition (the damage given is for stone projectiles; other types of ammunition can be found later in this chapter). They are indirect-fire siege engines.</p><p><em>Light</em>: These catapults are Large and often mounted on wheels. The targeting DC of a light catapult is 15. Light catapults have a hardness of 5 and 50 hit points. Light catapult stones cost 10 gp and weigh 50 pounds each. <em>Standard</em>: These Huge siege engines are too large to be transported to the battlefield in one piece, and require assembly. They typically hurl large stones indirectly at a target (targeting DC 20). Standard catapults have a hardness of 5 and 100 hit points. Standard catapult stones cost 15 gp and weigh 75 pounds each. <em>Heavy</em>: These Gargantuan siege engines are too large to be transported to the battlefield in one piece, and require assembly. They typically hurl large stones indirectly at a target (targeting DC 25). Heavy catapults have a hardness of 5 and 200 hit points. Heavy catapult stones cost 25 gp and weigh 90 pounds each.</p>"
    },
    "price": 800,
    "hardness": 10,
    "actions": [
      {
        "_id": "k2tvdgbvd1lw5yt7",
        "name": "Attack",
        "img": "icons/weapons/artillery/catapult-simple.webp",
        "activation": {
          "type": "attack"
        },
        "duration": {
          "units": "inst"
        },
        "range": {
          "value": "200",
          "units": "ft",
          "maxIncrements": 10,
          "minValue": "100",
          "minUnits": "ft"
        },
        "actionType": "rwak",
        "damage": {
          "parts": [
            {
              "formula": "6d6",
              "type": {
                "values": ["bludgeoning"],
                "custom": ""
              }
            }
          ]
        },
        "formulaicAttacks": {
          "count": {
            "formula": "min(3, ceil(@attributes.bab.total / 5) - 1)"
          },
          "bonus": {
            "formula": "@formulaicAttack * -5"
          }
        },
        "ability": {
          "attack": "dex"
        }
      }
    ],
    "tag": "standardCatapult",
    "baseTypes": ["Catapult"],
    "subType": "exotic",
    "weaponSubtype": "ranged"
  }
}
