{
  "_id": "i1746993ztqNRZwk",
  "name": "Tiger Fork",
  "type": "weapon",
  "img": "icons/weapons/polearms/trident-silver-red.webp",
  "system": {
    "description": {
      "value": "<p><b>Source</b> <em>Ultimate Equipment pg. 19</em>, <em>Ultimate Combat pg. 134</em></p><h3>Statistics</h3><p><b>Damage</b> 1d6 (small), 1d8 (medium); <b>Critical</b> x2; <b>Range</b> -; <b>Type</b> P</p><p><b>Weapon Groups</b> Monk; Polearms; Spears</p><h3>Description</h3><p>This long, tridentlike weapon consists of a three-pronged metal fork set upon an 8-foot-long shaft. It is wielded much like a staff, with the wielder grasping the shaft from the center and jabbing with its forked end. A tiger fork can be set to receive a charge.</p>"
    },
    "tags": ["PFS"],
    "weight": {
      "value": 8
    },
    "price": 5,
    "hardness": 10,
    "actions": [
      {
        "_id": "vufyk7b4n6lem5vc",
        "name": "Attack",
        "img": "icons/weapons/polearms/trident-silver-red.webp",
        "activation": {
          "type": "attack"
        },
        "duration": {
          "units": "inst"
        },
        "range": {
          "value": "0",
          "units": "melee"
        },
        "actionType": "mwak",
        "damage": {
          "parts": [
            {
              "formula": "sizeRoll(1, 8, @size)",
              "type": {
                "values": ["piercing"],
                "custom": ""
              }
            }
          ]
        },
        "formulaicAttacks": {
          "count": {
            "formula": "min(3, ceil(@attributes.bab.total / 5) - 1)"
          },
          "bonus": {
            "formula": "@formulaicAttack * -5"
          }
        },
        "ability": {
          "attack": "str",
          "damage": "str",
          "damageMult": 1.5
        }
      }
    ],
    "tag": "tigerFork",
    "held": "2h",
    "baseTypes": ["Tiger Fork"],
    "weaponGroups": {
      "value": ["monk", "polearms", "spears"]
    },
    "subType": "martial",
    "weaponSubtype": "2h",
    "properties": {
      "brc": true,
      "mnk": true
    }
  }
}
