{
  "_id": "xQegVPdAOD8rq2Rl",
  "name": "Traveling Kettle",
  "type": "weapon",
  "img": "systems/pf1/icons/items/weapons/travelling-kettle.png",
  "system": {
    "description": {
      "value": "<p><b>Source</b> <em>Martial Arts Handbook pg. 30</em></p><h3>Statistics</h3><p><b>Damage</b> 1d4 (small), 1d6 (medium); <b>Critical</b> x2; <b>Range</b> -; <b>Type</b> B</p><p><b>Weapon Groups</b> Monk</p><h3>Description</h3><p>These small tea kettles are made with clamping lids and heavily reinforced handles, allowing them to be swung like a club. A traveling kettle with boiling water inside deals an additional 1 point of fire damage on a hit. Boiling water cools to a nondamaging temperature after 5 minutes.</p>"
    },
    "tags": ["PFS"],
    "weight": {
      "value": 2
    },
    "price": 5,
    "hp": {
      "max": 2,
      "value": 2
    },
    "hardness": 5,
    "actions": [
      {
        "_id": "he3xayj9zs9bbxzh",
        "name": "Attack",
        "img": "systems/pf1/icons/items/weapons/travelling-kettle.png",
        "activation": {
          "type": "attack"
        },
        "duration": {
          "units": "inst"
        },
        "range": {
          "units": "melee"
        },
        "actionType": "mwak",
        "damage": {
          "parts": [
            {
              "formula": "sizeRoll(1, 6, @size)",
              "type": {
                "values": ["bludgeoning"],
                "custom": ""
              }
            }
          ]
        },
        "formulaicAttacks": {
          "count": {
            "formula": "min(3, ceil(@attributes.bab.total / 5) - 1)"
          },
          "bonus": {
            "formula": "@formulaicAttack * -5"
          }
        },
        "ability": {
          "attack": "str",
          "damage": "str"
        }
      }
    ],
    "baseTypes": ["Traveling Kettle"],
    "weaponGroups": {
      "value": ["monk"]
    },
    "properties": {
      "mnk": true,
      "spc": true
    }
  }
}
