{
  "_id": "YVi1oyNxLKmocWjI",
  "name": "Unarmed Strike",
  "type": "weapon",
  "img": "systems/pf1/icons/items/weapons/unarmed.PNG",
  "system": {
    "hp": {
      "max": 0,
      "value": 0
    },
    "actions": [
      {
        "_id": "r0oh7yrbkqjtxmzc",
        "name": "Attack",
        "img": "systems/pf1/icons/items/weapons/unarmed.PNG",
        "activation": {
          "type": "attack"
        },
        "duration": {
          "units": "inst"
        },
        "range": {
          "value": "0",
          "units": "melee"
        },
        "actionType": "mwak",
        "damage": {
          "parts": [
            {
              "formula": "sizeRoll(1, 3, @size)",
              "type": {
                "values": ["bludgeoning"],
                "custom": ""
              }
            }
          ]
        },
        "formulaicAttacks": {
          "count": {
            "formula": "min(3, ceil(@attributes.bab.total / 5) - 1)"
          },
          "bonus": {
            "formula": "@formulaicAttack * -5"
          }
        },
        "ability": {
          "attack": "str",
          "damage": "str"
        }
      }
    ],
    "tag": "unarmedStrike",
    "baseTypes": ["Unarmed Strike"],
    "weaponGroups": {
      "value": ["close", "monk", "natural", "tribal"]
    }
  }
}
