{
  "_id": "xWh4TQU1hx0tVFC5",
  "name": "Warhammer Musket",
  "type": "weapon",
  "img": "icons/weapons/guns/gun-wood.webp",
  "system": {
    "description": {
      "value": "<p><b>Source</b> <em>Ultimate Equipment pg. 43</em>, <em>Ultimate Combat pg. 138</em></p>\n<h3>Statistics</h3><p><b>Damage</b> 1d6 (small), 1d8 (medium); <b>Critical</b> x4; <b>Range</b> 30 ft.; <b>Type</b> B and P</p>\n<p><b>Misfire</b> 1-2 (5 ft.); <b>Capacity</b> 1</p>\n<h3>Description</h3>\n<p>This musket has a warhammer head at the end of its barrel, which allows it to be used as both a musket and a warhammer. It is considered a double weapon for the purposes of creating masterwork or magical versions of this weapon.</p>\n<p>If this firearm gains the broken condition, both the firearm component and the warhammer are considered broken. A warhammer musket uses either a bullet and 1 dose of black powder or a single alchemical cartridge as ammunition.</p>"
    },
    "tags": ["PFS", "Early Firearm"],
    "weight": {
      "value": 6
    },
    "price": 1600,
    "hardness": 10,
    "actions": [
      {
        "_id": "y3ra25augdovtzjt",
        "name": "Attack",
        "img": "icons/weapons/guns/gun-wood.webp",
        "activation": {
          "type": "attack"
        },
        "duration": {
          "units": "inst"
        },
        "range": {
          "value": "30",
          "units": "ft",
          "maxIncrements": 10
        },
        "actionType": "rwak",
        "damage": {
          "parts": [
            {
              "formula": "sizeRoll(1, 8, @size)",
              "type": {
                "values": ["bludgeoning", "piercing"],
                "custom": ""
              }
            }
          ]
        },
        "formulaicAttacks": {
          "count": {
            "formula": "min(3, ceil(@attributes.bab.total / 5) - 1)"
          },
          "bonus": {
            "formula": "@formulaicAttack * -5"
          },
          "label": ""
        },
        "ability": {
          "attack": "dex",
          "damageMult": 1.5,
          "critMult": 4
        },
        "usesAmmo": true
      }
    ],
    "tag": "warhammerMusket",
    "held": "2h",
    "baseTypes": ["Warhammer Musket"],
    "weaponGroups": {
      "value": ["firearms"]
    },
    "subType": "exotic",
    "weaponSubtype": "ranged",
    "ammoType": "gunBullet"
  }
}
