{
  "_id": "ltqyzaiqjpdpjhdh",
  "name": "Antitoxin",
  "type": "loot",
  "img": "systems/pf1/icons/items/inventory/dice.jpg",
  "system": {
    "description": {
      "value": "<p class=\"source\"><b>Source</b> <em>PZO1110</em></p>\n<p>If you drink a vial of antitoxin, you get a +5 <em>alchemical bonus</em> on <em>Fortitude</em> <em>saving throws</em> against <em>poison</em> for 1 hour.</p>\n<p>Alchemical Power Component</p>\n<p class=\"source\"><b>Source</b> <em>PZO9410</em></p>\n<p>Like antiplague, antitoxin can augment certain <em>healing</em> spells.</p>\n<ul>\n<li><em>Neutralize Poison</em> (M): Add +2 on your <em>caster level</em> check to neutralize poison on a target creature. Antitoxin has no effect when you cast the spell on an object.</li>\n</ul>"
    },
    "price": 50,
    "equipped": false,
    "subType": "gear"
  }
}
