{
  "_id": "mytdbfjvyaymjdry",
  "name": "Belladonna",
  "type": "loot",
  "img": "systems/pf1/icons/items/inventory/dice.jpg",
  "system": {
    "description": {
      "value": "<p class=\"source\"><b>Source</b> <em>PZO9410</em></p>\n<p>Also known as deadly nightshade, this <em>plant</em>, with its distinctive greenish-purple leaves and dull black berries, has served as a cosmetic and medicine for longer than memory despite its toxicity. It can also induce vivid but usually unpleasant hallucinations, particularly ones dealing with flight. Herbalists and others trained to use it safely believe it has numerous applications, including pain relief.</p>"
    },
    "price": 2,
    "equipped": false,
    "subType": "gear"
  }
}
