{
  "_id": "ewjpdizgdndjlkrx",
  "name": "Bodybalm",
  "type": "loot",
  "img": "systems/pf1/icons/items/inventory/dice.jpg",
  "system": {
    "description": {
      "value": "<p class=\"source\"><b>Source</b> <em>PZO9410</em></p>\n<p>When this pungent yellow powder is boiled in water and given to a creature to drink, it provides the attending healer a +5 <em>alchemical bonus</em> on <em>Heal</em> checks for providing long-term care, treating <em>poison</em>, and treating <em>disease</em>.</p>\n<p><b>Create</b>: <em>Craft</em> (alchemy) DC 25</p>"
    },
    "price": 25,
    "equipped": false,
    "subType": "gear"
  }
}
