{
  "_id": "uwsosdlxynjlwlvw",
  "name": "Bottle, Glass",
  "type": "loot",
  "img": "systems/pf1/icons/items/inventory/dice.jpg",
  "system": {
    "description": {
      "value": "<p class=\"source\"><b>Source</b> <em>PZO1110</em></p>\n<p>A glass bottle holds 1/2 pint and weighs 1.5 lb. when full.</p>\n<p><b>Empty Weight</b>: -; <b>Capacity</b>: 1/2 pint / 1/5 lb.</p>"
    },
    "equipped": false,
    "subType": "gear"
  }
}
