{
  "_id": "hrkpnwrtypynsmsh",
  "name": "Buoy",
  "type": "loot",
  "img": "systems/pf1/icons/items/inventory/dice.jpg",
  "system": {
    "description": {
      "value": "<table>\n<thead>\n<tr>\n<th>Type</th>\n<th>Price</th>\n<th>Weight</th>\n</tr>\n</thead>\n<tbody>\n<tr>\n<td>Common</td>\n<td>5 gp</td>\n<td>16 lbs.</td>\n</tr>\n<tr>\n<td>Superior</td>\n<td>10 gp</td>\n<td>30 lbs.</td>\n</tr>\n</tbody>\n</table>\n<p>A buoy is used to mark a specific spot in a lake, river, or similar body of water, making it possible for you to return to that location at a later date.</p>\n<p>A common buoy includes a float (typically an air-filled bladder or sealed gourd), a 200-foot length of twine, and a 15-pound stone used as an anchor. The float is usually painted a vivid color, and may have a small flag to attract attention. Though anchor buoys prove quite resilient to normal weather and tides, they offer little challenge to intelligent creatures determined to sabotage them.</p>\n<p>A superior buoy has a spherical or ovoid hollow metal float (typically copper), a length of <em>chain</em> rather than twine, and a metal anchor rather than a weight.</p>"
    },
    "equipped": false,
    "subType": "gear"
  }
}
