{
  "_id": "jewqhqesccxrvivd",
  "name": "Candle",
  "type": "loot",
  "img": "systems/pf1/icons/items/inventory/candle.jpg",
  "system": {
    "description": {
      "value": "<h4>Candle</h4>\n<p>A candle dimly illuminates a small area, increasing the light level in a 5-foot radius by one step (darkness becomes dim light and dim light becomes normal light). A candle cannot increase the light level above normal light. A candle burns for 1 hour. <b>Price</b> 1 cp; <b>Weight</b> -</p>\n<p><b>Candle, Helmet</b> This device consists of a helmet with a short, thin spike on top upon which a <em>candle</em> is stuck, freeing your hands for other tasks. <b>Price</b> 2 gp; <b>Weight</b> 4 lbs.</p>\n<p><b>Candle Lamp</b> A candle lamp is a small lantern-like device with glass panels and a slot to hold a <em>candle</em>. It protects the <em>candle</em> from drafts and catches wax drippings. It provides the same light as a <em>candle</em>, but can be shuttered such that it only illuminates 1 to 3 adjacent squares. You can use a <em>candle lamp</em> to keep your hands warm. <b>Price</b> 5 gp; <b>Weight</b> 1 lb.</p>\n<p><b>Candlestick</b> This saucer-like object has a flat bottom, a handle, and a spike on top. You can affix a <em>candle</em> onto the spike (up to 3 inches in diameter) and hold the candlestick by the handle. The flat bottom means you're able to set it down and not worry about the <em>candle</em> falling over and extinguishing itself. A typical candlestick is crafted from baked <em>clay</em> or a cheap metal such as copper, but elaborate and expensive ones exist. <b>Price</b> 1 cp; <b>Weight</b> 1/2 lb.</p>"
    },
    "price": 0.01,
    "equipped": false,
    "subType": "gear"
  }
}
