{
  "_id": "qvzpwkvaorvszxmt",
  "name": "Canvas",
  "type": "loot",
  "img": "systems/pf1/icons/items/inventory/dice.jpg",
  "system": {
    "description": {
      "value": "<p><b>Price</b> 1 sp/sq. yd.; <b>Weight</b> 1 lb.</p>\n<p>This square yard of heavy cloth is suitable for painting, for covering items in a rainstorm, for creating a sail, or as an improvised bag. It is not waterproof but can be treated with <em>oil</em>, wax, or resin to make it water-resistant.</p>"
    },
    "weight": {
      "value": 1
    },
    "price": 0.1,
    "equipped": false,
    "subType": "gear"
  }
}
