{
  "_id": "yazetnstqsojpnyd",
  "name": "Feed, Bird",
  "type": "loot",
  "img": "systems/pf1/icons/items/inventory/dice.jpg",
  "system": {
    "description": {
      "value": "<p class=\"source\"><b>Source</b> <em>PPZO9410</em></p>\n<p><b>Price</b> 5 cp/day; <b>Weight</b> 1/2 lb.</p>\n<p>This mixture of seed and dead insects is suitable food for small birds such as <em>ravens</em>, crows, and chickens. Birds of prey such as falcons, <em>hawks</em>, and <em>owls</em> can also sustain themselves on bird feed, though they typically require at least two servings per day. Larger avian creatures such as <em>axe beaks</em> and <em>griffons</em> require larger portions of meat, and cannot survive on bird feed alone.</p>"
    },
    "weight": {
      "value": 0.5
    },
    "price": 0.05,
    "equipped": false,
    "subType": "gear"
  }
}
