{
  "_id": "ollwxbprzkekqhhf",
  "name": "Fishing net (25 sq. ft.)",
  "type": "loot",
  "img": "systems/pf1/icons/items/inventory/dice.jpg",
  "system": {
    "description": {
      "value": "<h4><a name=\"TOC-Fishing-net-25-sq.-ft.-\"></a>Fishing net (25 sq. ft.)</h4>\n<p class=\"source\"><b>Source</b> <em>PZO1110</em></p>\n<p>A net for fishing.</p>"
    },
    "equipped": false,
    "subType": "gear"
  }
}
