{
  "_id": "buiyyqkifxnctkzy",
  "name": "Flayleaf",
  "type": "loot",
  "img": "systems/pf1/icons/items/inventory/dice.jpg",
  "system": {
    "description": {
      "value": "<p class=\"source\"><b>Source</b> <em>PZO9410</em></p>\n<p>These narrow, rust-colored leaves produce a mildly hallucinogenic smoke that also serves as powerful sedative. Users are immune to pain for 4 hours after smoking flayleaf, but during this time they take a -5 penalty on saves against mind-altering effects.</p>"
    },
    "weight": {
      "value": 2
    },
    "price": 20,
    "equipped": false,
    "subType": "gear"
  }
}
