{
  "name": "Fork",
  "type": "loot",
  "img": "icons/tools/cooking/fork-steel-tan.webp",
  "system": {
    "tags": ["Mundane", "Cooking"],
    "weight": {
      "value": 0.1
    },
    "equipped": false,
    "subType": "gear"
  },
  "_id": "jzu5QqK20bW9gkN1"
}
