{
  "_id": "uujwtbstphotcvfu",
  "name": "Handle Harness",
  "type": "loot",
  "img": "systems/pf1/icons/items/inventory/dice.jpg",
  "system": {
    "description": {
      "value": "<p class=\"source\"><b>Source</b>: <em>PZO9455</em></p>\n<p><b>Price</b> 25 gp; <b>Weight</b> 10 lbs.</p>\n<p>This wood-and-leather <em>harness</em> fits over clothing or armor and provides small handles and footrests across your back and along the sides of your legs and arms. While wearing a handle <em>harness</em>, you automatically succeed at checks to aid an adjacent ally of your size or smaller with <em>Climb</em> or <em>Ride</em> checks, or <em>Acrobatics</em> checks to balance on narrow surfaces or uneven ground. A handle <em>harness's</em> ungainly construction gives you a -2 penalty on <em>Escape Artist</em> checks.</p>"
    },
    "weight": {
      "value": 10
    },
    "price": 25,
    "equipped": false,
    "subType": "gear"
  }
}
