{
  "_id": "klgarsgufbovztjz",
  "name": "Kit, Riding",
  "type": "loot",
  "img": "systems/pf1/icons/items/inventory/dice.jpg",
  "system": {
    "description": {
      "value": "<table border=\"1\" cellpadding=\"5\">\n<thead>\n<tr>\n<th>Type</th>\n<th>Price</th>\n<th>Weight</th>\n</tr>\n</thead>\n<tbody>\n<tr>\n<td>Common</td>\n<td>16 gp</td>\n<td>54 lbs.</td>\n</tr>\n<tr>\n<td>Exotic Mount</td>\n<td>36 gp</td>\n<td>59 lbs.</td>\n</tr>\n</tbody>\n</table>\n<p>This kit includes a bit and bridle, a saddle, a saddle blanket, saddlebags, and 2 days' worth of feed for a mount. The weight can be lightened 10 pounds by discarding the feed.</p>"
    },
    "equipped": false,
    "subType": "gear"
  }
}
