{
  "_id": "zwNOw4PH8gpi29p9",
  "name": "Kit, Hunter's",
  "type": "container",
  "img": "icons/containers/chest/chest-reinforced-steel-red.webp",
  "system": {
    "inventoryItems": [
      {
        "name": "Backpack",
        "type": "container",
        "img": "systems/pf1/icons/items/inventory/backpack.jpg",
        "system": {
          "description": {
            "value": "<p>This leather knapsack has one large pocket that closes with a buckled strap and holds about 2 cubic feet of material. Some may have one or more smaller pockets on the sides.</p>"
          },
          "weight": {
            "value": 2
          },
          "price": 2
        },
        "flags": {
          "core": {
            "sourceId": "Compendium.pf1.items.lSCPUK5Ea6R0t4fz"
          }
        },
        "_id": "GaAttTHoTcEH18M9"
      },
      {
        "name": "Pouch, Belt",
        "type": "loot",
        "img": "icons/containers/bags/coinpouch-simple-leather-tan.webp",
        "system": {
          "description": {
            "value": "<p class=\"source\"><b>Source</b> <em>PZO1110</em></p>\n<p>A belt pouch is crafted of soft cloth or leather. They typically hold up to 10 lb. or 1/5 cubic ft. of items.</p>\n<p><b>Empty Weight</b>: 1/2 lb.<sup>1</sup> <b>Capacity</b>: 1/5 cubic ft./10 lb.<sup>1</sup></p>\n<p class=\"source\"><sup>1</sup> When made for Medium characters. Weighs one-quarter the normal amount when made for Small characters. Weighs twice the normal amount when made for Large characters. Containers carry one-quarter the normal amount when made for Small characters.</p>"
          },
          "weight": {
            "value": 0.5
          },
          "price": 1,
          "equipped": false,
          "subType": "gear"
        },
        "flags": {
          "core": {
            "sourceId": "Compendium.pf1.items.wjvxmolafiegvesl"
          }
        },
        "_id": "dfHc4N2YmoSqzFs4"
      },
      {
        "name": "Flint And Steel",
        "type": "loot",
        "img": "icons/commodities/stone/rock-chunk-grey.webp",
        "system": {
          "description": {
            "value": "<p>Lighting a <em>torch</em> with a <em>flint and steel</em> is a full-round action. Lighting any other fire with them takes at least that long.</p>"
          },
          "price": 1,
          "equipped": false,
          "subType": "gear"
        },
        "flags": {
          "core": {
            "sourceId": "Compendium.pf1.items.ygmrcisvftnvjyob"
          }
        },
        "_id": "hmrTium8SuTiUsbn"
      },
      {
        "name": "Soap",
        "type": "consumable",
        "img": "systems/pf1/icons/items/inventory/soap.jpg",
        "system": {
          "description": {
            "value": "<p class=\"source\"><b>Source</b> <em>PPZO9410</em></p>\n<p>You can use this thick block of soap to scrub clothes, pots, linens, or anything else that might be dirty. A bar of soap has approximately 50 uses.</p>"
          },
          "weight": {
            "value": 0.5
          },
          "price": 0.01,
          "actions": [
            {
              "_id": "ootoocddr3l2eoat",
              "name": "Use",
              "img": "systems/pf1/icons/items/inventory/soap.jpg",
              "activation": {
                "type": "special",
                "unchained": {
                  "type": "special"
                }
              },
              "actionType": ""
            }
          ],
          "uses": {
            "per": "charges",
            "value": 50,
            "maxFormula": "50"
          },
          "tag": "soap",
          "subType": "misc"
        },
        "flags": {
          "core": {
            "sourceId": "Compendium.pf1.items.yMoclCylbCRKyaZF"
          }
        },
        "_id": "EPleLfIN8uwTd5I8"
      },
      {
        "name": "Torch",
        "type": "loot",
        "img": "systems/pf1/icons/items/inventory/torch.jpg",
        "system": {
          "description": {
            "value": "<p><b>Price</b> 1 cp; <b>Weight</b> 1 lb.</p>\n<p>A torch burns for 1 hour, shedding normal light in a 20-foot radius and increasing the light level by one step for an additional 20 feet beyond that area (darkness becomes dim light and dim light becomes normal light). A torch does not increase the light level in normal light or bright light. If a torch is used in combat, treat it as a one-handed improvised weapon that deals bludgeoning damage equal to that of a gauntlet of its size, plus 1 point of fire damage.</p>"
          },
          "weight": {
            "value": 1
          },
          "price": 0.01,
          "equipped": false,
          "subType": "gear"
        },
        "flags": {
          "core": {
            "sourceId": "Compendium.pf1.items.snfogneawzopfzzl"
          }
        },
        "_id": "adXGTz3XJyEMbQ4g"
      },
      {
        "name": "Waterskin",
        "type": "loot",
        "img": "systems/pf1/icons/items/inventory/waterskin.jpg",
        "system": {
          "description": {
            "value": "<p class=\"source\"><b>Source</b> <em>PZO1110</em></p>\n<p>A water or wineskin holds 1/2 gallon of liquid and weighs 4 lb when full.</p>\n<p><b>Empty Weight</b>: -; <b>Capacity</b>: 1/2 gallon/4 lb.<sup>1</sup></p>\n<p class=\"source\"><sup>1</sup> When made for Medium characters. Weighs one-quarter the normal amount when made for Small characters. Weighs twice the normal amount when made for Large characters. Containers carry one-quarter the normal amount when made for Small characters.</p>\n<h3>Magic Containers</h3>\n<p>Magic containers come in almost as many varieties as there are <em>alchemists</em>, and so are of inestimable value to <em>alchemists</em> with specific needs. Some of the most well-known magic containers are described here.</p>\n<p>Because of a varied nature of alchemical items and their effects, not all combinations of alchemical items and magic bottles are viable or even make sense, even though they technically might be allowed by the rules. The GM should have the final say on whether or not a particular alchemical item can function within one of the magical containers listed in this section.</p>\n<table>\n<thead>\n<tr>\n<th colspan=\"4\">Magic Containers</th>\n</tr>\n<tr>\n<th>Item</th>\n<th>Price</th>\n<th>Weight</th>\n<th>Source</th>\n</tr>\n</thead>\n<tbody>\n<tr>\n<td><i>Focusing Flask</i></td>\n<td>700 gp</td>\n<td>1 lb.</td>\n<td class=\"source text\"><em>PPC:AM</em></td>\n</tr>\n<tr>\n<td><i>Retort of Control</i></td>\n<td>13,000 gp</td>\n<td>-</td>\n<td class=\"source text\"><em>PPC:AM</em></td>\n</tr>\n<tr>\n<td><i>Vial of Efficacious Medicine</i></td>\n<td>7,000 gp</td>\n<td>-</td>\n<td class=\"source text\"><em>PPC:AM</em></td>\n</tr>\n<tr>\n<td><i>Winged Bottle</i></td>\n<td>1,620 gp</td>\n<td>1 lb.</td>\n<td class=\"source text\"><em>PPC:AM</em></td>\n</tr>\n</tbody>\n</table>"
          },
          "weight": {
            "value": 4
          },
          "price": 1,
          "equipped": false,
          "subType": "gear"
        },
        "flags": {
          "core": {
            "sourceId": "Compendium.pf1.items.bsztkhkrhgmsbqpt"
          }
        },
        "_id": "lYtrrmnW8o07kuIq"
      },
      {
        "name": "Rations, Trail",
        "type": "loot",
        "img": "systems/pf1/icons/items/inventory/meat.jpg",
        "system": {
          "description": {
            "value": "<h4>Rations, Trail</h4>\n<p><b>Price</b> 5 sp; <b>Weight</b> 1 lb.</p>\n<p>The listed price is for a day's worth of food. This bland food is usually some kind of hard tack, jerky, and dried fruit, though the contents vary from region to region and the race of those creating it. As long as it stays dry, it can go for months without spoiling.</p>"
          },
          "weight": {
            "value": 1
          },
          "price": 0.5,
          "equipped": false,
          "subType": "gear"
        },
        "flags": {
          "core": {
            "sourceId": "Compendium.pf1.items.manvtbznrwjmnrua"
          }
        },
        "_id": "t1vjdI0jBmHl60ml"
      },
      {
        "name": "Rope",
        "type": "loot",
        "img": "systems/pf1/icons/items/inventory/dice.jpg",
        "system": {
          "description": {
            "value": "<h4>Rope</h4>\n<p><b>Hempen</b> The DC to escape hemp rope bonds is equal to 20 + the CMB of the creature that tied the bonds. Ropes do not need to make a check every round to maintain the pin. If the DC to escape is higher than 20 + the tying creatures CMB, the tied up creature cannot escape from the bonds, even with a natural 20 on the check. This rope has 2 hit points and can be burst with a DC 23 Strength check. <b>Price</b> 1 gp; <b>Weight</b> 10 lbs.</p>\n<p><b>FYI</b>: The <em>Equipment Trick</em> feat provides a number of options for using this item in combat.</p>\n<p><b>Silk Rope</b> This 50-foot length of silk rope has 4 hit points and can be broken with a DC 24 Strength check. <b>Price</b> 10 gp; <b>Weight</b> 5 lbs.</p>\n<p><b>Bloodvine Rope</b> This 50-foot length of tough, lightweight rope is made from alchemically treated bloodvine, a rare scarlet-colored vine that grows only in warm jungle environments. Though prized by climbers for its durability, bloodvine can also be used to bind creatures. Bloodvine rope has a <em>hardness</em> of 5 and 10 <em>hit points</em>, and can be broken with a DC 30 <em>Strength</em> check. A creature bound by bloodvine rope can escape with a DC 35 <em>Escape Artist</em> check or a DC 30 <em>Strength</em> check. The DC to create bloodvine rope with <em>Craft</em> (alchemy) is 30. <b>Price</b> 200 gp; <b>Weight</b> 5 lbs. <b>Source</b> <em>PRG:ACG</em></p>\n<p><b>Spider's Silk Rope</b> This 50-foot length of rope is woven of strands of silk from monstrous spiders. Rare to virtually nonexistent on the surface world, it is commonly used by the dark elves, though shorter spider's silk rope scraps (generally no more than 10 feet long) occasionally appear among goblins. Spider's silk rope has 6 hit points and can be broken with a DC 25 Strength check. <b>Price</b> 100 gp; <b>Weight</b> 4 lbs.</p>"
          },
          "weight": {
            "value": 10
          },
          "price": 1,
          "equipped": false,
          "subType": "gear"
        },
        "flags": {
          "core": {
            "sourceId": "Compendium.pf1.items.qlmtnppwxkubqyhp"
          }
        },
        "_id": "JFZrWImw2KnUsIXy"
      },
      {
        "name": "Bedroll",
        "type": "loot",
        "img": "systems/pf1/icons/items/inventory/cloth-blue.jpg",
        "system": {
          "description": {
            "value": "<p>This consists of two woolen sheets sewn together along the bottom and one side to create a bag for sleeping in. Some have cloth straps along the open side so the bedroll can be tied closed while you are sleeping. It can be rolled and tied into a tight coil for storage or transport. Most people use a <em>blanket</em> with the bedroll to stay warm or provide a ground cushion.</p>"
          },
          "weight": {
            "value": 5
          },
          "price": 0.1,
          "equipped": false,
          "subType": "gear"
        },
        "flags": {
          "core": {
            "sourceId": "Compendium.pf1.items.iegwwsarycqwoezj"
          }
        },
        "_id": "XdLuyYS48EFLBSJi"
      },
      {
        "name": "Pot, Cooking (Iron)",
        "type": "loot",
        "img": "icons/tools/cooking/cauldron-empty.webp",
        "system": {
          "description": {
            "value": "<p class=\"source\"><b>Source</b> <em>PZO1110</em></p>\n<p>Cooking pots come in a variety of materials, but the most common is formed of iron.</p>\n<p>A mithral cooking pot weighs 2 lbs. and costs 2,001 gp.</p>\n<p><b>Empty Weight</b>: 2 lb.; <b>Capacity</b>: 1 gallon/8 lb.</p>"
          },
          "weight": {
            "value": 4
          },
          "price": 0.8,
          "equipped": false,
          "subType": "gear"
        },
        "flags": {
          "core": {
            "sourceId": "Compendium.pf1.items.habofoapdifirevm"
          }
        },
        "_id": "Z7A0XhcddyyWnPjL"
      },
      {
        "name": "Mess Kit",
        "type": "container",
        "img": "icons/containers/chest/chest-simple-box-red.webp",
        "system": {
          "description": {
            "value": "<p>This kit includes a plate, bowl, cup, fork, knife, and spoon, made of wood, horn, or tin. Each item has a handle or small hole, and can be tied together using the included leather cord.</p>"
          },
          "inventoryItems": [
            {
              "name": "Plate",
              "type": "loot",
              "img": "systems/pf1/icons/items/inventory/dice.jpg",
              "system": {
                "tags": ["Mundane", "Cooking"],
                "weight": {
                  "value": 0.4
                },
                "equipped": false,
                "subType": "tradeGoods"
              },
              "flags": {
                "core": {
                  "sourceId": "Compendium.pf1.items.tVkpdPfIJomoFjUl"
                }
              },
              "_id": "HrXDTu0yJArUbpYe"
            },
            {
              "name": "Bowl",
              "type": "loot",
              "img": "icons/containers/kitchenware/bowl-clay-brown.webp",
              "system": {
                "tags": ["Mundane", "Cooking"],
                "weight": {
                  "value": 0.2
                },
                "equipped": false,
                "subType": "tradeGoods"
              },
              "flags": {
                "core": {
                  "sourceId": "Compendium.pf1.items.fASUzJozDXZldwNT"
                }
              },
              "_id": "B5gFNbiUqEKlkI3d"
            },
            {
              "name": "Fork",
              "type": "loot",
              "img": "icons/tools/cooking/fork-steel-tan.webp",
              "system": {
                "tags": ["Mundane", "Cooking"],
                "weight": {
                  "value": 0.1
                },
                "equipped": false,
                "subType": "gear"
              },
              "flags": {
                "core": {
                  "sourceId": "Compendium.pf1.items.jzu5QqK20bW9gkN1"
                }
              },
              "_id": "75V6g53wDWtG50uT"
            },
            {
              "name": "Knife",
              "type": "loot",
              "img": "icons/tools/cooking/knife-chef-steel-brown.webp",
              "system": {
                "tags": ["Mundane", "Cooking", "Crafting", "Survival"],
                "weight": {
                  "value": 0.1
                },
                "equipped": false,
                "subType": "gear"
              },
              "flags": {
                "core": {
                  "sourceId": "Compendium.pf1.items.GZtAdQ7gJlCe9z64"
                }
              },
              "_id": "G0t7OoDwQXQgSuli"
            },
            {
              "name": "Spoon",
              "type": "loot",
              "img": "icons/tools/cooking/soup-ladle.webp",
              "system": {
                "tags": ["Mundane", "Cooking"],
                "weight": {
                  "value": 0.1
                },
                "equipped": false,
                "subType": "gear"
              },
              "flags": {
                "core": {
                  "sourceId": "Compendium.pf1.items.Asg5Ek4CFqb80P7C"
                }
              },
              "_id": "wPKymHrQQpgJ2oYO"
            },
            {
              "name": "Cup",
              "type": "loot",
              "img": "systems/pf1/icons/items/inventory/dice.jpg",
              "system": {
                "tags": ["Mundane", "Cooking"],
                "weight": {
                  "value": 0.1
                },
                "subType": "tradeGoods",
                "equipped": false
              },
              "flags": {
                "core": {
                  "sourceId": "Compendium.pf1.items.QqdYeaj0M8e5FWWK"
                }
              },
              "_id": "ssTkq1uXfAO6KeFH"
            }
          ]
        },
        "flags": {
          "core": {
            "sourceId": "Compendium.pf1.items.Ueae6c2qqJJGpncA"
          }
        },
        "_id": "BZxCeT8ebhGzsAzg"
      },
      {
        "name": "Pouch, Spell Component",
        "type": "loot",
        "img": "systems/pf1/icons/items/inventory/pouch-sealed.jpg",
        "system": {
          "description": {
            "value": "<p><b>Price</b> 5 gp; <b>Weight</b> 2 lbs.</p>\n<p>A spellcaster with a spell component pouch is assumed to have all the material <em>components</em> and focuses needed for spellcasting, except for <em>components</em> that have a specific cost, divine focuses, and focuses that wouldn't fit in a pouch. Most spell component pouches are waterproof and can be strung onto a belt or bandolier.</p>"
          },
          "weight": {
            "value": 2
          },
          "price": 5,
          "equipped": false,
          "subType": "gear"
        },
        "flags": {
          "core": {
            "sourceId": "Compendium.pf1.items.ucgkbtqiybhyiwwk"
          }
        },
        "_id": "1KPJlgTSPe4teLkg"
      },
      {
        "name": "Holy symbol (Wood)",
        "type": "loot",
        "img": "systems/pf1/icons/items/inventory/dice.jpg",
        "system": {
          "description": {
            "value": "<p>Source <a href=\"http://paizo.com/products/btpy8tmc?Pathfinder-Roleplaying-Game-Ultimate-Equipment\">Ultimate Equipment pg. 57</a><br>Price 100 gp (gold), 5 gp (iron), 500 gp (platinum), 25 gp (silver), 1 gp (wooden); Weight 1 lb. (gold), 1 lb. (iron), 1 lb. (platinum), 1 lb. (silver), — (wooden)</p>\n<h3>Description</h3>\n<p>A holy symbol focuses positive energy and is used by good clerics and paladins (or by neutral clerics who want to cast good spells or channel positive energy). Each religion has its own holy symbol. The material used to make the holy symbol has no effect on its powers, though a religion may place special significance on a particular material.<br><br>Unholy Symbols: An unholy symbol is like a holy symbol except that it focuses negative energy and is used by evil clerics (or by neutral clerics who want to cast evil spells or channel negative energy).</p>"
          },
          "price": 1,
          "equipped": false,
          "subType": "gear"
        },
        "flags": {
          "core": {
            "sourceId": "Compendium.pf1.items.s5KkeKPLnneb0WR4"
          }
        },
        "_id": "nZ3bAJz3cUJKConk"
      }
    ]
  }
}
