{
  "_id": "wwiwdenkdazxjstn",
  "name": "Kit, Harvester's",
  "type": "loot",
  "img": "systems/pf1/icons/items/inventory/dice.jpg",
  "system": {
    "description": {
      "value": "<p class=\"source\"><b>Source</b>: <em>PZO9487</em></p>\n<p><b>Price</b> 65 gp; <b>Weight</b> -</p>\n<p>This set of surgical tools includes everything needed to quickly and safely harvest the venom from a <em>dead</em> creature. This kit includes forceps, a pair of surgical retractors, a scalpel, small but sturdy metal containers for the harvested venom, a sponge, a surgical hook, and a tiny mallet, all tucked into a leather pouch with a loop for hooking onto the wearer's belt. A harvester's kit provides a +2 <em>circumstance bonus</em> on <em>Survival</em> checks to successfully harvest <em>poison</em> from a creature.</p>\n<p>A harvester's kit is <em>exhausted</em> after 10 uses.</p>"
    },
    "price": 65,
    "equipped": false,
    "subType": "gear"
  }
}
