{
  "_id": "rfjmbucagktokfpf",
  "name": "Kit, Mapmaker's",
  "type": "loot",
  "img": "systems/pf1/icons/items/inventory/dice.jpg",
  "system": {
    "description": {
      "value": "<p><b>Price</b> 10 gp; <b>Weight</b> 2 lbs.</p>\n<p>This small kit contains a simple slate with a grid carved into its surface and a number of differently colored pieces of chalk. If you use this kit to draw a map as you travel, you receive a +2 <em>circumstance bonus</em> on <em>Survival</em> skill checks to avoid becoming lost.</p>"
    },
    "weight": {
      "value": 2
    },
    "price": 10,
    "equipped": false,
    "subType": "gear"
  }
}
