{
  "_id": "lgjsyvvmgsvptqxm",
  "name": "Kit, Out-Of-Towner's",
  "type": "loot",
  "img": "systems/pf1/icons/items/inventory/dice.jpg",
  "system": {
    "description": {
      "value": "<p><b>Price</b> 55 gp; <b>Weight</b> 1 lb.</p>\n<p>This bundle is often given to operatives sent to new cities to help them operate as easily as locals. This kit includes a blue book, a city <em>map</em> (see above), and fashionable accessories (see above).</p>"
    },
    "weight": {
      "value": 1
    },
    "price": 55,
    "equipped": false,
    "subType": "gear"
  }
}
