{
  "_id": "chwfcwcjtcokhsup",
  "name": "Kit, Diver's",
  "type": "loot",
  "img": "systems/pf1/icons/items/inventory/dice.jpg",
  "system": {
    "description": {
      "value": "<p class=\"source\"><b>Source</b>: <em>PZO9430</em></p>\n<p><b>Price</b> 121 gp; <b>Weight</b> 38 lbs.</p>\n<p>This kit is ideal for adventurers who venture into sunken ruins or half-flooded temples, and includes an air bladder, a common buoy, 30 feet of chain, a fishing <em>net</em>, a glass bottle, a pound of soap, three sunrods, a waterproof bag, and a waterproof hooded lantern with 3 flasks of oil.</p>"
    },
    "weight": {
      "value": 38
    },
    "price": 121,
    "equipped": false,
    "subType": "gear"
  }
}
