{
  "_id": "vexlkmenxcgcqopc",
  "name": "Lock",
  "type": "loot",
  "img": "systems/pf1/icons/items/inventory/dice.jpg",
  "system": {
    "description": {
      "value": "<p class=\"source\"><b>Source</b>: <em>PZO1110</em></p>\n<p>The DC to open a lock with the <em>Disable Device</em> skill depends on the lock's quality: <b>simple</b> (DC 20), <b>average</b> (DC 25), <b>good</b> (DC 30), or <b>superior</b> (DC 40).</p>"
    },
    "equipped": false,
    "subType": "gear"
  }
}
