{
  "_id": "tdsxeblxeohbxbzl",
  "name": "Mask, Battle",
  "type": "loot",
  "img": "systems/pf1/icons/items/inventory/mask-bone.jpg",
  "system": {
    "description": {
      "value": "<p class=\"source\"><b>Source</b> <em>PZO1121</em></p>\n<p>Made from wood, bone, or similar materials, this mask covers its wearer's actual appearance and identity by depicting a hateful, leering face instead. Because of a battle mask's excellent craftsmanship and exquisite details, the wearer gains a +1 bonus on Intimidate checks made to demoralize an opponent.</p>"
    },
    "weight": {
      "value": 2
    },
    "price": 50,
    "equipped": false,
    "subType": "gear"
  }
}
