{
  "_id": "gb6LCwqmJejAE3IQ",
  "name": "Outfit, Hot Weather",
  "type": "equipment",
  "img": "systems/pf1/icons/items/equipment/cloak-plain.jpg",
  "system": {
    "description": {
      "value": "<p class=\"source\"><b>Source</b> <em>PZO1115</em></p>\n<p>Covering your body from head to foot in light, airy cloth keeps you cooler than baring your skin to the sun. This outfit typically consists of a loose linen robe and either a turban or loose head covering and veil. The outfit provides a +2 bonus on <em>Fortitude</em> saves to resist warm or hot weather. This does not stack with any bonuses gained from the @UUID[Compendium.pf1.pf1e-rules.x175kVqUfLGPt8tC.JournalEntryPage.pLdYavy4nssLEoGV]{Survival} skill.</p>"
    },
    "weight": {
      "value": 4
    },
    "price": 8,
    "contextNotes": [
      {
        "text": "+[[2]] vs Hot Weather effects",
        "target": "savingThrows",
        "subTarget": "fort"
      }
    ],
    "subType": "clothing",
    "armor": {
      "dex": ""
    },
    "slot": "clothing"
  }
}
