{
  "_id": "CIAbIcLjLUC7FtYP",
  "name": "Saddle (Military)",
  "type": "loot",
  "img": "systems/pf1/icons/items/inventory/dice.jpg",
  "system": {
    "description": {
      "value": "<p>Source <a href=\"http://paizo.com/products/btpy8tmc?Pathfinder-Roleplaying-Game-Ultimate-Equipment\">Ultimate Equipment pg. 81</a>, <a href=\"http://paizo.com/pathfinderRPG/v5748btpy88yj\">PRPG Core Rulebook pg. 159</a><br>Price 60 gp (exotic, military), 15 gp (exotic, pack), 30 gp (exotic, riding), 20 gp (military), 5 gp (pack), 10 gp (riding); Weight 40 lbs. (exotic, military), 20 lbs. (exotic, pack), 30 lbs. (exotic, riding), 30 lbs. (military), 15 lbs. (pack), 25 lbs. (riding)</p>\n<h3>Description</h3>\n<p>Saddles are used to support a rider or supplies on a mount.<br><br>Military Saddle: This saddle braces the rider, providing a +2 circumstance bonus on Ride checks related to staying in the saddle. If the rider is knocked unconscious while in a military saddle, he has a 75% chance to stay in the saddle.<br><br>Pack Saddle: A pack saddle holds gear and supplies, but not a rider. It holds as much gear as the mount can carry.<br><br>Riding Saddle: These saddles are the most pervasive type of riding equipment. If the rider is knocked unconscious while in a riding saddle, he has a 50% chance to stay in the saddle.<br><br>Exotic Saddle: These saddles are designed for a variety of unusual mounts, each customized for a specific type of beast. Exotic saddles come in military, pack, and riding styles, just as normal saddles do, and have the same traits.</p>"
    },
    "weight": {
      "value": 30
    },
    "price": 20,
    "equipped": false,
    "subType": "gear"
  }
}
