{
  "_id": "pzoofblizyixlcoc",
  "name": "Silversheen",
  "type": "loot",
  "img": "systems/pf1/icons/items/inventory/dice.jpg",
  "system": {
    "description": {
      "value": "<p>This shimmering paste-like substance can be applied to a weapon as a <em>standard action</em>. It gives the weapon the properties of <em>alchemical silver</em> for 1 hour, replacing the properties of any other special material it might have. One vial coats a single melee weapon or 20 units of ammunition.</p>"
    },
    "price": 250,
    "equipped": false,
    "cl": 5,
    "aura": {
      "school": "trs"
    },
    "subType": "gear"
  }
}
