{
  "_id": "rfetjvpidsjuesdw",
  "name": "Tepache",
  "type": "loot",
  "img": "systems/pf1/icons/items/inventory/dice.jpg",
  "system": {
    "description": {
      "value": "<h4>Tepache</h4>\n<p><b>Price</b> 1 sp; <b>Weight</b> 1/2 lb.</p>\n<p>This mildly alcoholic beverage is made of beer, pineapple (or other tropical fruit), sugar, and cinnamon, then fermented a few days and served cold with chili <em>powder</em>. It is sweet and pleasant but common only in warmer climates.</p>"
    },
    "weight": {
      "value": 0.5
    },
    "price": 0.1,
    "equipped": false,
    "subType": "gear"
  }
}
