{
  "_id": "eejcantwnbdukmri",
  "name": "Training Sleeve",
  "type": "loot",
  "img": "systems/pf1/icons/items/inventory/dice.jpg",
  "system": {
    "description": {
      "value": "<p class=\"source\"><b>Source</b> <em>PPZO9410</em></p>\n<p><b>Price</b> 100 gp; <b>Weight</b> 5 lbs.</p>\n<p>This thick, heavily padded sleeve fits over the wearer's arm and serves as a target for <em>animals</em> being trained to attack. When used in conjunction with the <em>Handle Animal</em> skill to train an <em>animal</em> for a general purpose, this item grants the user a +5 <em>competence bonus</em> on her <em>Handle Animal</em> check to successfully combat train an <em>animal</em>.</p>"
    },
    "weight": {
      "value": 5
    },
    "price": 100,
    "equipped": false,
    "subType": "gear"
  }
}
