{
  "_id": "luuowowtctuosxey",
  "name": "Vest, Barbed",
  "type": "loot",
  "img": "systems/pf1/icons/items/inventory/dice.jpg",
  "system": {
    "description": {
      "value": "<p class=\"source\"><b>Source</b> <em>PZO1115</em></p>\n<p>Thin leather flaps keep the hundreds of tiny, fishhook-like needles dotting the surface of this black vest from harming you while you wear it. However, any creature that injures you with a natural or unarmed attack must make a DC 15 <em>Reflex</em> save or take 1 point of damage. Any creature swallows you it takes 1 point of damage each round until it either spits you up, you escape, or you die (at which point the vest has sustained enough damage to no longer serve as a threat). The vest can only be worn over light armor or no armor.</p>"
    },
    "weight": {
      "value": 4
    },
    "price": 10,
    "equipped": false,
    "subType": "gear"
  }
}
