{
  "_id": "fzzorhnoyjwkeixv",
  "name": "Wine",
  "type": "loot",
  "img": "systems/pf1/icons/items/inventory/dice.jpg",
  "system": {
    "description": {
      "value": "<h4>Wine</h4>\n<p class=\"source\"><b>Source</b> <em>PZO1110</em></p>\n<ul>\n<li>Common (pitcher)</li>\n<li>Fine (bottle)</li>\n</ul>\n<p>The listed prices are for a tavern or restaurant in an average city.</p>"
    },
    "equipped": false,
    "subType": "gear"
  }
}
