{
  "_id": "pWELX6ZgwkxnXcL8",
  "name": "Wire",
  "type": "loot",
  "img": "systems/pf1/icons/items/inventory/dice.jpg",
  "system": {
    "description": {
      "value": "<p>Source <a href=\"http://paizo.com/products/btpy8tmc?Pathfinder-Roleplaying-Game-Ultimate-Equipment\">Ultimate Equipment pg. 58</a><br>Price 5 gp; Weight 1/2 lb.<br>Category Adventuring Gear</p>\n<h3>Description</h3>\n<p>This 6-foot length of copper wire is strong and flexible. By attaching it to two pitons or iron spikes across an area, you can create a simple tripwire trap.</p>\n<h3>Tripwire Trap - CR 1/3</h3>\n<p>Type mechanical; Perception DC 15; Disable Device DC 10</p>\n<h3>Effects</h3>\n<p>Trigger location; Reset automatic<br>Effect trip combat maneuver +5 (+10 if the target is running)</p>"
    },
    "weight": {
      "value": 0.5
    },
    "price": 5,
    "equipped": false,
    "subType": "gear"
  }
}
