{
  "_id": "S6GcVnO4SD3g3glD",
  "name": "Aberrant Fortitude",
  "type": "feat",
  "img": "systems/pf1/icons/skills/red_05.jpg",
  "system": {
    "description": {
      "value": "<p>At 8th level, you become immune to the sickened and nauseated conditions.</p>"
    },
    "tag": "classFeat_aberrantFortitude",
    "useCustomTag": true,
    "subType": "classFeat",
    "associations": {
      "classes": ["Bloodrager"]
    },
    "abilityType": "su"
  }
}
