{
  "_id": "xU6T3RFfBgPCFiDi",
  "name": "Ability Score Increase (SPI)",
  "type": "feat",
  "img": "systems/pf1/icons/skills/blood_12.jpg",
  "system": {
    "description": {
      "value": "<p>The phantom adds 1 to one of its ability scores.</p>"
    },
    "tag": "classFeat_abilityScoreIncreaseSpi",
    "useCustomTag": true,
    "subType": "classFeat",
    "associations": {
      "classes": ["Spiritualist", "Phantom"]
    },
    "abilityType": "ex"
  }
}
