{
  "_id": "Tp4tHbtBqK2hgzf7",
  "name": "Abyssal Blood, Greater",
  "type": "feat",
  "img": "systems/pf1/icons/feats/deafening-critical.jpg",
  "system": {
    "description": {
      "value": "<p>While raging, the barbarian gains resistance 5 to acid, cold, and fire.</p>"
    },
    "tag": "classFeat_abyssalBloodGreater",
    "useCustomTag": true,
    "subType": "classFeat",
    "associations": {
      "classes": ["Barbarian", "Skald"]
    },
    "abilityType": "su"
  }
}
