{
  "_id": "DpQMlDH18vRkDcex",
  "name": "Acid Skin",
  "type": "feat",
  "img": "systems/pf1/icons/spells/light-royal-1.jpg",
  "system": {
    "description": {
      "value": "<p>You gain resist acid 5. This resistance increases to 10 at 5th level and 20 at 11th level.</p>\n<p>At 17th level, you gain immunity to acid.</p>"
    },
    "actions": [
      {
        "_id": "9vp2gjaercsh7kj5",
        "name": "Use",
        "img": "systems/pf1/icons/spells/light-royal-1.jpg",
        "activation": {
          "type": "passive",
          "unchained": {
            "type": "passive"
          }
        },
        "actionType": ""
      }
    ],
    "tag": "classFeat_acidSkin",
    "useCustomTag": true,
    "subType": "classFeat",
    "associations": {
      "classes": ["Oracle"]
    },
    "abilityType": "ex"
  }
}
