{
  "_id": "DedYkveglWkTAvEp",
  "name": "Acrobatic Master",
  "type": "feat",
  "img": "systems/pf1/icons/items/weapons/kunai.png",
  "system": {
    "description": {
      "value": "<p>As a swift action, a ninja with this trick can focus her ki to grant her a +20 bonus on one Acrobatics check of her choice made before the start of her next turn. Using this ability expends 1 ki point from her ki pool.</p>"
    },
    "tags": ["Ninja Trick"],
    "actions": [
      {
        "_id": "hoh02uk1x7g5tovr",
        "name": "Use",
        "img": "systems/pf1/icons/items/weapons/kunai.png",
        "activation": {
          "type": "swift",
          "unchained": {
            "type": "action"
          }
        },
        "actionType": ""
      }
    ],
    "tag": "classFeat_acrobaticMaster",
    "useCustomTag": true,
    "subType": "classFeat",
    "associations": {
      "classes": ["Ninja"]
    },
    "abilityType": "su"
  }
}
