{
  "_id": "6pQ8T7lIEx3BF6Wi",
  "name": "Advanced Talents (NIN)",
  "type": "feat",
  "img": "systems/pf1/icons/items/weapons/kunai.png",
  "system": {
    "description": {
      "value": "<p>The ninja can select a rogue talent from the list of Advanced Talents in place of a ninja trick. The ninja cannot select a rogue talent that has the same name as a ninja trick. The ninja cannot select improved evasion unless she has evasion (either as a class feature or as a ninja master trick).</p>"
    },
    "tags": ["Master Trick"],
    "tag": "classFeat_advancedTalentsNin",
    "useCustomTag": true,
    "subType": "classFeat",
    "associations": {
      "classes": ["Ninja"]
    }
  }
}
