{
  "_id": "zinh3m68xSNlhHZ8",
  "name": "Agathion Subdomain",
  "type": "feat",
  "img": "systems/pf1/icons/skills/mech_12.jpg",
  "system": {
    "description": {
      "value": "<p><b>Replacement Domain Spells:</b></p>\n<ul>\n<li>1st—@Compendium[pf1.spells.y2uhoqr4itdbw5g4]{Shield Of Faith}</li>\n<li>3rd—@Compendium[pf1.spells.m1rmcpcaixcpz9ib]{Tongues}</li>\n<li>6th—@Compendium[pf1.spells.gfvnfa5k1tnpvg8v]{Planar Ally} (agathions only)</li>\n</ul>"
    },
    "tag": "classFeat_agathionSubdomain",
    "useCustomTag": true,
    "subType": "classFeat",
    "associations": {
      "classes": ["Cleric"]
    }
  }
}
