{
  "_id": "LhghRhNNLRoWN9fQ",
  "name": "Air Cushion",
  "type": "feat",
  "img": "systems/pf1/icons/spells/wind-sky-3.jpg",
  "system": {
    "description": {
      "value": "<p><b>Element</b> air; <b>Type</b> utility (Sp); <b>Level</b> 1; <b>Burn</b> 0</p>\n<p>You cushion a fall from any height. You are constantly under the effects of feather fall, and you count as one size category larger for the purpose of determining how you are affected by wind.</p>"
    },
    "tag": "classFeat_airCushion",
    "useCustomTag": true,
    "subType": "classFeat",
    "associations": {
      "classes": ["Kineticist"]
    },
    "abilityType": "sp"
  }
}
