{
  "_id": "jMqy5ByguOG5uCft",
  "name": "Air Shroud, Greater",
  "type": "feat",
  "img": "systems/pf1/icons/spells/wind-sky-3.jpg",
  "system": {
    "description": {
      "value": "<p><b>Element</b> air; <b>Type</b> utility (Sp); <b>Level</b> 5; <b>Burn</b> 0<br><b>Prerequisite</b> air shroud</p>\n<p>Your air shroud improves, granting you the benefits of @Compendium[pf1.spells.f6lqt3ju8m7r5la2]{Life Bubble}. When you accept burn to grant the benefit to others, the benefit lasts until the next time your burn is removed.</p>"
    },
    "actions": [
      {
        "_id": "82zbzwx16aekxou6",
        "name": "Use",
        "img": "systems/pf1/icons/spells/wind-sky-3.jpg",
        "activation": {
          "type": "standard",
          "unchained": {
            "cost": 2,
            "type": "action"
          }
        },
        "duration": {
          "units": "seeText"
        },
        "actionType": ""
      }
    ],
    "tag": "classFeat_airShroudGreater",
    "useCustomTag": true,
    "subType": "classFeat",
    "associations": {
      "classes": ["Kineticist"]
    },
    "abilityType": "sp"
  }
}
