{
  "_id": "NkSbbpfGocIvuwF9",
  "name": "Allure (Stare)",
  "type": "feat",
  "img": "systems/pf1/icons/skills/emerald_11.jpg",
  "system": {
    "description": {
      "value": "<p>The hypnotic stare penalty also applies on initiative checks and Perception checks.</p>"
    },
    "tag": "classFeat_allureStare",
    "useCustomTag": true,
    "subType": "classFeat",
    "associations": {
      "classes": ["Mesmerist"]
    }
  }
}
