{
  "_id": "frdZ5fkuGZhkE9DU",
  "name": "Alter Enhancements",
  "type": "feat",
  "img": "systems/pf1/icons/spells/runes-blue-3.jpg",
  "system": {
    "description": {
      "value": "<p>An arcanist with this exploit can modify the enhancements placed on a weapon, suit of armor, or shield. The arcanist can use this exploit to change one weapon or armor special ability to another with an equal cost. This ability can only be used to change the item’s special abilities, not its enhancement bonus. Using this ability requires the arcanist to touch the item as a full-round action and expend 1 point from her arcane reservoir, and doing so provokes an attack of opportunity. This ability cannot be used on an item in the possession of an unwilling creature. This change lasts for a number of minutes equal to the arcanist’s Charisma modifier (minimum 1).</p>\n<p>The arcanist must have the arcane weapon exploit to select this exploit.</p>"
    },
    "tags": ["Arcanist Exploit, Greater"],
    "actions": [
      {
        "_id": "ukhho0vqra4cwi09",
        "name": "Use",
        "img": "systems/pf1/icons/spells/runes-blue-3.jpg",
        "activation": {
          "type": "full",
          "unchained": {
            "cost": 3,
            "type": "action"
          }
        },
        "target": {
          "value": "object touched"
        },
        "range": {
          "units": "touch"
        },
        "actionType": ""
      }
    ],
    "tag": "classFeat_alterEnhancements",
    "useCustomTag": true,
    "subType": "classFeat",
    "associations": {
      "classes": ["Arcanist"]
    },
    "abilityType": "su"
  }
}
