{
  "_id": "q4QDmwabfSV6mWHV",
  "name": "Ancestors Patron",
  "type": "feat",
  "img": "systems/pf1/icons/feats/improved-familiar.jpg",
  "system": {
    "description": {
      "value": "<ul>\n<li>2nd — @Compendium[pf1.spells.wa0zb2pncesmm9lz]{Bless}</li>\n<li>4th — @Compendium[pf1.spells.ibk7jrc5rwubpia6]{Aid}</li>\n<li>6th — @Compendium[pf1.spells.hu8179fdqfkl0bqj]{Prayer}</li>\n<li>8th — @Compendium[pf1.spells.scyklgov72pvw884]{Blessing Of Fervor}</li>\n<li>10th — @Compendium[pf1.spells.p2kosvizylhy8vfa]{Commune}</li>\n<li>12th — @Compendium[pf1.spells.z0duc2v2n3ioynta]{Heroism, Greater}</li>\n<li>14th — @Compendium[pf1.spells.080el1lfozrhf6c2]{Refuge}</li>\n<li>16th — @Compendium[pf1.spells.xlzqpkl8fpm3sn4u]{Euphoric Tranquility}</li>\n<li>18th — @Compendium[pf1.spells.3wdx7fjulsohi1lk]{Weird}</li>\n</ul>"
    },
    "tag": "classFeat_ancestorsPatron",
    "useCustomTag": true,
    "subType": "classFeat",
    "associations": {
      "classes": ["Witch"]
    }
  }
}
