{
  "_id": "BmOTUkvwa0UwvwPt",
  "name": "Ancestor's Council",
  "type": "feat",
  "img": "systems/pf1/icons/skills/violet_20.jpg",
  "system": {
    "description": {
      "value": "<p>As a standard action the shaman can call upon her ancestors to provide advice and assistance to one ally within 30 feet. The ally gains a +2 bonus on any attack roll, saving throw, ability check, or skill check made before the beginning of the shaman’s next turn.</p>\n<p>The shaman can use this ability a number of times per day equal to 3 + her Charisma bonus.</p>"
    },
    "actions": [
      {
        "_id": "wk1i16zvqwgitr1y",
        "name": "Use",
        "img": "systems/pf1/icons/skills/violet_20.jpg",
        "activation": {
          "type": "standard",
          "unchained": {
            "cost": 2,
            "type": "action"
          }
        },
        "duration": {
          "value": "1",
          "units": "round"
        },
        "target": {
          "value": "one ally"
        },
        "range": {
          "value": "30",
          "units": "ft"
        },
        "actionType": ""
      }
    ],
    "uses": {
      "per": "day",
      "maxFormula": "3 + @abilities.cha.mod"
    },
    "tag": "classFeat_ancestorsCouncil",
    "useCustomTag": true,
    "subType": "classFeat",
    "associations": {
      "classes": ["Shaman"]
    },
    "abilityType": "su"
  }
}
