{
  "_id": "RMyYdVe1LzfR5bbO",
  "name": "Ancestors Final Revelation",
  "type": "feat",
  "img": "systems/pf1/icons/spells/light-royal-1.jpg",
  "system": {
    "description": {
      "value": "<p>Upon reaching 20th level, you become one with the spirits of your ancestors. You gain a bonus on Will saving throws equal to your Charisma modifier, blindsense out to a range of 60 feet, and a +4 bonus on your caster level for all divination spells. You can cast @Compendium[pf1.spells.lnahlmp5mih2ongh]{Astral Projection} as a spell-like ability once per day without requiring material components.</p>"
    },
    "tags": ["Revelation", "Ancestor Mystery"],
    "actions": [
      {
        "_id": "5ktmrrcecc2czpkv",
        "name": "Use",
        "img": "systems/pf1/icons/spells/light-royal-1.jpg",
        "activation": {
          "type": "standard",
          "unchained": {
            "cost": 2,
            "type": "action"
          }
        },
        "duration": {
          "units": "seeText"
        },
        "target": {
          "value": "you plus one additional willing creature touched per two caster levels"
        },
        "range": {
          "units": "touch"
        },
        "actionType": ""
      }
    ],
    "uses": {
      "per": "day",
      "maxFormula": "1"
    },
    "changes": [
      {
        "_id": "qmdrdwya",
        "formula": "@abilities.cha.mod",
        "subTarget": "will",
        "modifier": "untyped"
      }
    ],
    "tag": "classFeat_ancestorsFinalRevelation",
    "useCustomTag": true,
    "subType": "classFeat",
    "associations": {
      "classes": ["Oracle"]
    }
  }
}
