{
  "_id": "Z05wtZJ1jeoq5k9G",
  "name": "Applied Engineering",
  "type": "feat",
  "img": "systems/pf1/icons/items/weapons/sword-cane.png",
  "system": {
    "description": {
      "value": "<p>The investigator can leverage his knowledge of engineering to solve tasks that normally require brute strength or keen eyes. He can expend one use of inspiration as a full-round action to study an object or area and attempt a Knowledge (engineering) check. On his next turn, he can use the result of that Knowledge (engineering) check in place of a Strength check to break the object or in place of a Perception check to locate hidden doors or compartments in that area.</p>"
    },
    "actions": [
      {
        "_id": "tknkfemzovul682q",
        "name": "Use",
        "img": "systems/pf1/icons/items/weapons/sword-cane.png",
        "activation": {
          "type": "full",
          "unchained": {
            "cost": 3,
            "type": "action"
          }
        },
        "actionType": ""
      }
    ],
    "tag": "classFeat_appliedEngineering",
    "useCustomTag": true,
    "subType": "classFeat",
    "associations": {
      "classes": ["Investigator"]
    },
    "abilityType": "ex"
  }
}
