{
  "_id": "FCs1W7wUL79CDWiv",
  "name": "Armored Mask",
  "type": "feat",
  "img": "systems/pf1/icons/spells/runes-blue-2.jpg",
  "system": {
    "description": {
      "value": "<p>By expending 1 point from her arcane reservoir as a standard action, the arcanist grants herself an effective illusion of armor. She gains the benefits of @Compendium[pf1.spells.ucc0a31d1y86oleh]{Mage Armor} with a caster level that’s equal to her arcanist level and appears to be wearing light or medium armor of whatever design she chooses when activating this ability. At any time while this effect is active, she can expend 1 additional point from her arcane reservoir as an immediate action to also gain the benefits of @Compendium[pf1.spells.y2uhoqr4itdbw5g4]{Shield Of Faith} with a caster level equal to her arcanist level.</p>"
    },
    "tags": ["Arcanist Exploit"],
    "actions": [
      {
        "_id": "cl4klrgx2ajw25pq",
        "name": "Use",
        "img": "systems/pf1/icons/spells/runes-blue-2.jpg",
        "activation": {
          "type": "standard",
          "unchained": {
            "cost": 2,
            "type": "action"
          }
        },
        "duration": {
          "value": "@classes.arcanist.level",
          "units": "hour"
        },
        "target": {
          "value": "self"
        },
        "range": {
          "units": "personal"
        },
        "actionType": ""
      }
    ],
    "tag": "classFeat_armoredMask",
    "useCustomTag": true,
    "subType": "classFeat",
    "associations": {
      "classes": ["Arcanist"]
    },
    "abilityType": "su"
  }
}
