{
  "_id": "lZq83YyGDC8lKYz1",
  "name": "Atavism Totem",
  "type": "feat",
  "img": "systems/pf1/icons/feats/deafening-critical.jpg",
  "system": {
    "description": {
      "value": "<p>The barbarian gains ferocity.</p>\n<p>A barbarian must be at least 6th level to select this rage power.</p>"
    },
    "tag": "classFeat_atavismTotem",
    "useCustomTag": true,
    "subType": "classFeat",
    "associations": {
      "classes": ["Barbarian", "Skald"]
    },
    "abilityType": "su"
  }
}
