{
  "_id": "SqTaI2sHPIZpLDtQ",
  "name": "Aura of Vengeance",
  "type": "feat",
  "img": "systems/pf1/icons/spells/slice-spirit-3.jpg",
  "system": {
    "description": {
      "value": "<p>At 11th level, an antipaladin can expend two uses of his smite good ability to grant the ability to smite good to all allies within 10 feet, using his bonuses. Allies must use this smite good ability by the start of the antipaladin's next turn and the bonuses last for 1 minute. Using this ability is a free action. Good creatures gain no benefit from this ability.</p>"
    },
    "actions": [
      {
        "_id": "iw9yvge99gqhtfow",
        "name": "Use",
        "img": "systems/pf1/icons/spells/slice-spirit-3.jpg",
        "activation": {
          "type": "free",
          "unchained": {
            "type": "free"
          }
        },
        "duration": {
          "units": "seeText"
        },
        "target": {
          "value": "allies"
        },
        "range": {
          "value": "10",
          "units": "ft"
        },
        "actionType": ""
      }
    ],
    "tag": "classFeat_auraOfVengeance",
    "useCustomTag": true,
    "subType": "classFeat",
    "associations": {
      "classes": ["Antipaladin"]
    },
    "abilityType": "su"
  }
}
