{
  "_id": "RPnpdNvWX4MoEzTF",
  "name": "Autumn Rage",
  "type": "feat",
  "img": "systems/pf1/icons/feats/deafening-critical.jpg",
  "system": {
    "description": {
      "value": "<p>The barbarian becomes a servant of the harvest. While raging, she gains a +2 bonus on combat maneuver checks to reposition or trip. She also gains this bonus on attack rolls to confirm critical hits.</p>\n<p>A barbarian can have only one season-themed rage power, choosing between spring, summer, autumn, or winter rage.</p>"
    },
    "tag": "classFeat_autumnRage",
    "useCustomTag": true,
    "subType": "classFeat",
    "associations": {
      "classes": ["Barbarian", "Skald"]
    },
    "abilityType": "su"
  }
}
