{
  "_id": "oWOSHUO3QEQRyNYq",
  "name": "Battle Roar",
  "type": "feat",
  "img": "systems/pf1/icons/feats/deafening-critical.jpg",
  "system": {
    "description": {
      "value": "<p>When the character successfully demoralizes an opponent using intimidating glare, he also deals 1d6 points of sonic damage to that opponent.</p>\n<p>A character must be at least 6th level and have the intimidating glare rage power to select this rage power.</p>"
    },
    "tag": "classFeat_battleRoar",
    "useCustomTag": true,
    "subType": "classFeat",
    "associations": {
      "classes": ["Barbarian", "Skald"]
    },
    "abilityType": "su"
  }
}
