{
  "_id": "MoRuJD2UZMKamlCP",
  "name": "Bestial Flyer",
  "type": "feat",
  "img": "systems/pf1/icons/feats/deafening-critical.jpg",
  "system": {
    "description": {
      "value": "<p>While raging, the barbarian’s fly speed increases by 10 feet and her maneuverability improves by one category.</p>\n<p>A barbarian must have a fly speed before raging, have the raging flyer power, and be at least 6th level to choose this rage power.</p>"
    },
    "tag": "classFeat_bestialFlyer",
    "useCustomTag": true,
    "subType": "classFeat",
    "associations": {
      "classes": ["Barbarian", "Skald"]
    },
    "abilityType": "ex"
  }
}
