{
  "_id": "LI66mzKzG7oOyi0L",
  "name": "Bestial Climber",
  "type": "feat",
  "img": "systems/pf1/icons/feats/deafening-critical.jpg",
  "system": {
    "description": {
      "value": "<p>While raging, the barbarian gains a natural climb speed equal to her land speed.</p>\n<p>A barbarian must have the raging climber rage power and be at least 6th level before selecting this rage power.</p>"
    },
    "tag": "classFeat_bestialClimber",
    "useCustomTag": true,
    "subType": "classFeat",
    "associations": {
      "classes": ["Barbarian", "Skald"]
    },
    "abilityType": "ex"
  }
}
