{
  "_id": "cp96PlzNFp5NbIB9",
  "name": "Bleeding Blow",
  "type": "feat",
  "img": "systems/pf1/icons/feats/deafening-critical.jpg",
  "system": {
    "description": {
      "value": "<p>When she uses her powerful blow rage power, the barbarian also deals bleed damage equal to her bonus damage with the powerful blow. This bleed damage bypasses damage reduction.</p>\n<p>A barbarian must have the powerful blow rage power and be at least 8th level before selecting this rage power.</p>"
    },
    "tag": "classFeat_bleedingBlow",
    "useCustomTag": true,
    "subType": "classFeat",
    "associations": {
      "classes": ["Barbarian", "Skald"]
    },
    "abilityType": "ex"
  }
}
