{
  "_id": "Br14oRMf7TmT4Q7T",
  "name": "Blinding Bomb",
  "type": "feat",
  "img": "systems/pf1/icons/items/potions/unique-3.jpg",
  "system": {
    "description": {
      "value": "<p>When the alchemist creates a bomb, he can choose for it to detonate very brightly. Creatures that take a direct hit from a blinding bomb are blinded for 1 minute unless they succeed at a Fortitude save. Creatures in the splash area that fail their saves against the bomb are dazzled for 1 minute. This is a light effect.</p>\n<p>An alchemist must be at least 8th level before selecting this discovery.</p>"
    },
    "tag": "classFeat_blindingBomb",
    "useCustomTag": true,
    "subType": "classFeat",
    "associations": {
      "classes": ["Alchemist"]
    },
    "abilityType": "su"
  }
}
