{
  "_id": "siiazW2SF2w7i8v0",
  "name": "Body of Air",
  "type": "feat",
  "img": "systems/pf1/icons/spells/wind-sky-3.jpg",
  "system": {
    "description": {
      "value": "<p><b>Element</b> air; <b>Type</b> utility (Sp); <b>Level</b> 4; <b>Burn</b> 0</p>\n<p>You transform yourself into gas, as per @Compendium[pf1.spells.mqdoexj35atgqafn]{Gaseous Form}. You can’t use kinetic blasts while in this form.</p>"
    },
    "tag": "classFeat_bodyOfAir",
    "useCustomTag": true,
    "subType": "classFeat",
    "associations": {
      "classes": ["Kineticist"]
    },
    "abilityType": "sp"
  }
}
