{
  "_id": "dcCZW51UewXFLLGo",
  "name": "Bolster",
  "type": "feat",
  "img": "systems/pf1/icons/skills/affliction_21.jpg",
  "system": {
    "description": {
      "value": "<p>As a <em>standard action</em>, you can touch an <em>undead</em> creature and infuse it with negative energy. It gains a +1 <em>profane bonus</em> on all attack rolls and <em>saving throws</em>, as well as 1 <em>temporary hit point</em> per Hit Die and a +2 bonus to its turn resistance. The bonus on attack rolls and <em>saving throws</em> increases by +1 for every 5 wizard levels you possess. These bonuses last for a number of rounds equal to 1/2 your wizard level (minimum 1 round). The bonuses and <em>temporary hit points</em> are immediately dispelled if the creature is within the area of a <em>consecrate</em> spell. You can use this ability a number of times per day equal to 3 + your <em>Intelligence</em> modifier.</p>"
    },
    "actions": [
      {
        "_id": "199b6ksbzcluwn41",
        "name": "Use",
        "img": "systems/pf1/icons/skills/affliction_21.jpg",
        "activation": {
          "type": "standard",
          "unchained": {
            "cost": 2,
            "type": "action"
          }
        },
        "duration": {
          "value": "@classes.wizard.level < 4 ? 1 : floor(@classes.wizard.level / 2)",
          "units": "round"
        },
        "target": {
          "value": "Undead touched"
        },
        "range": {
          "units": "touch"
        },
        "actionType": ""
      }
    ],
    "uses": {
      "per": "day",
      "maxFormula": "3 + @abilities.int.mod"
    },
    "tag": "classFeat_bolster",
    "useCustomTag": true,
    "subType": "classFeat",
    "associations": {
      "classes": ["Wizard"]
    },
    "abilityType": "sp"
  }
}
