{
  "_id": "nMuDyCSs3IVFUiiu",
  "name": "Bones Spirit",
  "type": "feat",
  "img": "systems/pf1/icons/skills/violet_11.jpg",
  "system": {
    "description": {
      "value": "<p>A shaman who selects the bones spirit is cadaverously thin, with sunken eye sockets and dead eyes that stare off into the distance. Her body has a faint smell of the grave. When she calls upon one of this spirit’s abilities, a ghostly wind whips her hair and clothes about, and the unpleasant stench becomes more prominent.<p><b>Spirit Magic Spells:</b></p>\n<ul>\n<li>@Compendium[pf1.spells.9tww9fc9049h6iqc]{Cause Fear} (1st), </li>\n<li>@Compendium[pf1.spells.3ze0kso9hxff5u2f]{False Life} (2nd), </li>\n<li>@Compendium[pf1.spells.8uwmrygxgih1fb57]{Animate Dead} (3rd), </li>\n<li>@Compendium[pf1.spells.be88e90guqbi1q1z]{Fear} (4th), </li>\n<li>@Compendium[pf1.spells.dg3mrasygkm83c3e]{Slay Living} (5th), </li>\n<li>@Compendium[pf1.spells.3a162m66toj22fpa]{Circle Of Death} (6th), </li>\n<li>@Compendium[pf1.spells.wkp8u7xl1dgpk362]{Control Undead} (7th), </li>\n<li>@Compendium[pf1.spells.e8zen5nzixnt7bde]{Horrid Wilting} (8th), </li>\n<li>@Compendium[pf1.spells.wplgawb6aznjx7se]{Wail of the Banshee} (9th)</li>\n</ul>\n<p><b>Spirit Animal:</b> The shaman’s spirit animal gives off a ghostly glow and seems nearly transparent. The animal is under the constant effects of blur, with a caster level equal to the shaman’s level.</p>"
    },
    "tag": "classFeat_bonesSpirit",
    "useCustomTag": true,
    "subType": "classFeat",
    "associations": {
      "classes": ["Shaman"]
    }
  }
}
