{
  "_id": "VNAsksfmUCMQsoZE",
  "name": "Bonus Tricks",
  "type": "feat",
  "img": "systems/pf1/icons/spells/wild-eerie-2.jpg",
  "system": {
    "description": {
      "value": "<p>At 7th level and every 6 levels thereafter, a hunter’s animal companion learns a bonus trick (in addition to the bonus tricks gained from the hunter’s effective druid level).</p>"
    },
    "tag": "classFeat_bonusTricks",
    "useCustomTag": true,
    "subType": "classFeat",
    "associations": {
      "classes": ["Hunter"]
    },
    "abilityType": "ex"
  }
}
