{
  "_id": "4diLPqggIUsWxR0N",
  "name": "Calming Touch",
  "type": "feat",
  "img": "systems/pf1/icons/skills/light_10.jpg",
  "system": {
    "description": {
      "value": "<p>You can touch a creature as a standard action to heal it of 1d6 points of nonlethal damage + 1 point per cleric level. This touch also removes the fatigued, shaken, and sickened conditions (but has no effect on more severe conditions). You can use this ability a number of times per day equal to 3 + your Wisdom modifier.</p>"
    },
    "actions": [
      {
        "_id": "qxs2f13i3f23ojuy",
        "name": "Use",
        "img": "systems/pf1/icons/skills/light_10.jpg",
        "activation": {
          "type": "standard",
          "unchained": {
            "cost": 2,
            "type": "action"
          }
        },
        "duration": {
          "units": "inst"
        },
        "target": {
          "value": "creature touched"
        },
        "range": {
          "units": "touch"
        },
        "actionType": ""
      }
    ],
    "uses": {
      "per": "day",
      "maxFormula": "3 + @abilities.wis.mod"
    },
    "tag": "classFeat_calmingTouch",
    "useCustomTag": true,
    "subType": "classFeat",
    "associations": {
      "classes": ["Cleric"]
    },
    "abilityType": "sp"
  }
}
