{
  "_id": "fdfPMSV6HOO69x6u",
  "name": "Celestial Blood, Lesser",
  "type": "feat",
  "img": "systems/pf1/icons/feats/deafening-critical.jpg",
  "system": {
    "description": {
      "value": "<p>While raging, the barbarian’s melee attacks are considered good-aligned weapons for the purpose of bypassing damage reduction. Furthermore, the barbarian deals an additional 1d6 points of damage when she damages an evil outsider with a melee attack.</p>"
    },
    "tag": "classFeat_celestialBloodLesser",
    "useCustomTag": true,
    "subType": "classFeat",
    "associations": {
      "classes": ["Barbarian", "Skald"]
    },
    "abilityType": "su"
  }
}
