{
  "_id": "5mUZW2Qx8EY0yrQO",
  "name": "Chaos Blessing: Battle Companion",
  "type": "feat",
  "img": "systems/pf1/icons/spells/rip-water-2.jpg",
  "system": {
    "description": {
      "value": "<p>At 10th level, you can summon a battle companion. This ability functions as @Compendium[pf1.spells.aqri3zf6mzgd4di6]{Summon Monster IV} with a duration of 1 minute, but for only a chaotic outsider or an animal with the entropic creature simple template (Pathfinder RPG Bestiary 2 293).</p>\n<p>This ability can summon only one creature, regardless of the list used. For every 2 levels beyond 10th, the level of the summon monster spell increases by 1 (to a maximum of @Compendium[pf1.spells.mi52crelhwuy6bmp]{Summon Monster IX} at 20th level).</p>"
    },
    "actions": [
      {
        "_id": "pffukvmcgztmotld",
        "name": "Use",
        "img": "systems/pf1/icons/spells/rip-water-2.jpg",
        "activation": {
          "type": "round",
          "unchained": {
            "cost": 3,
            "type": "action"
          }
        },
        "actionType": ""
      }
    ],
    "tag": "classFeat_chaosBlessingBattleCompanion",
    "useCustomTag": true,
    "subType": "classFeat",
    "associations": {
      "classes": ["Warpriest"]
    }
  }
}
