{
  "_id": "aTjaaocVc3aYsJPg",
  "name": "Child of Ancient Winters",
  "type": "feat",
  "img": "systems/pf1/icons/skills/ice_03.jpg",
  "system": {
    "description": {
      "value": "<p>At 20th level, You gain the <em>cold</em> subtype and you become immune to <em>fatigue</em> and <em>exhaustion</em>. In addition, you gain <em>immunity</em> to sneak attacks and critical hits. This power causes you to gain <em>vulnerability</em> to fire.</p>"
    },
    "actions": [
      {
        "_id": "15s01nf95f7e7ra3",
        "name": "Use",
        "img": "systems/pf1/icons/skills/ice_03.jpg",
        "activation": {
          "type": "passive",
          "unchained": {
            "type": "passive"
          }
        },
        "actionType": ""
      }
    ],
    "tag": "classFeat_childOfAncientWinters",
    "useCustomTag": true,
    "subType": "classFeat",
    "associations": {
      "classes": ["Sorcerer"]
    },
    "abilityType": "su"
  }
}
