{
  "_id": "jPNCx02S3ZlIPOmL",
  "name": "Chimeric Aspect",
  "type": "feat",
  "img": "systems/pf1/icons/skills/blue_26.jpg",
  "system": {
    "description": {
      "value": "<p>At 9th level, when a shifter uses her shifter aspect ability to take on a minor form, she can choose two aspects and assume the minor form of each aspect.</p>"
    },
    "tag": "classFeat_chimericAspect",
    "useCustomTag": true,
    "subType": "classFeat",
    "associations": {
      "classes": ["Shifter"]
    },
    "abilityType": "su"
  }
}
