{
  "_id": "11QZ3HhhrMQlp84J",
  "name": "Coax Information",
  "type": "feat",
  "img": "systems/pf1/icons/items/weapons/dagger.PNG",
  "system": {
    "description": {
      "value": "<p>A rogue with this talent can use Bluff or Diplomacy in place of Intimidate to force an opponent to act friendly toward her.</p>"
    },
    "contextNotes": [
      {
        "subTarget": "skill.blf",
        "text": "Coax Information: Bluff in place of Intimidate to force an opponent to act friendly toward her."
      },
      {
        "subTarget": "skill.dip",
        "text": "Coax Information: Diplomacy in place of Intimidate to force an opponent to act friendly toward her."
      }
    ],
    "tag": "classFeat_coaxInformation",
    "useCustomTag": true,
    "subType": "classFeat",
    "associations": {
      "classes": ["Rogue"]
    },
    "abilityType": "ex"
  }
}
