{
  "_id": "lyqEPQDhcr20TTLD",
  "name": "Combine Extracts",
  "type": "feat",
  "img": "systems/pf1/icons/items/potions/unique-3.jpg",
  "system": {
    "description": {
      "value": "<p>When the alchemist creates an extract, he can place two formulae into one extract. When the extract is consumed, both formulae take effect. This extract has a level two levels higher than the highest-level formulae placed in the extract.</p>\n<p>An alchemist must be at least 8th level before selecting this discovery.</p>"
    },
    "tag": "classFeat_combineExtracts",
    "useCustomTag": true,
    "subType": "classFeat",
    "associations": {
      "classes": ["Alchemist"]
    }
  }
}
