{
  "_id": "yntCpOGgk3qJhw8j",
  "name": "Combat Swipe",
  "type": "feat",
  "img": "systems/pf1/icons/items/weapons/dagger.PNG",
  "system": {
    "description": {
      "value": "<p>A rogue who selects this talent gains Improved Steal as a bonus feat.</p>"
    },
    "tag": "classFeat_combatSwipe",
    "useCustomTag": true,
    "subType": "classFeat",
    "associations": {
      "classes": ["Rogue"]
    },
    "abilityType": "ex"
  }
}
