{
  "_id": "cN8MjvuVuNGfBDJL",
  "name": "Construct Subdomain",
  "type": "feat",
  "img": "systems/pf1/icons/skills/affliction_13.jpg",
  "system": {
    "description": {
      "value": "<p><b>Replacement Domain Spells:</b></p>\n<ul>\n<li>7th—@Compendium[pf1.spells.s2p7a4biy7bl4ks2]{Limited Wish}</li>\n<li>8th—@Compendium[pf1.spells.2sa3881har33geo1]{Polymorph Any Object}</li>\n</ul>"
    },
    "tag": "classFeat_constructSubdomain",
    "useCustomTag": true,
    "subType": "classFeat",
    "associations": {
      "classes": ["Cleric"]
    }
  }
}
