{
  "_id": "XUMkVRv3gMsysVbh",
  "name": "Corrupting Touch",
  "type": "feat",
  "img": "systems/pf1/icons/skills/ice_16.jpg",
  "system": {
    "description": {
      "value": "<p>At 1st level, you can cause a creature to become <em>shaken</em> as a melee touch attack. This effect persists for a number of rounds equal to 1/2 your sorcerer level (minimum 1). Creatures <em>shaken</em> by this ability radiate an aura of evil, as if they were an evil outsider (see @Compendium[pf1.spells.tr7m97npkbgm4wp7]{Detect Evil}). Multiple touches do not stack, but they do add to the duration. You can use this ability a number of times per day equal to 3 + your <em>Charisma</em> modifier.</p>"
    },
    "actions": [
      {
        "_id": "a1kiasrtdahpwuhs",
        "name": "Use",
        "img": "systems/pf1/icons/skills/ice_16.jpg",
        "activation": {
          "type": "standard",
          "unchained": {
            "cost": 2,
            "type": "action"
          }
        },
        "duration": {
          "value": "max(1, floor(@classes.sorcerer.level / 2))",
          "units": "round"
        },
        "target": {
          "value": "creature touched"
        },
        "range": {
          "units": "touch"
        },
        "actionType": ""
      }
    ],
    "uses": {
      "per": "day",
      "maxFormula": "3 + @abilities.cha.mod"
    },
    "tag": "classFeat_corruptingTouch",
    "useCustomTag": true,
    "subType": "classFeat",
    "associations": {
      "classes": ["Sorcerer"]
    },
    "abilityType": "sp"
  }
}
