{
  "_id": "hZlhs7dfhWOfR2P6",
  "name": "Daemon Subdomain",
  "type": "feat",
  "img": "systems/pf1/icons/skills/blood_13.jpg",
  "system": {
    "description": {
      "value": "<p><b>Replacement Domain Spells:</b></p>\n<ul>\n<li>1st—@Compendium[pf1.spells.9tww9fc9049h6iqc]{Cause Fear}</li>\n<li>3rd—@Compendium[pf1.spells.3efy1ico48ccrzni]{Vampiric Touch}</li>\n<li>6th—@Compendium[pf1.spells.qf4bqjgeff1q4hjt]{Planar Binding} (daemons only)</li>\n</ul>"
    },
    "tag": "classFeat_daemonSubdomain",
    "useCustomTag": true,
    "subType": "classFeat",
    "associations": {
      "classes": ["Cleric"]
    }
  }
}
