{
  "_id": "kMjMAG6Gjs7unAz5",
  "name": "Damage Reduction (SKA)",
  "type": "feat",
  "img": "systems/pf1/icons/feats/improved-shield-bash.jpg",
  "system": {
    "description": {
      "value": "<p>At 9th level, a skald gains damage reduction. Subtract 1 from the damage the skald takes each time he is dealt damage from a weapon or a natural attack.</p>\n<p>At 14th and 19th levels, this damage reduction increases by 1. Damage reduction can reduce damage to 0, but not below 0.</p>\n<p>Additionally, the skald grants this DR to all allies affected by his inspired rage.</p>"
    },
    "tag": "classFeat_damageReductionSka",
    "useCustomTag": true,
    "subType": "classFeat",
    "associations": {
      "classes": ["Skald"]
    },
    "abilityType": "ex"
  }
}
