{
  "_id": "hMI3BJSP5Suq4CYs",
  "name": "Deadly Sneak",
  "type": "feat",
  "img": "systems/pf1/icons/items/weapons/butterfly-knife.PNG",
  "system": {
    "description": {
      "value": "<p>Whenever a rogue with this talent uses the powerful sneak rogue talent, she treats all 1s and 2s on the sneak attack damage dice as 3s. A rogue must have the powerful sneak rogue talent before choosing this talent.</p>"
    },
    "tag": "classFeat_deadlySneak",
    "useCustomTag": true,
    "subType": "classFeat",
    "associations": {
      "classes": ["Rogue"]
    },
    "abilityType": "ex"
  }
}
