{
  "_id": "qkfl5M9SgVfAWb5K",
  "name": "Deadly Accuracy (UC)",
  "type": "feat",
  "img": "systems/pf1/icons/feats/deafening-critical.jpg",
  "system": {
    "description": {
      "value": "<p>If the barbarian scores a critical threat while in the accurate stance, she applies double the accurate stance’s bonus when rolling to confirm the critical.</p>\n<p>A barbarian must have the accurate stance rage power and be at least 4th level to select this rage power.</p>"
    },
    "tag": "classFeat_deadlyAccuracyUc",
    "useCustomTag": true,
    "subType": "classFeat",
    "associations": {
      "classes": ["Barbarian (Unchained)"]
    },
    "abilityType": "ex"
  }
}
