{
  "_id": "utNFCa6DcmZij8XK",
  "name": "Destined Strike",
  "type": "feat",
  "img": "systems/pf1/icons/skills/red_05.jpg",
  "system": {
    "description": {
      "value": "<p>At 1st level, as a free action up to three times per day you can grant yourself an insight bonus equal to 1/2 your bloodrager level (minimum 1) on one melee attack.</p>\n<p>At 12th level, you can use this ability up to five times per day.</p>"
    },
    "actions": [
      {
        "_id": "bzg4sf9wjsbbswj8",
        "name": "Use",
        "img": "systems/pf1/icons/skills/red_05.jpg",
        "activation": {
          "type": "free",
          "unchained": {
            "type": "free"
          }
        },
        "actionType": ""
      }
    ],
    "uses": {
      "per": "day",
      "maxFormula": "@classes.bloodrager.level >= 12 ? 5 : 3"
    },
    "tag": "classFeat_destinedStrike",
    "useCustomTag": true,
    "subType": "classFeat",
    "associations": {
      "classes": ["Bloodrager"]
    },
    "abilityType": "su"
  }
}
