{
  "_id": "bdfzuVTHxV8fXHaC",
  "name": "Divine Surge",
  "type": "feat",
  "img": "systems/pf1/icons/skills/light_04.jpg",
  "system": {
    "description": {
      "value": "<p>This power functions as the archmage arcana spirit power, except that you add spells from the cleric/oracle list instead of the sorcerer/wizard list (these spells count as divine), and you need a divine focus if the spell requires one.</p>"
    },
    "tag": "classFeat_divineSurge",
    "useCustomTag": true,
    "subType": "classFeat",
    "associations": {
      "classes": ["Medium"]
    },
    "abilityType": "su"
  }
}
