{
  "_id": "0KEzOqgQiWjt7m1E",
  "name": "Earthquake Blessing: Stone's Base",
  "type": "feat",
  "img": "systems/pf1/icons/spells/rock-plain-2.jpg",
  "system": {
    "description": {
      "value": "<p>You can touch an ally to bless it with the stalwart resilience of stone. For 1 minute, the creature gains a +4 bonus to its CMD against maneuvers that would move the ally or knock it prone.</p>"
    },
    "actions": [
      {
        "_id": "gjazf4n21u8efh4p",
        "name": "Use",
        "img": "systems/pf1/icons/spells/rock-plain-2.jpg",
        "activation": {
          "type": "standard",
          "unchained": {
            "cost": 2,
            "type": "action"
          }
        },
        "duration": {
          "value": "1",
          "units": "minute"
        },
        "target": {
          "value": "creature touched"
        },
        "range": {
          "units": "touch"
        },
        "actionType": ""
      }
    ],
    "tag": "classFeat_earthquakeBlessingStonesBase",
    "useCustomTag": true,
    "subType": "classFeat",
    "associations": {
      "classes": ["Warpriest"]
    }
  }
}
