{
  "_id": "n7Xd7ydZDDepv2hA",
  "name": "Earth Totem",
  "type": "feat",
  "img": "systems/pf1/icons/feats/deafening-critical.jpg",
  "system": {
    "description": {
      "value": "<p>While raging, the barbarian can burrow through sand, loose soil, or gravel at a speed of 20 feet. This does not give the barbarian the ability to breathe underground. Loose material collapses behind the target 1 round after it leaves the area.</p>"
    },
    "tag": "classFeat_earthTotem",
    "useCustomTag": true,
    "subType": "classFeat",
    "associations": {
      "classes": ["Barbarian", "Skald"]
    },
    "abilityType": "su"
  }
}
