{
  "_id": "kvYaYS0QR7EqtWfy",
  "name": "Ectoplasmic Body",
  "type": "feat",
  "img": "systems/pf1/icons/skills/green_22.jpg",
  "system": {
    "description": {
      "value": "<p>At 20th level, you are more ectoplasm than flesh. You become immune to <em>sneak attacks</em> and critical hits and gain <em>DR</em> 5/slashing.</p>"
    },
    "actions": [
      {
        "_id": "i2jmo4o4dzbrhn44",
        "name": "Use",
        "img": "systems/pf1/icons/skills/green_22.jpg",
        "activation": {
          "type": "passive",
          "unchained": {
            "type": "passive"
          }
        },
        "actionType": ""
      }
    ],
    "tag": "classFeat_ectoplasmicBody",
    "useCustomTag": true,
    "subType": "classFeat",
    "associations": {
      "classes": ["Sorcerer"]
    },
    "abilityType": "ex"
  }
}
