{
  "_id": "XJKFQhYkV9wCK6tp",
  "name": "Eidetic Recollection",
  "type": "feat",
  "img": "systems/pf1/icons/items/weapons/sword-cane.png",
  "system": {
    "description": {
      "value": "<p>An investigator can always choose to take 10 on any of his Knowledge checks, even if he’s in immediate danger or distracted. An investigator may expend one use of inspiration to take 20 on a Knowledge skill check even if he’s in immediate danger or distracted.</p>\n<p>An investigator must be at least 11th level to select this talent.</p>"
    },
    "actions": [
      {
        "_id": "x8xfom87atn46lm9",
        "name": "Use",
        "img": "systems/pf1/icons/items/weapons/sword-cane.png",
        "activation": {
          "type": "special",
          "unchained": {
            "type": "special"
          }
        },
        "actionType": ""
      }
    ],
    "tag": "classFeat_eideticRecollection",
    "useCustomTag": true,
    "subType": "classFeat",
    "associations": {
      "classes": ["Investigator"]
    },
    "abilityType": "su"
  }
}
