{
  "_id": "VnzaJlpvW7QeAVt6",
  "name": "Elemental Strikes",
  "type": "feat",
  "img": "systems/pf1/icons/skills/red_05.jpg",
  "system": {
    "description": {
      "value": "<p>At 1st level, three times a day as a swift action you can imbue your melee attacks with elemental energy. For 1 round, your melee attacks deal 1d6 points of additional damage of your energy type.</p>\n<p>At 8th level, you can use this ability up to five times per day.</p>\n<p>At 20th level, all your melee attacks deal this damage, and this ability no longer requires a swift action to activate.</p>"
    },
    "actions": [
      {
        "_id": "73xwe16fgxj9gei1",
        "name": "Use",
        "img": "systems/pf1/icons/skills/red_05.jpg",
        "activation": {
          "type": "swift",
          "unchained": {
            "type": "action"
          }
        },
        "duration": {
          "value": "1",
          "units": "round"
        },
        "actionType": ""
      }
    ],
    "uses": {
      "per": "day",
      "maxFormula": "@classes.bloodrager.level >= 8 ? 5 : 3"
    },
    "tag": "classFeat_elementalStrikes",
    "useCustomTag": true,
    "subType": "classFeat",
    "associations": {
      "classes": ["Bloodrager"]
    },
    "abilityType": "su"
  }
}
