{
  "_id": "gUIzLmnJVLDmhnvB",
  "name": "Energy Font",
  "type": "feat",
  "img": "systems/pf1/icons/skills/light_04.jpg",
  "system": {
    "description": {
      "value": "<p>You can channel energy a number of times per day equal to 1 + your Charisma modifier. Choose whether you channel positive or negative energy each time you contact a hierophant spirit; this choice must match the spirit’s faith.</p>\n<p>If you choose positive energy, add cure spells of each level you can cast from the cleric list to your medium spell list and spells known. Otherwise, add inflict spells in the same way. These spells count as divine, as in the divine surge spirit power.</p>"
    },
    "actions": [
      {
        "_id": "xulml2dqe7a7xk5j",
        "name": "Use",
        "img": "systems/pf1/icons/skills/light_04.jpg",
        "activation": {
          "type": "standard",
          "unchained": {
            "cost": 2,
            "type": "action"
          }
        },
        "duration": {
          "units": "inst"
        },
        "target": {
          "value": "30-ft. radius burst"
        },
        "range": {
          "units": "personal"
        },
        "actionType": "heal",
        "damage": {
          "parts": [
            {
              "formula": "(ceil(@classes.medium.level / 2))d6",
              "type": {
                "values": ["untyped"],
                "custom": ""
              }
            }
          ]
        }
      }
    ],
    "uses": {
      "per": "day",
      "maxFormula": "1 + @abilities.cha.mod"
    },
    "tag": "classFeat_energyFont",
    "useCustomTag": true,
    "subType": "classFeat",
    "associations": {
      "classes": ["Medium"]
    },
    "abilityType": "su"
  }
}
