{
  "_id": "dOJ2Zp3fJfzBMoFm",
  "name": "Energy Attacks (2 pts)",
  "type": "feat",
  "img": "systems/pf1/icons/skills/blue_26.jpg",
  "system": {
    "description": {
      "value": "<p>An eidolon's attacks become charged with energy. Pick one energy type: acid, cold, electricity, or fire. All of the eidolon's natural attacks deal 1d6 points of energy damage of the chosen type on a successful hit.</p>\n<p>The summoner must be at least 5th level before selecting this evolution.</p>"
    },
    "tag": "classFeat_energyAttacks2Pts",
    "useCustomTag": true,
    "subType": "classFeat",
    "associations": {
      "classes": ["Eidolon"]
    },
    "abilityType": "su"
  }
}
