{
  "_id": "enScoyIVERU06elX",
  "name": "Entangling Ectoplasm",
  "type": "feat",
  "img": "systems/pf1/icons/skills/green_28.jpg",
  "system": {
    "description": {
      "value": "<p>At 1st level, you can create a ball of ectoplasm and hurl it at targets within 30 feet. This ectoplasm acts as a <em>tanglefoot bag</em> that can also <em>entangle</em> <em>incorporeal</em> creatures.</p>\n<p>The ectoplasm dissipates within 1d3 rounds. You can use this ability a number of times per day equal to 3 + your <em>Charisma</em> modifier.</p>"
    },
    "actions": [
      {
        "_id": "79h1eutxb65gk3ap",
        "name": "Use",
        "img": "systems/pf1/icons/skills/green_28.jpg",
        "activation": {
          "type": "standard",
          "unchained": {
            "cost": 2,
            "type": "action"
          }
        },
        "duration": {
          "value": "1d3",
          "units": "round"
        },
        "target": {
          "value": "one creature"
        },
        "range": {
          "value": "30",
          "units": "spec"
        },
        "actionType": ""
      }
    ],
    "uses": {
      "per": "day",
      "maxFormula": "3 + @abilities.cha.mod"
    },
    "tag": "classFeat_entanglingEctoplasm",
    "useCustomTag": true,
    "subType": "classFeat",
    "associations": {
      "classes": ["Sorcerer"]
    },
    "abilityType": "sp"
  }
}
