{
  "_id": "vVkKDPniD09W5JgO",
  "name": "Eschew Materials",
  "type": "feat",
  "img": "systems/pf1/icons/skills/nature_07.jpg",
  "system": {
    "description": {
      "value": "<p>Gain @Compendium[pf1.feats.ElqchQT5WB625HPg]{Eschew Materials} as a bonus feat.</p>"
    },
    "tag": "classFeat_eschewMaterials",
    "useCustomTag": true,
    "subType": "classFeat",
    "associations": {
      "classes": ["Bloodrager", "Sorcerer"]
    }
  }
}
