{
  "_id": "fyJ84TbqSuKNxB7V",
  "name": "Esoteric Scholar (UC)",
  "type": "feat",
  "img": "systems/pf1/icons/items/weapons/hunga-munga.PNG",
  "system": {
    "description": {
      "value": "<p>A rogue with this talent can attempt any Knowledge skill check, even if she is not trained in that Knowledge skill.</p>"
    },
    "tag": "classFeat_esotericScholarUc",
    "useCustomTag": true,
    "subType": "classFeat",
    "associations": {
      "classes": ["Rogue (Unchained)"]
    },
    "abilityType": "ex"
  }
}
