{
  "_id": "AVuGNQYQ9UPZg1Rd",
  "name": "Ethereal Patron",
  "type": "feat",
  "img": "systems/pf1/icons/feats/improved-familiar.jpg",
  "system": {
    "description": {
      "value": "<ul>\n<li>2nd — @Compendium[pf1.spells.aa0w7tk852iqn3ni]{Detect Undead}</li>\n<li>4th — @Compendium[pf1.spells.nokru6mxk9p3r513]{See Invisibility}</li>\n<li>6th — @Compendium[pf1.spells.clo5w5mow21nln10]{Ectoplasmic Snare}</li>\n<li>8th — @Compendium[pf1.spells.c3revq5uj4vtqzxb]{Condensed Ether}</li>\n<li>10th — @Compendium[pf1.spells.jmtzhbgzqpboahhn]{Ethereal Envelope}</li>\n<li>12th — @Compendium[pf1.spells.btccs4sjo2nog1a0]{Ethereal Jaunt}</li>\n<li>14th — @Compendium[pf1.spells.8fyg16j34uruuy45]{Ectoplasmic Eruption}</li>\n<li>16th — @Compendium[pf1.spells.7aq3g5gcbviba7hq]{Ethereal Envelopment}</li>\n<li>18th — @Compendium[pf1.spells.gw9bes9othfqm7mi]{Etherealness}</li>\n</ul>"
    },
    "tag": "classFeat_etherealPatron",
    "useCustomTag": true,
    "subType": "classFeat",
    "associations": {
      "classes": ["Witch"]
    }
  }
}
