{
  "_id": "cvbnMdCNBxwd19Di",
  "name": "Extradimension Subschool",
  "type": "feat",
  "img": "systems/pf1/icons/spells/evil-eye-eerie-1.jpg",
  "system": {
    "description": {
      "value": "<p><b>Associated School:</b> <em>Conjuration</em>.</p>\n<p><b>Replacement Powers:</b> This subschool replaces the summoner’s charm power of the <em>conjuration school</em>.</p>"
    },
    "tag": "classFeat_extradimensionSubschool",
    "useCustomTag": true,
    "subType": "classFeat",
    "associations": {
      "classes": ["Wizard"]
    }
  }
}
