{
  "_id": "jkrBVNX5Y0o6cANu",
  "name": "Extra Feat (2 pts)",
  "type": "feat",
  "img": "systems/pf1/icons/skills/blue_26.jpg",
  "system": {
    "description": {
      "value": "<p>The eidolon gains an extra feat. It must meet the prerequisites of the feat.</p>\n<p>A Summoner must have the Twinned Summoner archetype in order to select this evolution.</p>"
    },
    "tag": "classFeat_extraFeat2Pts",
    "useCustomTag": true,
    "subType": "classFeat",
    "associations": {
      "classes": ["Eidolon"]
    },
    "abilityType": "ex"
  }
}
