{
  "_id": "M8IQnVMYyqh1Mrl7",
  "name": "Eyes of Darkness",
  "type": "feat",
  "img": "systems/pf1/icons/skills/light_02.jpg",
  "system": {
    "description": {
      "value": "<p>At 8th level, your vision is not impaired by lighting conditions, even in absolute darkness and magic darkness. You can use this ability for a number of rounds per day equal to 1/2 your cleric level. These rounds do not need to be consecutive.</p>"
    },
    "actions": [
      {
        "_id": "mpwxv57ysm7yarav",
        "name": "Use",
        "img": "systems/pf1/icons/skills/light_02.jpg",
        "activation": {
          "type": "swift",
          "unchained": {
            "type": "action"
          }
        },
        "duration": {
          "value": "1",
          "units": "round"
        },
        "target": {
          "value": "self"
        },
        "range": {
          "units": "personal"
        },
        "actionType": ""
      }
    ],
    "uses": {
      "per": "day",
      "maxFormula": "floor(@classes.cleric.level / 2)"
    },
    "tag": "classFeat_eyesOfDarkness",
    "useCustomTag": true,
    "subType": "classFeat",
    "associations": {
      "classes": ["Cleric"]
    },
    "abilityType": "su"
  }
}
