{
  "_id": "CVyecjW52RuSAD1p",
  "name": "Eyes of the Hawk",
  "type": "feat",
  "img": "systems/pf1/icons/feats/alertness.jpg",
  "system": {
    "description": {
      "value": "<p>You gain a racial bonus on Perception checks equal to 1/2 your cleric level (minimum +1). In addition, if you can act during a surprise round, you receive a +2 racial bonus on your Initiative check.</p>\n<p>This power replaces the Speak with Animals power granted by the Animal Domain.</p>"
    },
    "actions": [
      {
        "_id": "su3fd1jshvkbfojm",
        "name": "Use",
        "img": "systems/pf1/icons/feats/alertness.jpg",
        "activation": {
          "type": "passive",
          "unchained": {
            "type": "passive"
          }
        },
        "actionType": ""
      }
    ],
    "changes": [
      {
        "_id": "3uyly9yt",
        "formula": "max(1, floor(@classes.cleric.level / 2))",
        "subTarget": "skill.per",
        "modifier": "racial"
      }
    ],
    "tag": "classFeat_eyesOfTheHawk",
    "useCustomTag": true,
    "subType": "classFeat",
    "associations": {
      "classes": ["Cleric"]
    },
    "abilityType": "ex"
  }
}
