{
  "_id": "NCJajMqriTEmVaMT",
  "name": "Familiar (MAG)",
  "type": "feat",
  "img": "systems/pf1/icons/spells/enchant-red-3.jpg",
  "system": {
    "description": {
      "value": "<p>The magus gains a familiar, using his magus level as his effective wizard level. This familiar follows the rules for familiars presented in the arcane bond wizard class feature.</p>"
    },
    "tag": "classFeat_familiarMag",
    "useCustomTag": true,
    "subType": "classFeat",
    "associations": {
      "classes": ["Magus"]
    },
    "abilityType": "ex"
  }
}
