{
  "_id": "p4OuE7ORpKbJNX1v",
  "name": "Fast Getaway",
  "type": "feat",
  "img": "systems/pf1/icons/items/weapons/dagger.PNG",
  "system": {
    "description": {
      "value": "<p>After successfully making a sneak attack or Sleight of Hand check, a rogue with this talent can spend a move action to take the withdraw action. She can move no more than her speed during this movement.</p>"
    },
    "tag": "classFeat_fastGetaway",
    "useCustomTag": true,
    "subType": "classFeat",
    "associations": {
      "classes": ["Rogue"]
    },
    "abilityType": "ex"
  }
}
