{
  "_id": "Q8xnt84nTaUmKgo1",
  "name": "Fearless",
  "type": "feat",
  "img": "systems/pf1/icons/feats/greater-shield-focus.jpg",
  "system": {
    "description": {
      "value": "<p>At 3rd level, you gain a +4 bonus on saving throws made against fear and a +1 <em>natural armor</em> bonus. At 9th level, you lose your <em>light sensitivity</em>, gain immunity to fear, and your <em>natural armor</em> bonus increases to +2.</p>"
    },
    "actions": [
      {
        "_id": "qsg528q4ofdvg977",
        "name": "Use",
        "img": "systems/pf1/icons/feats/greater-shield-focus.jpg",
        "activation": {
          "type": "passive",
          "unchained": {
            "type": "passive"
          }
        },
        "actionType": ""
      }
    ],
    "changes": [
      {
        "_id": "2ro2xe0x",
        "formula": "@classes.sorcerer.level >= 9 ? 2 : 1",
        "subTarget": "nac",
        "modifier": "untyped"
      }
    ],
    "tag": "classFeat_fearless",
    "useCustomTag": true,
    "subType": "classFeat",
    "associations": {
      "classes": ["Sorcerer"]
    },
    "abilityType": "ex"
  }
}
