{
  "_id": "AYSjz7NXfxvvWZm4",
  "name": "Fearless (Valor Inquisition)",
  "type": "feat",
  "img": "systems/pf1/icons/items/inventory/badge-cross.jpg",
  "system": {
    "description": {
      "value": "<p>At 8th level, you become immune to fear.</p>"
    },
    "tags": ["Inquisition", "Valor Inquisition"],
    "tag": "classFeat_fearlessValorInquisition",
    "useCustomTag": true,
    "subType": "classFeat",
    "associations": {
      "classes": ["Inquisitor"]
    },
    "abilityType": "su"
  }
}
