{
  "_id": "G1W6lrVFn3R4erts",
  "name": "Feint from Shadows",
  "type": "feat",
  "img": "systems/pf1/icons/items/weapons/dagger.PNG",
  "system": {
    "description": {
      "value": "<p>A rogue with this talent can feint in combat using a ranged weapon against a target within 30 feet and cause the opponent to lose his Dexterity modifier against her next melee or ranged attack. The rogue must have concealment (but not full concealment) from the target of the feint.</p>"
    },
    "tag": "classFeat_feintFromShadows",
    "useCustomTag": true,
    "subType": "classFeat",
    "associations": {
      "classes": ["Rogue"]
    },
    "abilityType": "ex"
  }
}
