{
  "_id": "DM9h9C2CJtq7wCd5",
  "name": "Ferocity Discipline",
  "type": "feat",
  "img": "systems/pf1/icons/spells/slice-spirit-3.jpg",
  "system": {
    "description": {
      "value": "<p>You are in touch with the most primal part of your subconscious. Your training allows you to unlock animalistic senses and powers.<p><b>Phrenic Pool Ability:</b> Wisdom<p><b>Bonus Spells:</b></p>\n<ul>\n<li>@Compendium[pf1.spells.ja1p1uuf8fp6fiox]{Anticipate Peril} (1st), </li>\n<li>@Compendium[pf1.spells.05i5rxwim12hwktu]{Bull's Strength} (4th), </li>\n<li>@Compendium[pf1.spells.vqfrp8t0c1lw1jna]{Heroism} (6th), </li>\n<li>@Compendium[pf1.spells.lvzq2mwkqmozolpl]{Freedom of Movement} (8th), </li>\n<li>@Compendium[pf1.spells.knyako6zopc1chrv]{Stoneskin} (10th), </li>\n<li>@Compendium[pf1.spells.9pbl3ktd5oqejl19]{Transformation} (12th), </li>\n<li>@Compendium[pf1.spells.ln4jpuurxbrfxw5j]{Arcane Sight, Greater} (14th), </li>\n<li>@Compendium[pf1.spells.blvetbc929cfx4m8]{Mind Blank} (16th), </li>\n<li>@Compendium[pf1.spells.vl7yer8k1leyuxld]{Foresight} (18th).</li>\n</ul>"
    },
    "tag": "classFeat_ferocityDiscipline",
    "useCustomTag": true,
    "subType": "classFeat",
    "associations": {
      "classes": ["Psychic"]
    }
  }
}
