{
  "_id": "4XyZVlsC3UiT9Bz2",
  "name": "Ferocious Mount",
  "type": "feat",
  "img": "systems/pf1/icons/feats/deafening-critical.jpg",
  "system": {
    "description": {
      "value": "<p>While raging and mounted, the barbarian’s mount also gains the benefits of rage (including greater rage and mighty rage) as long as the barbarian is mounted or adjacent to it. While her mount is raging in this way, she must spend one additional round of rage per round. She can elect not to pay this cost, in which case her mount does not rage.</p>"
    },
    "tag": "classFeat_ferociousMount",
    "useCustomTag": true,
    "subType": "classFeat",
    "associations": {
      "classes": ["Barbarian", "Skald"]
    },
    "abilityType": "ex"
  }
}
