{
  "_id": "52OMEv2dXUkeFkEr",
  "name": "Fey Blood, Greater",
  "type": "feat",
  "img": "systems/pf1/icons/feats/deafening-critical.jpg",
  "system": {
    "description": {
      "value": "<p>While raging, as long as the barbarian moves at least 10 feet, she gain the effects of @Compendium[pf1.spells.18kryvj2dfuymk9d]{Blur} for 1 round.</p>"
    },
    "tag": "classFeat_feyBloodGreater",
    "useCustomTag": true,
    "subType": "classFeat",
    "associations": {
      "classes": ["Barbarian", "Skald"]
    },
    "abilityType": "su"
  }
}
