{
  "_id": "hTyk49iVEU49Ms3G",
  "name": "Fey Blood",
  "type": "feat",
  "img": "systems/pf1/icons/feats/deafening-critical.jpg",
  "system": {
    "description": {
      "value": "<p>While raging, when the barbarian charges, she ignores difficult terrain (including magical terrain, but not other creatures).</p>"
    },
    "tag": "classFeat_feyBlood",
    "useCustomTag": true,
    "subType": "classFeat",
    "associations": {
      "classes": ["Barbarian", "Skald"]
    },
    "abilityType": "su"
  }
}
