{
  "_id": "ePNt8fgtaAxmLnHs",
  "name": "Fighter Training",
  "type": "feat",
  "img": "systems/pf1/icons/feats/double-slice.jpg",
  "system": {
    "description": {
      "value": "<p>Starting at 10th level, a magus counts 1/2 his total magus level as his fighter level for the purpose of qualifying for feats. If he has levels in fighter, these levels stack.</p>"
    },
    "tag": "classFeat_fighterTraining",
    "useCustomTag": true,
    "subType": "classFeat",
    "associations": {
      "classes": ["Magus"]
    },
    "abilityType": "ex"
  }
}
