{
  "_id": "8vF0UoXribL1DOG2",
  "name": "Final Revelation",
  "type": "feat",
  "img": "systems/pf1/icons/skills/emerald_11.jpg",
  "system": {
    "description": {
      "value": "<p>At 20th level, an oracle learns the final revelation about her mystery, granting her amazing powers and abilities. The nature of these bonuses depends upon the oracle’s mystery.</p>"
    },
    "tag": "classFeat_finalRevelation",
    "useCustomTag": true,
    "subType": "classFeat",
    "associations": {
      "classes": ["Oracle"]
    }
  }
}
