{
  "_id": "NTfhSmNoNuQ5mBNs",
  "name": "Flight Hex",
  "type": "feat",
  "img": "systems/pf1/icons/skills/violet_02.jpg",
  "system": {
    "description": {
      "value": "<p>The witch grows lighter as she gains power, eventually gaining the ability to fly.</p>\n<p>At 1st level, the witch can use feather fall at will and gains a +4 racial bonus on Swim checks.</p>\n<p>At 3rd level, she can cast levitate once per day.</p>\n<p>At 5th level, she can fly, as per the spell, for a number of minutes per day equal to her level.</p>\n<p>These minutes do not need to be consecutive, but they must be spent in 1-minute increments. This hex only affects the witch.</p>"
    },
    "tags": ["Hex"],
    "actions": [
      {
        "_id": "RiXoIrVUA6WlTxch",
        "name": "Feather Fall",
        "img": "systems/pf1/icons/skills/violet_02.jpg",
        "description": "<p>As per @UUID[Compendium.pf1.spells.68m9du7zw2di7ew6]{Feather Fall} spell.</p>",
        "activation": {
          "type": "immediate",
          "unchained": {
            "type": "reaction"
          }
        },
        "range": {
          "units": "personal"
        },
        "actionType": ""
      },
      {
        "_id": "cTmoJ8MuNtrIp1BP",
        "name": "Levitate",
        "img": "systems/pf1/icons/skills/violet_02.jpg",
        "uses": {
          "self": {
            "maxFormula": "min(1, floor(@classes.witch.level / 3))",
            "per": "day"
          }
        },
        "actionType": ""
      },
      {
        "_id": "1DDufZkGHYbBC9JY",
        "name": "Fly",
        "img": "systems/pf1/icons/skills/violet_02.jpg",
        "duration": {
          "value": "1",
          "units": "minute"
        },
        "uses": {
          "self": {
            "maxFormula": "(@classes.witch.level > 4) ? (@classes.witch.level) : 0",
            "per": "day"
          }
        },
        "actionType": ""
      }
    ],
    "changes": [
      {
        "_id": "3tAIY0re",
        "formula": "4",
        "subTarget": "skill.swm",
        "modifier": "racial"
      }
    ],
    "tag": "classFeat_flightHex",
    "useCustomTag": true,
    "subType": "classFeat",
    "associations": {
      "classes": ["Witch"]
    },
    "abilityType": "su"
  }
}
