{
  "_id": "tZYBfTQcxY8kbN90",
  "name": "Gaze of Flames",
  "type": "feat",
  "img": "systems/pf1/icons/spells/light-royal-1.jpg",
  "system": {
    "description": {
      "value": "<p>You can see through fire, fog, and smoke without penalty as long as the light is sufficient to allow you to see normally.</p>\n<p>At 7th level, you can gaze through any source of flame within 10 feet per oracle level, as if using clairvoyance.</p>\n<p>You can use this ability for a number of rounds per day equal to your oracle level, but these rounds do not need to be consecutive.</p>"
    },
    "actions": [
      {
        "_id": "a0vjck1m31fvbytk",
        "name": "Use",
        "img": "systems/pf1/icons/spells/light-royal-1.jpg",
        "activation": {
          "type": "standard",
          "unchained": {
            "cost": 2,
            "type": "action"
          }
        },
        "duration": {
          "value": "1",
          "units": "round"
        },
        "target": {
          "value": "self"
        },
        "range": {
          "units": "personal"
        },
        "actionType": ""
      }
    ],
    "uses": {
      "per": "day",
      "maxFormula": "@classes.oracle.level"
    },
    "tag": "classFeat_gazeOfFlames",
    "useCustomTag": true,
    "subType": "classFeat",
    "associations": {
      "classes": ["Oracle"]
    },
    "abilityType": "su"
  }
}
