{
  "_id": "5sajXn9N2R2owlHi",
  "name": "Ghost Blade",
  "type": "feat",
  "img": "systems/pf1/icons/spells/enchant-red-3.jpg",
  "system": {
    "description": {
      "value": "<p>Whenever the magus enchants his weapon using his arcane pool, he may spend 1 additional point from his arcane pool to add the brilliant energy and ghost touch special abilities to the list of available options.</p>\n<p>The magus must be at least 9th level before selecting this arcana.</p>"
    },
    "tag": "classFeat_ghostBlade",
    "useCustomTag": true,
    "subType": "classFeat",
    "associations": {
      "classes": ["Magus"]
    },
    "abilityType": "su"
  }
}
