{
  "_id": "YaeCq4CsM9bONm6i",
  "name": "Gore (2 pts)",
  "type": "feat",
  "img": "systems/pf1/icons/skills/blue_26.jpg",
  "system": {
    "description": {
      "value": "<p>An eidolon grows a number of horns on its head, giving it a gore attack. This attack is a primary attack. The gore deals 1d6 points of damage (1d8 if Large, 2d6 if Huge).</p>"
    },
    "tag": "classFeat_gore2Pts",
    "useCustomTag": true,
    "subType": "classFeat",
    "associations": {
      "classes": ["Eidolon"]
    },
    "abilityType": "ex"
  }
}
