{
  "_id": "0ZhgjIOVQDiP7dIi",
  "name": "Gravity Master",
  "type": "feat",
  "img": "systems/pf1/icons/spells/rip-sky-1.jpg",
  "system": {
    "description": {
      "value": "<p><b>Element</b> void; <b>Type</b> utility (Sp); <b>Level</b> 9; <b>Burn</b> 0<br><b>Prerequisite</b> gravity control, greater gravity control</p>\n<p>You can create areas of altered gravity. This functions as @Compendium[pf1.spells.3bdfw5f15hwcxlth]{Reverse Gravity}, but you can choose for the gravity in the area to pull toward any direction (not just up).</p>\n<p>If you use this wild talent, any previous use of this wild talent expires immediately.</p>"
    },
    "tag": "classFeat_gravityMaster",
    "useCustomTag": true,
    "subType": "classFeat",
    "associations": {
      "classes": ["Kineticist"]
    },
    "abilityType": "sp"
  }
}
