{
  "_id": "8dr9E7AG9E6gJnNi",
  "name": "Greater Fire Steed",
  "type": "feat",
  "img": "systems/pf1/icons/spells/fireball-red-3.jpg",
  "system": {
    "description": {
      "value": "<p><b>Element</b> fire; <b>Type</b> utility (Sp); <b>Level</b> 8; <b>Burn</b> 0<br><b>Prerequisite</b> <a href=\"https://aonprd.com/KineticistTalentsDisplay.aspx?ItemName=Fire%20Steed\">fire steed</a>, <a href=\"https://aonprd.com/KineticistTalentsDisplay.aspx?ItemName=Improved%20Fire%20Steed\">improved fire steed</a></p>\n<p>When using <a href=\"https://aonprd.com/KineticistTalentsDisplay.aspx?ItemName=Fire%20Steed\">fire steed</a>, the mount gains immunity to fire and its speed increases by an additional 10 feet. In addition, when the mount takes a run action, it can run up steep slopes at its normal speed and down steep slopes without its rider needing to attempt a Ride check.</p>"
    },
    "tag": "classFeat_greaterFireSteed",
    "useCustomTag": true,
    "subType": "classFeat",
    "associations": {
      "classes": ["Kineticist"]
    },
    "abilityType": "sp"
  }
}
