{
  "_id": "nWDMATASYzzAShr6",
  "name": "Greater Spell Combat",
  "type": "feat",
  "img": "systems/pf1/icons/feats/improved-vital-strike.jpg",
  "system": {
    "description": {
      "value": "<p>At 14th level, the magus gains the ability to seamlessly cast spells and make melee attacks. Whenever he uses the spell combat ability, his concentration check bonus equals double the amount of the attack penalty taken.</p>"
    },
    "tag": "classFeat_greaterSpellCombat",
    "useCustomTag": true,
    "subType": "classFeat",
    "associations": {
      "classes": ["Magus"]
    },
    "abilityType": "su"
  }
}
