{
  "_id": "U14SmZ4MKr2UksTu",
  "name": "Growth Subdomain",
  "type": "feat",
  "img": "systems/pf1/icons/skills/green_22.jpg",
  "system": {
    "description": {
      "value": "<p><b>Replacement Domain Spells:</b></p>\n<ul>\n<li>1st—@Compendium[pf1.spells.jnlr9cuepka1l26e]{Enlarge Person}</li>\n<li>5th—@Compendium[pf1.spells.6ax0ythzw8n4bta8]{Righteous Might}</li>\n</ul>"
    },
    "tag": "classFeat_growthSubdomain",
    "useCustomTag": true,
    "subType": "classFeat",
    "associations": {
      "classes": ["Cleric"]
    }
  }
}
