{
  "_id": "GDkSk9x8JDYgc50I",
  "name": "Guarded Life",
  "type": "feat",
  "img": "systems/pf1/icons/feats/deafening-critical.jpg",
  "system": {
    "description": {
      "value": "<p>While raging, if the barbarian is reduced below 0 hit points, 1 hit point of lethal damage per barbarian level is converted to nonlethal damage. If the barbarian is at negative hit points due to lethal damage, she immediately stabilizes.</p>"
    },
    "tag": "classFeat_guardedLife",
    "useCustomTag": true,
    "subType": "classFeat",
    "associations": {
      "classes": ["Barbarian", "Skald"]
    },
    "abilityType": "ex"
  }
}
