{
  "_id": "NSS96ru73dkoRC9a",
  "name": "Heat Adaptation",
  "type": "feat",
  "img": "systems/pf1/icons/spells/fireball-red-3.jpg",
  "system": {
    "description": {
      "value": "<p><b>Element</b> fire, water; <b>Type</b> utility (Sp); <b>Level</b> 1; <b>Burn</b> 0</p>\n<p>You are constantly protected by @Compendium[pf1.spells.pau0ejk30fs1eebl]{Endure Elements} against hot temperatures only. You gain an amount of fire resistance equal to twice your current amount of burn.</p>"
    },
    "tag": "classFeat_heatAdaptation",
    "useCustomTag": true,
    "subType": "classFeat",
    "associations": {
      "classes": ["Kineticist"]
    },
    "abilityType": "sp"
  }
}
