{
  "_id": "56xPhAHkjpDk4gGj",
  "name": "Heavens Spirit Manifestation",
  "type": "feat",
  "img": "systems/pf1/icons/skills/violet_20.jpg",
  "system": {
    "description": {
      "value": "<p>Upon reaching 20th level, the shaman becomes the spirit of heaven. She receives a bonus on all saving throws equal to her Wisdom modifier. She automatically stabilizes if she is reduced to below 0 hit points. She’s immune to fear effects, and she automatically confirms all critical hits she threatens. If she dies, she’s reborn 3 days later in the form of a star child, maturing over the course of 7 days (as reincarnate).</p>"
    },
    "changes": [
      {
        "_id": "0bwhkb2c",
        "formula": "@abilities.wis.mod",
        "subTarget": "allSavingThrows",
        "modifier": "untyped"
      }
    ],
    "tag": "classFeat_heavensSpiritManifestation",
    "useCustomTag": true,
    "subType": "classFeat",
    "associations": {
      "classes": ["Shaman"]
    }
  }
}
