{
  "_id": "VSiYe0h6csQNWwa4",
  "name": "Hellfire Charge",
  "type": "feat",
  "img": "systems/pf1/icons/skills/red_05.jpg",
  "system": {
    "description": {
      "value": "<p>At 16th level, when you charge the attack you make at the end of the charge gains the benefit of your hellfire strike without expending a use of it. If you already have hellfire strike active, the fire damage ignores fire resistance of 10 or lower.</p>"
    },
    "tag": "classFeat_hellfireCharge",
    "useCustomTag": true,
    "subType": "classFeat",
    "associations": {
      "classes": ["Bloodrager"]
    },
    "abilityType": "su"
  }
}
