{
  "_id": "g2t1NFYbyCGvr4dF",
  "name": "Herbal Compound",
  "type": "feat",
  "img": "systems/pf1/icons/items/weapons/kunai.png",
  "system": {
    "description": {
      "value": "<p>A ninja with this trick can consume specially prepared herbs to strengthen her mind. The ninja can spend 1 ki point and smoke, eat, or inject an herbal compound as a move action. The ninja takes a –2 penalty to AC and on Reflex saves but gains a +4 alchemical bonus on Will saves for 10 minutes per ninja level.</p>"
    },
    "actions": [
      {
        "_id": "gqjyvyc0888oazxz",
        "name": "Use",
        "img": "systems/pf1/icons/items/weapons/kunai.png",
        "activation": {
          "type": "move"
        },
        "duration": {
          "value": "10",
          "units": "minute"
        },
        "actionType": ""
      }
    ],
    "tag": "classFeat_herbalCompound",
    "useCustomTag": true,
    "subType": "classFeat",
    "associations": {
      "classes": ["Ninja"]
    },
    "abilityType": "ex"
  }
}
