{
  "_id": "vcOB0LawmN3Z7bIk",
  "name": "Holy Bombs",
  "type": "feat",
  "img": "systems/pf1/icons/items/potions/unique-3.jpg",
  "system": {
    "description": {
      "value": "<p>When the alchemist creates a bomb, he can choose to have it deal good divine damage. Evil creatures that take a direct hit from a holy bomb must succeed at a Fortitude save or be staggered on their next turn. Against neutral creatures, holy bombs deal half damage, and such targets are not affected by their staggering effect. Holy bombs have no effect on good-aligned creatures.</p>\n<p>An alchemist must be at least 8th level before selecting this discovery.</p>"
    },
    "tag": "classFeat_holyBombs",
    "useCustomTag": true,
    "subType": "classFeat",
    "associations": {
      "classes": ["Alchemist"]
    }
  }
}
