{
  "_id": "ZqKkIuGMhEoUPu2t",
  "name": "Horrific Visage",
  "type": "feat",
  "img": "systems/pf1/icons/skills/affliction_03.jpg",
  "system": {
    "description": {
      "value": "<p>At 1st level, you can draw upon your hag ancestor to cause one target to perceive you as having a horrifying appearance. As a <em>standard action</em>, you can force one target within 30 feet to make a <em>Will</em> save (DC 10 + 1/2 your sorcerer level + your <em>Charisma</em> modifier) or be <em>shaken</em> for 1 round for every 2 sorcerer levels you possess (minimum 1 round). This is a mind-affecting, fear-based ability. This fear does not stack with other fear effects. You may use this ability a number of times per day equal to 3 + your <em>Charisma</em> modifier.</p>"
    },
    "actions": [
      {
        "_id": "eg3tsy7fc1ja1io7",
        "name": "Use",
        "img": "systems/pf1/icons/skills/affliction_03.jpg",
        "activation": {
          "type": "standard",
          "unchained": {
            "cost": 2,
            "type": "action"
          }
        },
        "duration": {
          "value": "@classes.sorcerer.level < 4 ? 1 : (floor(@classes.sorcerer.level / 2))",
          "units": "round"
        },
        "target": {
          "value": "One creature"
        },
        "range": {
          "value": "30",
          "units": "spec"
        },
        "actionType": ""
      }
    ],
    "uses": {
      "per": "day",
      "maxFormula": "3 + @abilities.cha.mod"
    },
    "tag": "classFeat_horrificVisage",
    "useCustomTag": true,
    "subType": "classFeat",
    "associations": {
      "classes": ["Sorcerer"]
    },
    "abilityType": "su"
  }
}
