{
  "_id": "WWso395rVHOfeyf3",
  "name": "Immolation",
  "type": "feat",
  "img": "systems/pf1/icons/skills/fire_12.jpg",
  "system": {
    "description": {
      "value": "<p>At 3rd level, you gain the ability to surround yourself in fire as a <em>swift action</em>. This fire burns for a number of rounds per day equal to your character level plus your <em>Charisma</em> bonus. These rounds do not have to be consecutive.</p>\n<p>Any unarmed attacks you make while affected by immolation deal an additional 1d6 points of fire damage, and any creature that ends its turn adjacent to you while you’re affected by immolation also takes 1d6 points of fire damage.</p>"
    },
    "actions": [
      {
        "_id": "qsju6g7le1ppyl7a",
        "name": "Use",
        "img": "systems/pf1/icons/skills/fire_12.jpg",
        "activation": {
          "type": "swift",
          "unchained": {
            "type": "action"
          }
        },
        "duration": {
          "value": "1",
          "units": "round"
        },
        "target": {
          "value": "Self"
        },
        "range": {
          "units": "personal"
        },
        "actionType": ""
      }
    ],
    "uses": {
      "per": "day",
      "maxFormula": "@attributes.hd.total + @abilities.cha.mod"
    },
    "tag": "classFeat_immolation",
    "useCustomTag": true,
    "subType": "classFeat",
    "associations": {
      "classes": ["Sorcerer"]
    },
    "abilityType": "su"
  }
}
