{
  "_id": "nOcu7VNOHPX8HAKY",
  "name": "Improved Shadow's Chill",
  "type": "feat",
  "img": "systems/pf1/icons/items/weapons/butterfly-knife.PNG",
  "system": {
    "description": {
      "value": "<p>When a rogue with this talent hits a creature with a melee weapon that deals sneak attack damage, the sneak attack damage is cold damage. Normal weapon damage is unaffected. The rogue must have cold resistance from a racial trait and the shadow’s chill rogue talent before choosing this talent.</p>"
    },
    "tag": "classFeat_improvedShadowsChill",
    "useCustomTag": true,
    "subType": "classFeat",
    "associations": {
      "classes": ["Rogue"]
    },
    "abilityType": "su"
  }
}
