{
  "_id": "ikH0TGHH16sFSJL6",
  "name": "Improved Fire Steed",
  "type": "feat",
  "img": "systems/pf1/icons/spells/fireball-red-3.jpg",
  "system": {
    "description": {
      "value": "<p><b>Element</b> fire; <b>Type</b> utility (Sp); <b>Level</b> 5; <b>Burn</b> 0<br><b>Prerequisite</b> <a href=\"https://aonprd.com/KineticistTalentsDisplay.aspx?ItemName=Fire%20Steed\">fire steed</a></p>\n<p>When using <a href=\"https://aonprd.com/KineticistTalentsDisplay.aspx?ItemName=Fire%20Steed\">fire steed</a>, the mount’s fire resistance increases to 20 and its speed increases by an additional 10 feet. The mount can move over lava without difficulty or a decrease in speed.</p>"
    },
    "tag": "classFeat_improvedFireSteed",
    "useCustomTag": true,
    "subType": "classFeat",
    "associations": {
      "classes": ["Kineticist"]
    },
    "abilityType": "sp"
  }
}
