{
  "_id": "NsjBfVybTSINRlOG",
  "name": "Inner Strength",
  "type": "feat",
  "img": "systems/pf1/icons/items/inventory/badge-cross.jpg",
  "system": {
    "description": {
      "value": "<p>At 6th level, once per day, you may heal yourself as a swift action, healing 1d6 hit points for every two inquisitor levels you possess. When you use this ability, you can also remove one of the following conditions from yourself: blinded, confused, dazzled, deafened, frightened, nauseated, shaken, sickened, or staggered.</p>"
    },
    "actions": [
      {
        "_id": "yr70596qqvkje6pj",
        "name": "Use",
        "img": "systems/pf1/icons/items/inventory/badge-cross.jpg",
        "activation": {
          "type": "swift",
          "unchained": {
            "type": "action"
          }
        },
        "duration": {
          "units": "inst"
        },
        "target": {
          "value": "self"
        },
        "range": {
          "units": "personal"
        },
        "actionType": "heal",
        "damage": {
          "parts": [
            {
              "formula": "(floor(@classes.inquisitor.level / 2))d6",
              "type": {
                "values": ["untyped"],
                "custom": ""
              }
            }
          ]
        }
      }
    ],
    "uses": {
      "per": "day",
      "maxFormula": "1"
    },
    "tag": "classFeat_innerStrength",
    "useCustomTag": true,
    "subType": "classFeat",
    "associations": {
      "classes": ["Inquisitor"]
    },
    "abilityType": "su"
  }
}
