{
  "_id": "auclZiO7Vh7F2vbx",
  "name": "Insanity Subdomain",
  "type": "feat",
  "img": "systems/pf1/icons/spells/horror-eerie-2.jpg",
  "system": {
    "description": {
      "value": "<p><b>Replacement Domain Spells:</b></p>\n<ul>\n<li>4th—@Compendium[pf1.spells.2mh7g81k30bv7b5m]{Moonstruck}</li>\n<li>6th—@Compendium[pf1.spells.zd8nh365xvrebioj]{Phantasmal Web}</li>\n</ul>"
    },
    "tag": "classFeat_insanitySubdomain",
    "useCustomTag": true,
    "subType": "classFeat",
    "associations": {
      "classes": ["Cleric"]
    }
  }
}
