{
  "_id": "DT6XaTryyj2t6kOL",
  "name": "Inspired Alertness",
  "type": "feat",
  "img": "systems/pf1/icons/items/weapons/sword-cane.png",
  "system": {
    "description": {
      "value": "<p>Whenever the investigator becomes flat-footed, he can expend one use of inspiration to ignore that condition. He must be conscious to do so, and must decide to do so when he becomes flat-footed. Using this ability doesn’t require an action.</p>"
    },
    "actions": [
      {
        "_id": "py7fd8dn2xr9398b",
        "name": "Use",
        "img": "systems/pf1/icons/items/weapons/sword-cane.png",
        "activation": {
          "type": "special",
          "unchained": {
            "type": "special"
          }
        },
        "actionType": ""
      }
    ],
    "tag": "classFeat_inspiredAlertness",
    "useCustomTag": true,
    "subType": "classFeat",
    "associations": {
      "classes": ["Investigator"]
    },
    "abilityType": "ex"
  }
}
