{
  "_id": "U6dAFqYDRELQROy4",
  "name": "Inspiring Flex",
  "type": "feat",
  "img": "systems/pf1/icons/items/inventory/banner-red.jpg",
  "system": {
    "description": {
      "value": "<p>At 15th level, the cavalier can display her own brawn to inspire greater strength in his allies. As a standard action, she can grant herself and any allies within 30 feet a +4 morale bonus on melee attack rolls, combat maneuver checks, Fortitude saves, and Strength checks. The cavalier can maintain her inspiring flex as a free action, and she can use this ability for a number of rounds per day equal 1/2 her cavalier level; this duration need not be continuous.</p>"
    },
    "actions": [
      {
        "_id": "3gf3hp48bmm6e7h8",
        "name": "Use",
        "img": "systems/pf1/icons/items/inventory/banner-red.jpg",
        "activation": {
          "type": "standard",
          "unchained": {
            "cost": 2,
            "type": "action"
          }
        },
        "duration": {
          "value": "1",
          "units": "round"
        },
        "target": {
          "value": "allies within range"
        },
        "range": {
          "value": "30",
          "units": "ft"
        },
        "actionType": ""
      }
    ],
    "uses": {
      "per": "day",
      "maxFormula": "floor(@classes.cavalier.level / 2)"
    },
    "tag": "classFeat_inspiringFlex",
    "useCustomTag": true,
    "subType": "classFeat",
    "associations": {
      "classes": ["Cavalier"]
    },
    "abilityType": "ex"
  }
}
