{
  "_id": "XJkWVYULYvSUAgLw",
  "name": "Irori's Boon",
  "type": "feat",
  "img": "systems/pf1/icons/spells/light-royal-1.jpg",
  "system": {
    "description": {
      "value": "<p>Once per day as an immediate action, whenever you fail a saving throw that causes you to become blinded, deafened, frightened, panicked, paralyzed, shaken, or stunned, you can attempt that saving throw again with a +4 insight bonus on the roll. You must take the second result, even if it is worse.</p>\n<p>At 7th and 15th level, you can use this ability one additional time per day.</p>"
    },
    "actions": [
      {
        "_id": "oscbpxh6scd5gdjp",
        "name": "Use",
        "img": "systems/pf1/icons/spells/light-royal-1.jpg",
        "activation": {
          "type": "immediate",
          "unchained": {
            "type": "reaction"
          }
        },
        "duration": {
          "units": "inst"
        },
        "target": {
          "value": "self"
        },
        "range": {
          "units": "personal"
        },
        "actionType": ""
      }
    ],
    "uses": {
      "per": "day",
      "maxFormula": "@classes.oracle.level >= 15 ? 3 : ((@classes.oracle.level > 6 && @classes.oracle.level < 15) ? 2 : 1)"
    },
    "tag": "classFeat_irorisBoon",
    "useCustomTag": true,
    "subType": "classFeat",
    "associations": {
      "classes": ["Oracle"]
    },
    "abilityType": "su"
  }
}
