{
  "_id": "lSQOZL8w9pzbDMj0",
  "name": "Isolation Subdomain",
  "type": "feat",
  "img": "systems/pf1/icons/skills/violet_15.jpg",
  "system": {
    "description": {
      "value": "<p><b>Replacement Domain Spells:</b></p>\n<ul>\n<li>4th—@Compendium[pf1.spells.zt7cje76dck9hwp9]{Crushing Despair}</li>\n<li>6th—@Compendium[pf1.spells.fb38vn4hm4rur6gm]{Wall Of Force}</li>\n<li>8th—@Compendium[pf1.spells.ijwcwnt3oatnfghq]{Prismatic Wall}</li>\n</ul>"
    },
    "tag": "classFeat_isolationSubdomain",
    "useCustomTag": true,
    "subType": "classFeat",
    "associations": {
      "classes": ["Cleric"]
    }
  }
}
