{
  "_id": "DehdZ2whpTTkL7c1",
  "name": "Keep the Corners",
  "type": "feat",
  "img": "systems/pf1/icons/spells/light-royal-1.jpg",
  "system": {
    "description": {
      "value": "<p>Once per day when you fail a Reflex saving throw, you can reroll the saving throw with a +4 insight bonus. You must take the second result, even if it is worse.</p>\n<p>At 7th level and 15th level, you can use this ability one additional time per day.</p>"
    },
    "actions": [
      {
        "_id": "ofxb6z7uicrwyx7x",
        "name": "Use",
        "img": "systems/pf1/icons/spells/light-royal-1.jpg",
        "activation": {
          "type": "immediate",
          "unchained": {
            "type": "reaction"
          }
        },
        "actionType": ""
      }
    ],
    "uses": {
      "per": "day",
      "maxFormula": "@classes.oracle.level >= 15 ? 3 : ((@classes.oracle.level < 15 && @classes.oracle.level > 6) ? 2 : 1)"
    },
    "tag": "classFeat_keepTheCorners",
    "useCustomTag": true,
    "subType": "classFeat",
    "associations": {
      "classes": ["Oracle"]
    },
    "abilityType": "su"
  }
}
