{
  "_id": "n58pFUeWWGNyOSYy",
  "name": "Kinetic Form",
  "type": "feat",
  "img": "systems/pf1/icons/spells/runes-blue-1.jpg",
  "system": {
    "description": {
      "value": "<p><b>Element</b> universal; <b>Type</b> utility (Sp); <b>Level</b> 5; <b>Burn</b> 1</p>\n<p>You are able to suspend your body in a large mass of elemental matter. Until the next time your burn is removed, you can change your size to Large or shift back to your original size as a standard action. This doesn’t change your ability scores in any way.</p>\n<p>At 16th level, you can accept 1 additional point of burn to instead change your size to Huge. You cannot use kinetic form to decrease your size.</p>"
    },
    "actions": [
      {
        "_id": "zb56qqznyocj72tc",
        "name": "Use",
        "img": "systems/pf1/icons/spells/runes-blue-1.jpg",
        "activation": {
          "type": "standard",
          "unchained": {
            "cost": 2,
            "type": "action"
          }
        },
        "duration": {
          "units": "seeText"
        },
        "target": {
          "value": "self"
        },
        "range": {
          "units": "personal"
        },
        "actionType": ""
      }
    ],
    "tag": "classFeat_kineticForm",
    "useCustomTag": true,
    "subType": "classFeat",
    "associations": {
      "classes": ["Kineticist"]
    },
    "abilityType": "sp"
  }
}
