{
  "_id": "WIuK3TrL71Oc5wD0",
  "name": "Kinetic Dissolution",
  "type": "feat",
  "img": "systems/pf1/icons/spells/runes-blue-1.jpg",
  "system": {
    "description": {
      "value": "<p><b>Element</b> universal; <b>Type</b> utility (Su); <b>Level</b> 1; <b>Burn</b> 0<br><b>Prerequisite</b> <a href=\"https://aonprd.com/RacesDisplay.aspx?ItemName=Wayang\">wayang</a>, chosen racial trait</p>\n<p>Choose either the dissolution’s child alternate racial trait or the light and dark racial trait. You can use the chosen racial trait by accepting 1 point of burn, even if you have no daily uses of that racial trait remaining.</p>"
    },
    "tag": "classFeat_kineticDissolution",
    "useCustomTag": true,
    "subType": "classFeat",
    "associations": {
      "classes": ["Kineticist"]
    },
    "abilityType": "su"
  }
}
