{
  "_id": "4JTthdnLUCVGs2zj",
  "name": "Knife in the Dark",
  "type": "feat",
  "img": "systems/pf1/icons/spells/light-royal-1.jpg",
  "system": {
    "description": {
      "value": "<p>As a standard action, you can make a sneak attack as if you were a rogue of your oracle level.</p>\n<p>You can use this ability once per day, plus one additional time per day at 5th level and for every 5 levels thereafter.</p>"
    },
    "actions": [
      {
        "_id": "fc6gzud5qjn4gvic",
        "name": "Use",
        "img": "systems/pf1/icons/spells/light-royal-1.jpg",
        "activation": {
          "type": "free",
          "unchained": {
            "type": "free"
          }
        },
        "actionType": ""
      }
    ],
    "uses": {
      "per": "day",
      "maxFormula": "1 + floor(@classes.oracle.level / 5)"
    },
    "tag": "classFeat_knifeInTheDark",
    "useCustomTag": true,
    "subType": "classFeat",
    "associations": {
      "classes": ["Oracle"]
    },
    "abilityType": "ex"
  }
}
