{
  "_id": "Xfgs9EM9yub1berv",
  "name": "Labyrinthine Words",
  "type": "feat",
  "img": "systems/pf1/icons/items/inventory/badge-cross.jpg",
  "system": {
    "description": {
      "value": "<p>You add your Wisdom modifier in addition to your Charisma modifier on Bluff checks to lie and Diplomacy checks to influence other creatures.</p>"
    },
    "tag": "classFeat_labyrinthineWords",
    "useCustomTag": true,
    "subType": "classFeat",
    "associations": {
      "classes": ["Inquisitor"]
    },
    "abilityType": "ex"
  }
}
