{
  "_id": "GNc1VCmcSN1mP7Ax",
  "name": "Luminous Form",
  "type": "feat",
  "img": "systems/pf1/icons/spells/light-royal-1.jpg",
  "system": {
    "description": {
      "value": "<p>You can transform your body into churning light, granting you the effects of blur and causing your body to shed light as a sunrod.</p>\n<p>At 7th level, creatures that end their turn adjacent to your luminous form become blinded for 1 round (Fortitude negates).</p>\n<p>At 13th level, creatures that end their turn adjacent to your luminous form are blinded for 1d4 rounds (Fortitude reduces to 1 round).</p>\n<p>At 18th level, your luminescence is as bright as natural sunlight, and creatures affected by natural sunlight are so affected if they end their turn adjacent to your luminous form.</p>\n<p>You can maintain your luminous form for up to 1 minute per day per oracle level; this duration need not be continuous, but it must be used in 1-minute increments. You can forgo the blur and blinding aspects of this ability to instead simply shed light as a torch, though this still counts against the ability’s duration for the day.</p>"
    },
    "actions": [
      {
        "_id": "umeihhmd1aatw62j",
        "name": "Use",
        "img": "systems/pf1/icons/spells/light-royal-1.jpg",
        "activation": {
          "type": "standard",
          "unchained": {
            "cost": 2,
            "type": "action"
          }
        },
        "duration": {
          "value": "1",
          "units": "minute"
        },
        "target": {
          "value": "self"
        },
        "range": {
          "units": "personal"
        },
        "actionType": ""
      }
    ],
    "uses": {
      "per": "day",
      "maxFormula": "@classes.oracle.level"
    },
    "tag": "classFeat_luminousForm",
    "useCustomTag": true,
    "subType": "classFeat",
    "associations": {
      "classes": ["Oracle"]
    },
    "abilityType": "su"
  }
}
