{
  "_id": "PwlrjukYRyv2dNm3",
  "name": "Marid Bloodline",
  "type": "feat",
  "img": "systems/pf1/icons/races/undine.png",
  "system": {
    "description": {
      "value": "<p><em>You were born with the power of water genies, and the magic of the marids is strong in you.</em></p>\n<p><b>Class Skill:</b> <em>Knowledge</em> (planes).</p>\n<p><b>Bonus Spells:</b></p>\n<ul>\n<li>@Compendium[pf1.spells.tuh5vc2bojaws3ig]{Obscuring Mist} (3rd),</li>\n<li>@Compendium[pf1.spells.nokru6mxk9p3r513]{See Invisibility} (5th),</li>\n<li>@Compendium[pf1.spells.mqdoexj35atgqafn]{Gaseous Form} (7th),</li>\n<li>@Compendium[pf1.spells.ijui94bv4uzu8awb]{Wall Of Ice} (9th),</li>\n<li>@Compendium[pf1.spells.enp0cwf0itsgjxv7]{Persistent Image} (11th),</li>\n<li>@Compendium[pf1.spells.hd32fuc6e7j4isbn]{Elemental Body III} (13th),</li>\n<li>@Compendium[pf1.spells.q3st18udsalnyz5v]{Plane Shift} (15th),</li>\n<li>@Compendium[pf1.spells.8jq1atxonnerix55]{Polar Ray} (17th),</li>\n<li>@Compendium[pf1.spells.nnj51dwfkwd15ngj]{Wish} (19th).</li>\n</ul>\n<p><b>Bonus Feats:</b> </p>\n<ul>\n<li>@Compendium[pf1.feats.JreaiTHdyWFNj3Tb]{Dodge},</li>\n<li>@Compendium[pf1.feats.77gXSucrxfrE9yWk]{Empower Spell},</li>\n<li>@Compendium[pf1.feats.fVRnBIHR4Jq6btvm]{Great Fortitude},</li>\n<li>@Compendium[pf1.feats.Uuiu3p982omhMEPj]{Improved Initiative},</li>\n<li>@Compendium[pf1.feats.0bZf3SDkvVOe2ujH]{Lightning Reflexes},</li>\n<li>@Compendium[pf1.feats.FUW5mIXHNBBIQ1Sq]{Power Attack},</li>\n<li>@Compendium[pf1.feats.7zJTztNW7hdaqjKc]{Skill Focus} (<em>Knowledge</em> [planes]),</li>\n<li>@Compendium[pf1.feats.vWiTqHC4Y3Xn1Pme]{Weapon Finesse}.</li>\n</ul>\n<p><b>Bloodline Arcana:</b> Whenever you cast a spell that deals energy damage, you can change the type of damage to cold. This also changes the spell’s descriptors to match this energy type.</p>"
    },
    "tag": "classFeat_maridBloodline",
    "useCustomTag": true,
    "subType": "classFeat",
    "associations": {
      "classes": ["Sorcerer"]
    }
  }
}
