{
  "_id": "HzDH4boTsAk8bVsT",
  "name": "Marksman's Shot",
  "type": "feat",
  "img": "systems/pf1/icons/items/weapons/rhoka.PNG",
  "system": {
    "description": {
      "value": "<p>Those who seek to slay with a single shot must have keen eyes and perfect poise. As an attack action, the slayer makes a single ranged attack at his highest attack bonus with a ranged weapon he wields. The target of the attack must be the slayer’s studied target. On a successful hit, the slayer doubles the number of sneak attack dice applied to the attack; if the attack was not a sneak attack, this benefit does not apply.</p>"
    },
    "tag": "classFeat_marksmansShot",
    "useCustomTag": true,
    "subType": "classFeat",
    "associations": {
      "classes": ["Slayer"]
    },
    "abilityType": "ex"
  }
}
