{
  "_id": "mZ4ZtYBkLpRWrQYY",
  "name": "Master Tricks (NIN)",
  "type": "feat",
  "img": "systems/pf1/icons/items/weapons/shuriken.png",
  "system": {
    "description": {
      "value": "<p>At 10th level, and every two levels thereafter, a ninja can select one of the following master tricks in place of a ninja trick.</p>"
    },
    "tag": "classFeat_masterTricksNin",
    "useCustomTag": true,
    "subType": "classFeat",
    "associations": {
      "classes": ["Ninja"]
    }
  }
}
