{
  "_id": "eBjU7DAbjeLoczab",
  "name": "Mental Resistance",
  "type": "feat",
  "img": "systems/pf1/icons/skills/violet_03.jpg",
  "system": {
    "description": {
      "value": "<p>At 3rd level, your mind blocks attempts to assail it. You gain a +2 bonus on saving throws against <em>mind-affecting</em> effects. At 9th level, this bonus increases to +4.</p>"
    },
    "actions": [
      {
        "_id": "7cvhmo92ymt61oew",
        "name": "Use",
        "img": "systems/pf1/icons/skills/violet_03.jpg",
        "activation": {
          "type": "passive",
          "unchained": {
            "type": "passive"
          }
        },
        "actionType": ""
      }
    ],
    "tag": "classFeat_mentalResistance",
    "useCustomTag": true,
    "subType": "classFeat",
    "associations": {
      "classes": ["Sorcerer"]
    },
    "abilityType": "ex"
  }
}
