{
  "_id": "hFHJ4B9hwrGll8o4",
  "name": "Metal Subdomain",
  "type": "feat",
  "img": "systems/pf1/icons/skills/mech_5.jpg",
  "system": {
    "description": {
      "value": "<p><b>Replacement Domain Spells:</b></p>\n<ul>\n<li>2nd—@Compendium[pf1.spells.3b1x69kfhnsa2d54]{Heat Metal}</li>\n<li>6th—@Compendium[pf1.spells.fnxgq54y02f6ri82]{Wall of Iron}</li>\n<li>8th—@Compendium[pf1.spells.mkrjbrp57yfdqrx0]{Iron Body}</li>\n</ul>"
    },
    "tag": "classFeat_metalSubdomain",
    "useCustomTag": true,
    "subType": "classFeat",
    "associations": {
      "classes": ["Cleric"]
    }
  }
}
