{
  "_id": "z2fcXtp99PkuabS5",
  "name": "Metamagic Knowledge",
  "type": "feat",
  "img": "systems/pf1/icons/spells/runes-blue-2.jpg",
  "system": {
    "description": {
      "value": "<p>The arcanist can select one <a href=\"https://www.aonprd.com/Feats.aspx?Category=Metamagic\">metamagic feat</a> as a bonus feat. She must meet the prerequisites of this feat.</p>"
    },
    "tags": ["Arcanist Exploit"],
    "tag": "classFeat_metamagicKnowledge",
    "useCustomTag": true,
    "subType": "classFeat",
    "associations": {
      "classes": ["Arcanist"]
    }
  }
}
