{
  "_id": "2tJ8FY2z2jFnaKq5",
  "name": "Minute Meteors",
  "type": "feat",
  "img": "systems/pf1/icons/spells/needles-fire-2.jpg",
  "system": {
    "description": {
      "value": "<p>At 1st level, you can summon a rain of tiny meteorites as a <em>standard action</em> to fall in a 5-foot column, 30 feet high, with a range of 30 feet. The meteors inflict 1d4 points of fire damage + 1 per 2 sorcerer levels. A <em>Reflex</em> save negates this damage. The save DC is equal to 10 + 1/2 your sorcerer level + your <em>Charisma</em> modifier. You may use this ability a number of times per day equal to 3 + your <em>Charisma</em> modifier.</p>"
    },
    "actions": [
      {
        "_id": "fhbhbo4i63jrouz3",
        "name": "Use",
        "img": "systems/pf1/icons/spells/needles-fire-2.jpg",
        "activation": {
          "type": "standard",
          "unchained": {
            "cost": 2,
            "type": "action"
          }
        },
        "duration": {
          "units": "inst"
        },
        "target": {
          "value": "5-ft. wide, 30-ft. tall column"
        },
        "range": {
          "value": "30",
          "units": "spec"
        },
        "actionType": "spellsave",
        "damage": {
          "parts": [
            {
              "formula": "1d4 + (floor(@classes.sorcerer.level / 2))",
              "type": {
                "values": ["fire"],
                "custom": ""
              }
            }
          ]
        },
        "save": {
          "type": "ref",
          "description": "Reflex negates"
        }
      }
    ],
    "uses": {
      "per": "day",
      "maxFormula": "3 + @abilities.cha.mod"
    },
    "tag": "classFeat_minuteMeteors",
    "useCustomTag": true,
    "subType": "classFeat",
    "associations": {
      "classes": ["Sorcerer"]
    },
    "abilityType": "sp"
  }
}
