{
  "_id": "9Y9dpXEcjXGtH6Pe",
  "name": "Monster Lore",
  "type": "feat",
  "img": "systems/pf1/icons/skills/blue_02.jpg",
  "system": {
    "description": {
      "value": "<p>The inquisitor adds her Wisdom modifier on Knowledge skill checks in addition to her Intelligence modifier, when making skill checks to identify the abilities and weaknesses of creatures.</p>"
    },
    "actions": [
      {
        "_id": "5ngcf42sw686l8g7",
        "name": "Use",
        "img": "systems/pf1/icons/skills/blue_02.jpg",
        "activation": {
          "type": "passive",
          "unchained": {
            "type": "passive"
          }
        },
        "actionType": ""
      }
    ],
    "tag": "classFeat_monsterLore",
    "useCustomTag": true,
    "subType": "classFeat",
    "associations": {
      "classes": ["Inquisitor"]
    },
    "abilityType": "ex"
  }
}
