{
  "_id": "UJPlPj3RUKLvmKzM",
  "name": "Nature Sense",
  "type": "feat",
  "img": "systems/pf1/icons/skills/emerald_05.jpg",
  "system": {
    "description": {
      "value": "<p>A druid gains a +2 bonus on <em>Knowledge</em> (nature) and <em>Survival</em> checks.</p>"
    },
    "changes": [
      {
        "_id": "ghuk6l76",
        "formula": "2",
        "subTarget": "skill.kna",
        "modifier": "untyped"
      },
      {
        "_id": "02pgkjh1",
        "formula": "2",
        "subTarget": "skill.sur",
        "modifier": "untyped"
      }
    ],
    "tag": "classFeat_natureSense",
    "useCustomTag": true,
    "subType": "classFeat",
    "associations": {
      "classes": ["Druid"]
    },
    "abilityType": "ex"
  }
}
