{
  "_id": "iy8UJ6oQXaPY7YdU",
  "name": "Nightmares",
  "type": "feat",
  "img": "systems/pf1/icons/skills/violet_02.jpg",
  "system": {
    "description": {
      "value": "<p>Calling upon fell powers, a witch can place a hex on a creature within 60 feet that causes its sleep to be tormented by terrible nightmares. This functions as the spell @Compendium[pf1.spells.siv3ub7hbmcklf8c]{Nightmare} each time the affected creature attempts to rest. A Will save negates this effect. If the save is failed, the target must make a new save each night or be unable to rest.</p>"
    },
    "tags": ["Hex", "Major Hex"],
    "actions": [
      {
        "_id": "6nkg2cikp8y4szvd",
        "name": "Use",
        "img": "systems/pf1/icons/skills/violet_02.jpg",
        "activation": {
          "cost": 10,
          "type": "minute",
          "unchained": {
            "cost": 10,
            "type": "minute"
          }
        },
        "duration": {
          "units": "inst"
        },
        "target": {
          "value": "one living creature"
        },
        "range": {
          "value": "60",
          "units": "ft"
        },
        "actionType": "save",
        "save": {
          "dc": "10 + floor(@classes.witch.level / 2) + @abilities.int.mod",
          "type": "will",
          "description": "Will negates"
        }
      }
    ],
    "tag": "classFeat_nightmares",
    "useCustomTag": true,
    "subType": "classFeat",
    "associations": {
      "classes": ["Witch"]
    },
    "abilityType": "su"
  }
}
