{
  "_id": "BTkYdjVLcQMfFsv9",
  "name": "Nimble",
  "type": "feat",
  "img": "systems/pf1/icons/skills/armor_01.jpg",
  "system": {
    "description": {
      "value": "<p>Starting at 2nd level, a gunslinger gains a +1 dodge bonus to AC while wearing light or no armor. Anything that causes the gunslinger to lose her Dexterity bonus to AC also causes the gunslinger to lose this dodge bonus. This bonus increases by +1 for every four levels beyond 2nd level (to a maximum of +5 at 20th level).</p>"
    },
    "actions": [
      {
        "_id": "rq7b4khuonmep6ut",
        "name": "Use",
        "img": "systems/pf1/icons/skills/armor_01.jpg",
        "activation": {
          "type": "passive",
          "unchained": {
            "type": "passive"
          }
        },
        "actionType": ""
      }
    ],
    "changes": [
      {
        "_id": "2cczatqr",
        "formula": "1 + floor((@classes.gunslinger.level - 2) / 4)",
        "subTarget": "ac",
        "modifier": "dodge"
      }
    ],
    "tag": "classFeat_nimble",
    "useCustomTag": true,
    "subType": "classFeat",
    "associations": {
      "classes": ["Gunslinger"]
    },
    "abilityType": "ex"
  }
}
