{
  "_id": "l37LnMOFkCJ10CeK",
  "name": "Nooks and Crannies",
  "type": "feat",
  "img": "systems/pf1/icons/spells/light-royal-1.jpg",
  "system": {
    "description": {
      "value": "<p>You can move through any sort of obstacle or difficult terrain in an urban environment (including crowds) at your normal speed and without taking damage or suffering any other impairment. Areas that are enchanted or magically manipulated to impede motion still affect you.</p>"
    },
    "actions": [
      {
        "_id": "d2y45h24215cm1yl",
        "name": "Use",
        "img": "systems/pf1/icons/spells/light-royal-1.jpg",
        "activation": {
          "type": "passive",
          "unchained": {
            "type": "passive"
          }
        },
        "actionType": ""
      }
    ],
    "tag": "classFeat_nooksAndCrannies",
    "useCustomTag": true,
    "subType": "classFeat",
    "associations": {
      "classes": ["Oracle"]
    },
    "abilityType": "ex"
  }
}
