{
  "_id": "2x1Zlto6xxV2WX6s",
  "name": "Ooze Blight",
  "type": "feat",
  "img": "systems/pf1/icons/items/potions/unique-3.jpg",
  "system": {
    "description": {
      "value": "<p>A target hit by the alchemist’s bomb loses the split special quality for 1d4 rounds. In addition, against creatures with the ooze type, this bomb deals untyped damage that bypasses all resistances.</p>"
    },
    "tag": "classFeat_oozeBlight",
    "useCustomTag": true,
    "subType": "classFeat",
    "associations": {
      "classes": ["Alchemist"]
    }
  }
}
