{
  "_id": "9cykklXANtnMjnOk",
  "name": "Owl's Sight",
  "type": "feat",
  "img": "systems/pf1/icons/skills/light_07.jpg",
  "system": {
    "description": {
      "value": "<p>The vigilante gains low-light vision. If he already has low-light vision, he gains a +4 competence bonus on Perception checks in low light.</p>\n<p>The vigilante also gains a +2 competence bonus on Sleight of Hand and Stealth checks at night.</p>"
    },
    "tag": "classFeat_owlsSight",
    "useCustomTag": true,
    "subType": "classFeat",
    "associations": {
      "classes": ["Vigilante"]
    },
    "abilityType": "ex"
  }
}
