{
  "_id": "ppSsDLFkPOIdBkrF",
  "name": "Painful Reminder",
  "type": "feat",
  "img": "systems/pf1/icons/spells/slice-spirit-3.jpg",
  "system": {
    "description": {
      "value": "<p>As a swift action, you can cause an enemy to take 1d6 points of nonlethal damage if you dealt damage to that enemy with a spell since the start of your previous turn. You can use this ability a number of times per day equal to 3 + your Charisma modifier.</p>\n<p>This damage increases to 2d6 at 8th level and to 3d6 at 15th level.</p>"
    },
    "actions": [
      {
        "_id": "m60a5imq1fu7hxts",
        "name": "Use",
        "img": "systems/pf1/icons/spells/slice-spirit-3.jpg",
        "activation": {
          "type": "swift",
          "unchained": {
            "type": "action"
          }
        },
        "duration": {
          "units": "inst"
        },
        "target": {
          "value": "creature damaged"
        },
        "actionType": "save",
        "damage": {
          "parts": [
            {
              "formula": "(@classes.psychic.level >= 15 ? 3 : (@classes.psychic.level >= 8 && @classes.psychic.level < 15) ? 2 : 1)d6",
              "type": {
                "values": ["untyped"],
                "custom": ""
              }
            }
          ]
        }
      }
    ],
    "uses": {
      "per": "day",
      "maxFormula": "3 + @abilities.cha.mod"
    },
    "tag": "classFeat_painfulReminder",
    "useCustomTag": true,
    "subType": "classFeat",
    "associations": {
      "classes": ["Psychic"]
    },
    "abilityType": "su"
  }
}
