{
  "_id": "T2bUDeuzGQKxjZuP",
  "name": "Past-Life Memories",
  "type": "feat",
  "img": "systems/pf1/icons/spells/slice-spirit-3.jpg",
  "system": {
    "description": {
      "value": "<p>You add a bonus equal to half your psychic level (minimum 1) to all Knowledge checks and can attempt all Knowledge skill checks untrained.</p>"
    },
    "changes": [
      {
        "_id": "0b58ng9o",
        "formula": "floor(@classes.psychic.level / 2)",
        "subTarget": "skill.kar",
        "modifier": "untyped",
        "priority": "0"
      },
      {
        "_id": "i47fu2fe",
        "formula": "floor(@classes.psychic.level / 2)",
        "subTarget": "skill.kdu",
        "modifier": "untyped",
        "priority": "0"
      },
      {
        "_id": "x4loqr7e",
        "formula": "floor(@classes.psychic.level / 2)",
        "subTarget": "skill.ken",
        "modifier": "untyped",
        "priority": "0"
      },
      {
        "_id": "8nmhktnn",
        "formula": "floor(@classes.psychic.level / 2)",
        "subTarget": "skill.kge",
        "modifier": "untyped",
        "priority": "0"
      },
      {
        "_id": "1sttj5z0",
        "formula": "floor(@classes.psychic.level / 2)",
        "subTarget": "skill.khi",
        "modifier": "untyped",
        "priority": "0"
      },
      {
        "_id": "t38xlbaf",
        "formula": "floor(@classes.psychic.level / 2)",
        "subTarget": "skill.klo",
        "modifier": "untyped",
        "priority": "0"
      },
      {
        "_id": "2d5nn322",
        "formula": "floor(@classes.psychic.level / 2)",
        "subTarget": "skill.kna",
        "modifier": "untyped",
        "priority": "0"
      },
      {
        "_id": "eecx1kw3",
        "formula": "floor(@classes.psychic.level / 2)",
        "subTarget": "skill.kno",
        "modifier": "untyped",
        "priority": "0"
      },
      {
        "_id": "5o3q7uoh",
        "formula": "floor(@classes.psychic.level / 2)",
        "subTarget": "skill.kpl",
        "modifier": "untyped",
        "priority": "0"
      },
      {
        "_id": "hme2y4cc",
        "formula": "floor(@classes.psychic.level / 2)",
        "subTarget": "skill.kre",
        "modifier": "untyped",
        "priority": "0"
      }
    ],
    "tag": "classFeat_pastlifeMemories",
    "useCustomTag": true,
    "subType": "classFeat",
    "associations": {
      "classes": ["Psychic"]
    },
    "abilityType": "ex"
  }
}
