{
  "_id": "Nbs7dc7C3oTBta4z",
  "name": "Peerless Maneuver",
  "type": "feat",
  "img": "systems/pf1/icons/items/weapons/dagger.PNG",
  "system": {
    "description": {
      "value": "<p>Once per day, a rogue with this talent can roll two dice while making an Acrobatics check, and take the better result. She must choose to use this talent before making the Acrobatics check. A rogue can use this ability one additional time per day for every 5 rogue levels she possesses.</p>"
    },
    "tag": "classFeat_peerlessManeuver",
    "useCustomTag": true,
    "subType": "classFeat",
    "associations": {
      "classes": ["Rogue"]
    },
    "abilityType": "ex"
  }
}
