{
  "_id": "qzCj0dGiKmIMw4wf",
  "name": "Perfection of Self",
  "type": "feat",
  "img": "systems/pf1/icons/feats/stand-still.jpg",
  "system": {
    "description": {
      "value": "<p>At 8th level, as a <em>swift action</em> you can grant yourself an <em>enhancement bonus</em> to a single ability score equal to 1/2 your wizard level (maximum +10) for one round. You may use this ability for a number of times per day equal to your wizard level.</p>"
    },
    "actions": [
      {
        "_id": "hjw592fz7r8w8tda",
        "name": "Use",
        "img": "systems/pf1/icons/feats/stand-still.jpg",
        "activation": {
          "type": "swift",
          "unchained": {
            "type": "action"
          }
        },
        "duration": {
          "value": "1",
          "units": "round"
        },
        "target": {
          "value": "self"
        },
        "range": {
          "units": "personal"
        },
        "actionType": ""
      }
    ],
    "uses": {
      "per": "day",
      "maxFormula": "@classes.wizard.level"
    },
    "tag": "classFeat_perfectionOfSelf",
    "useCustomTag": true,
    "subType": "classFeat",
    "associations": {
      "classes": ["Wizard"]
    },
    "abilityType": "su"
  }
}
