{
  "_id": "VSl34mwrPwthzlMR",
  "name": "Photosynthesis",
  "type": "feat",
  "img": "systems/pf1/icons/skills/green_09.jpg",
  "system": {
    "description": {
      "value": "<p>At 3rd level, you feed upon nature’s raw essence. Your need to eat and sleep is reduced as if wearing a <em>ring of sustenance</em>, and you gain a +2 <em>racial bonus</em> on <em>saving throws</em> made against poison and sleep effects. At 9th level, these bonuses increase to +4.</p>"
    },
    "actions": [
      {
        "_id": "m7xmtcoumw2e50da",
        "name": "Use",
        "img": "systems/pf1/icons/skills/green_09.jpg",
        "activation": {
          "type": "passive",
          "unchained": {
            "type": "passive"
          }
        },
        "actionType": ""
      }
    ],
    "tag": "classFeat_photosynthesis",
    "useCustomTag": true,
    "subType": "classFeat",
    "associations": {
      "classes": ["Sorcerer"]
    },
    "abilityType": "ex"
  }
}
