{
  "_id": "tFy3rxyljSq56HSg",
  "name": "Phrenic Pool",
  "type": "feat",
  "img": "systems/pf1/icons/spells/air-burst-jade-3.jpg",
  "system": {
    "description": {
      "value": "<p>A psychic has a pool of supernatural mental energy that she can draw upon to manipulate psychic spells as she casts them. The maximum number of points in a psychic’s phrenic pool is equal to 1/2 her psychic level + her Wisdom or Charisma modifier, as determined by her psychic discipline.</p>\n<p>The phrenic pool is replenished each morning after 8 hours of rest or meditation; these hours don’t need to be consecutive. The psychic might be able to recharge points in her phrenic pool in additional circumstances dictated by her psychic discipline.</p>\n<p>Points gained in excess of the pool’s maximum are lost.</p>"
    },
    "actions": [
      {
        "_id": "tr7vyevvpam9e0lw",
        "name": "Use",
        "img": "systems/pf1/icons/spells/air-burst-jade-3.jpg",
        "activation": {
          "type": "special",
          "unchained": {
            "type": "special"
          }
        },
        "actionType": ""
      }
    ],
    "uses": {
      "per": "day",
      "maxFormula": "floor(@classes.psychic.level / 2) + @abilities.cha.mod"
    },
    "tag": "classFeat_phrenicPool",
    "useCustomTag": true,
    "subType": "classFeat",
    "associations": {
      "classes": ["Psychic"]
    },
    "abilityType": "su"
  }
}
