{
  "_id": "WtbPyIBsBPaUHFQB",
  "name": "Poison Bomb",
  "type": "feat",
  "img": "systems/pf1/icons/items/potions/unique-3.jpg",
  "system": {
    "description": {
      "value": "<p>The effects of the smoke created by an alchemist's bomb duplicates the effects of @Compendium[pf1.spells.im8z5kfg8ohowie9]{Cloudkill} instead of @Compendium[pf1.spells.g33euis7yi9pwddy]{Fog Cloud}, filling an area equal to twice the bomb's splash radius for 1 round per level.</p>\n<p>An alchemist must be at least 12th level and must possess the smoke bomb discovery before selecting this discovery.</p>"
    },
    "tag": "classFeat_poisonBomb",
    "useCustomTag": true,
    "subType": "classFeat",
    "associations": {
      "classes": ["Alchemist"]
    }
  }
}
