{
  "_id": "4OmrOhnYAx5N5eEf",
  "name": "Power of Wyrms",
  "type": "feat",
  "img": "systems/pf1/icons/skills/blue_17.jpg",
  "system": {
    "description": {
      "value": "<p>At 20th level, your draconic heritage becomes manifest. You gain immunity to paralysis, sleep, and damage of your energy type. You also gain blindsense 60 feet.</p>"
    },
    "actions": [
      {
        "_id": "2a8l8po1kl61pk49",
        "name": "Use",
        "img": "systems/pf1/icons/skills/blue_17.jpg",
        "activation": {
          "type": "passive",
          "unchained": {
            "type": "passive"
          }
        },
        "actionType": ""
      }
    ],
    "tag": "classFeat_powerOfWyrms",
    "useCustomTag": true,
    "subType": "classFeat",
    "associations": {
      "classes": ["Sorcerer"]
    },
    "abilityType": "su"
  }
}
