{
  "_id": "sxpGOVklEiwzkRjM",
  "name": "Precise Companion",
  "type": "feat",
  "img": "systems/pf1/icons/skills/arrow_07.jpg",
  "system": {
    "description": {
      "value": "<p>At 2nd level, a hunter chooses either Precise Shot or Outflank as a bonus feat. She does not need to meet the prerequisites for this feat. If she chooses Outflank, she automatically grants this feat to her animal companion as well.</p>"
    },
    "tag": "classFeat_preciseCompanion",
    "useCustomTag": true,
    "subType": "classFeat",
    "associations": {
      "classes": ["Hunter"]
    },
    "abilityType": "ex"
  }
}
