{
  "_id": "AD0cF0bBitk3VOZk",
  "name": "Prophetic Armor",
  "type": "feat",
  "img": "systems/pf1/icons/spells/light-royal-1.jpg",
  "system": {
    "description": {
      "value": "<p>You are so in tune with your primal nature that your instincts often act to save you from danger that your civilized mind isn’t even aware of. You may use your Charisma modifier (instead of your Dexterity modifier) as part of your Armor Class and all Reflex saving throws. Your armor’s maximum Dexterity bonus applies to your Charisma, instead.</p>"
    },
    "actions": [
      {
        "_id": "3kxyieu9ef5sbko4",
        "name": "Use",
        "img": "systems/pf1/icons/spells/light-royal-1.jpg",
        "activation": {
          "type": "passive",
          "unchained": {
            "type": "passive"
          }
        },
        "actionType": ""
      }
    ],
    "changes": [
      {
        "_id": "4dd281tg",
        "formula": "@abilities.cha.mod - @abilities.dex.mod",
        "subTarget": "ac",
        "modifier": "untyped"
      },
      {
        "_id": "fblis2zj",
        "formula": "@abilities.cha.mod - @abilities.dex.mod",
        "subTarget": "ref",
        "modifier": "untyped"
      }
    ],
    "tag": "classFeat_propheticArmor",
    "useCustomTag": true,
    "subType": "classFeat",
    "associations": {
      "classes": ["Oracle"]
    },
    "abilityType": "ex"
  }
}
