{
  "_id": "V11dIPJk1AMCh7Gr",
  "name": "Protection Blessing: Increased Defense",
  "type": "feat",
  "img": "systems/pf1/icons/spells/protect-royal-2.jpg",
  "system": {
    "description": {
      "value": "<p>At 1st level, you can gain a +1 sacred bonus on saving throws and a +1 sacred bonus to AC for 1 minute. The bonus increases to +2 at 10th level and +3 at 20th level.</p>"
    },
    "actions": [
      {
        "_id": "jz4xouprj9nn4zu9",
        "name": "Use",
        "img": "systems/pf1/icons/spells/protect-royal-2.jpg",
        "activation": {
          "type": "standard",
          "unchained": {
            "cost": 2,
            "type": "action"
          }
        },
        "duration": {
          "value": "1",
          "units": "minute"
        },
        "target": {
          "value": "self"
        },
        "range": {
          "units": "personal"
        },
        "actionType": ""
      }
    ],
    "tag": "classFeat_protectionBlessingIncreasedDefense",
    "useCustomTag": true,
    "subType": "classFeat",
    "associations": {
      "classes": ["Warpriest"]
    }
  }
}
