{
  "_id": "pVJhodGnj550G0Hq",
  "name": "Resilience of the Faithful",
  "type": "feat",
  "img": "systems/pf1/icons/spells/slice-spirit-3.jpg",
  "system": {
    "description": {
      "value": "<p>At 5th level, you gain a +2 resistance bonus on all saving throws. This bonus increases by 1 for every 5 levels you possess beyond 5th.</p>"
    },
    "actions": [
      {
        "_id": "agopmncftz8yipfg",
        "name": "Use",
        "img": "systems/pf1/icons/spells/slice-spirit-3.jpg",
        "activation": {
          "type": "passive",
          "unchained": {
            "type": "passive"
          }
        },
        "actionType": ""
      }
    ],
    "changes": [
      {
        "_id": "150bn2je",
        "formula": "1 + floor(@classes.psychic.level / 5)",
        "subTarget": "allSavingThrows",
        "modifier": "resist",
        "priority": "0"
      }
    ],
    "tag": "classFeat_resilienceOfTheFaithful",
    "useCustomTag": true,
    "subType": "classFeat",
    "associations": {
      "classes": ["Psychic"]
    },
    "abilityType": "su"
  }
}
