{
  "_id": "cG4JiHGPO3byV3SW",
  "name": "Resiliency (ORA) (Battle)",
  "type": "feat",
  "img": "systems/pf1/icons/spells/light-royal-1.jpg",
  "system": {
    "description": {
      "value": "<p>You are not disabled and you do not gain the staggered condition if you are reduced to exactly 0 hit points.</p>\n<p>At 7th level, you gain @Compendium[pf1.feats.O0e0UCim27GPKFuW]{Diehard} as a bonus feat.</p>\n<p>At 11th level, you do not lose a hit point when you take a standard action while disabled. You do not need to meet the prerequisite to receive the Diehard feat.</p>"
    },
    "tags": ["Revelation", "Battle Mystery"],
    "actions": [
      {
        "_id": "r3rb2l4clzgu9pu5",
        "name": "Use",
        "img": "systems/pf1/icons/spells/light-royal-1.jpg",
        "activation": {
          "type": "passive",
          "unchained": {
            "type": "passive"
          }
        },
        "actionType": ""
      }
    ],
    "tag": "classFeat_resiliencyOraBattle",
    "useCustomTag": true,
    "subType": "classFeat",
    "associations": {
      "classes": ["Oracle"]
    },
    "abilityType": "ex"
  }
}
