{
  "_id": "nvHD26CgP0gDMzJR",
  "name": "Retributive Spray",
  "type": "feat",
  "img": "systems/pf1/icons/skills/red_05.jpg",
  "system": {
    "description": {
      "value": "<p>At 12th level, whenever you’re hit by an attack or spell that deals slashing or piercing damage, your black blood sprays up to 10 feet toward the opponent who attacked you, striking the first creature along its path. That creature takes 1d8 points of cold damage + 1 point of cold damage for every 2 bloodrager levels you possess. A successful Reflex save (DC = 10 + 1/2 your bloodrager level + your Constitution modifier) halves the damage.</p>"
    },
    "actions": [
      {
        "_id": "kbnm8jtuaazp9a5p",
        "name": "Use",
        "img": "systems/pf1/icons/skills/red_05.jpg",
        "activation": {
          "type": "special",
          "unchained": {
            "type": "special"
          }
        },
        "duration": {
          "units": "inst"
        },
        "range": {
          "value": "10",
          "units": "ft"
        },
        "actionType": "save",
        "damage": {
          "parts": [
            {
              "formula": "1d8 + floor(@classes.bloodrager.level / 2)",
              "type": {
                "values": ["cold"],
                "custom": ""
              }
            }
          ]
        },
        "save": {
          "type": "ref",
          "description": "Reflex half"
        }
      }
    ],
    "tag": "classFeat_retributiveSpray",
    "useCustomTag": true,
    "subType": "classFeat",
    "associations": {
      "classes": ["Bloodrager"]
    },
    "abilityType": "su"
  }
}
