{
  "_id": "AG9FTuIWE2J2mJ7o",
  "name": "Revolution Subdomain",
  "type": "feat",
  "img": "systems/pf1/icons/skills/affliction_04.jpg",
  "system": {
    "description": {
      "value": "<p><b>Replacement Domain Spells:</b></p>\n<ul>\n<li>2nd—@Compendium[pf1.spells.v3d3lnjj7ks0ztii]{Enthrall}</li>\n<li>6th—@Compendium[pf1.spells.1m5rpvirt48brv71]{Symbol of Persuasion}</li>\n</ul>"
    },
    "tag": "classFeat_revolutionSubdomain",
    "useCustomTag": true,
    "subType": "classFeat",
    "associations": {
      "classes": ["Cleric"]
    }
  }
}
