{
  "_id": "J8n678vtcDpTt1ae",
  "name": "Rooftop Infiltrator",
  "type": "feat",
  "img": "systems/pf1/icons/feats/deceitful.jpg",
  "system": {
    "description": {
      "value": "<p>The vigilante gains a climb speed equal to half his base speed, which increases to his full base speed when climbing a rope.</p>"
    },
    "changes": [
      {
        "_id": "aj92z6b4",
        "formula": "floor(@attributes.land.speed.base / 2)",
        "subTarget": "climbSpeed",
        "modifier": "base"
      }
    ],
    "tag": "classFeat_rooftopInfiltrator",
    "useCustomTag": true,
    "subType": "classFeat",
    "associations": {
      "classes": ["Vigilante"]
    },
    "abilityType": "ex"
  }
}
