{
  "_id": "7opvP7mgD4tEGniE",
  "name": "Sapped Magic (Stare)",
  "type": "feat",
  "img": "systems/pf1/icons/skills/emerald_11.jpg",
  "system": {
    "description": {
      "value": "<p>The hypnotic stare penalty also applies to the DCs of spells and spell-like abilities used by the target, and to the target’s spell resistance (if any).</p>"
    },
    "tag": "classFeat_sappedMagicStare",
    "useCustomTag": true,
    "subType": "classFeat",
    "associations": {
      "classes": ["Mesmerist"]
    }
  }
}
