{
  "_id": "dX9znx5MbjGzqXrj",
  "name": "Scent",
  "type": "feat",
  "img": "systems/pf1/icons/feats/deafening-critical.jpg",
  "system": {
    "description": {
      "value": "<p>The barbarian gains the scent ability while raging and can use this ability to locate unseen foes (see Special Abilities for rules on the scent ability).</p>"
    },
    "tag": "classFeat_scent",
    "useCustomTag": true,
    "subType": "classFeat",
    "associations": {
      "classes": ["Barbarian", "Skald"]
    },
    "abilityType": "ex"
  }
}
