{
  "_id": "j6kgO6BAXKxKBV07",
  "name": "Secret",
  "type": "feat",
  "img": "systems/pf1/icons/skills/green_03.jpg",
  "system": {
    "description": {
      "value": "<p>The shaman receives one metamagic feat as a bonus feat. The shaman must meet the prerequisites for the feat.</p>"
    },
    "tag": "classFeat_secret",
    "useCustomTag": true,
    "subType": "classFeat",
    "associations": {
      "classes": ["Shaman"]
    },
    "abilityType": "ex"
  }
}
