{
  "_id": "M1fpIbCS4s5HEvrE",
  "name": "Sedition Inquisition",
  "type": "feat",
  "img": "systems/pf1/icons/items/inventory/badge-cross.jpg",
  "system": {
    "description": {
      "value": "<p><b>Granted Powers:</b> Your deity calls you to cast down a hostile government. Stealth is a class skill for you.</p>"
    },
    "tag": "classFeat_seditionInquisition",
    "useCustomTag": true,
    "subType": "classFeat",
    "associations": {
      "classes": ["Inquisitor"]
    }
  }
}
