{
  "_id": "0MGV9NIyDbadaus1",
  "name": "Seduction Inquisition",
  "type": "feat",
  "img": "systems/pf1/icons/items/inventory/badge-cross.jpg",
  "system": {
    "description": {
      "value": "<p><b>Granted Powers:</b> Your deity blesses your attempts to use sex and love for a higher purpose.</p>"
    },
    "tag": "classFeat_seductionInquisition",
    "useCustomTag": true,
    "subType": "classFeat",
    "associations": {
      "classes": ["Inquisitor"]
    }
  }
}
