{
  "_id": "szRzBgTW01Vov922",
  "name": "Serpent Companion",
  "type": "feat",
  "img": "systems/pf1/icons/skills/green_21.jpg",
  "system": {
    "description": {
      "value": "<p>At 4th level, you gain the service of an animal companion. Your effective druid level for this animal companion is equal to your cleric level –2. You may choose either a viper or a constrictor snake (Pathfinder RPG Core Rulebook 54) as your companion.</p>"
    },
    "actions": [
      {
        "_id": "pynu7bgw0mj5g3ft",
        "name": "Use",
        "img": "systems/pf1/icons/skills/green_21.jpg",
        "activation": {
          "type": "passive",
          "unchained": {
            "type": "passive"
          }
        },
        "actionType": ""
      }
    ],
    "tag": "classFeat_serpentCompanion",
    "useCustomTag": true,
    "subType": "classFeat",
    "associations": {
      "classes": ["Cleric"]
    },
    "abilityType": "ex"
  }
}
