{
  "_id": "uvk4mwFGtss9mx6W",
  "name": "Serpentfriend",
  "type": "feat",
  "img": "systems/pf1/icons/skills/green_21.jpg",
  "system": {
    "description": {
      "value": "<p>At 3rd level, you can use @Compendium[pf1.spells.ct9fhh8uawn8e4md]{Speak with Animals} at will with <em>reptilian</em> <em>animals</em> (including various forms of dinosaurs, lizards, and other cold-blooded creatures), and you gain a <em>viper</em> familiar using your sorcerer level –2 as your effective <em>wizard</em> level.</p>"
    },
    "actions": [
      {
        "_id": "fyxvownb1jwk0gmb",
        "name": "Use",
        "img": "systems/pf1/icons/skills/green_21.jpg",
        "activation": {
          "type": "passive",
          "unchained": {
            "type": "passive"
          }
        },
        "actionType": ""
      }
    ],
    "tag": "classFeat_serpentfriend",
    "useCustomTag": true,
    "subType": "classFeat",
    "associations": {
      "classes": ["Sorcerer"]
    },
    "abilityType": "ex"
  }
}
