{
  "_id": "OjUuchubjTywrSX5",
  "name": "Shadow Blend (2 pts)",
  "type": "feat",
  "img": "systems/pf1/icons/skills/blue_26.jpg",
  "system": {
    "description": {
      "value": "<p>In any condition of illumination other than bright light, the eidolon disappears into the shadows, giving it concealment (20% miss chance). If it has the shadow form evolution, it instead gains total concealment (50% miss chance).</p>\n<p>The eidolon can suspend or resume this ability as a free action.</p>"
    },
    "tag": "classFeat_shadowBlend2Pts",
    "useCustomTag": true,
    "subType": "classFeat",
    "associations": {
      "classes": ["Eidolon"]
    },
    "abilityType": "su"
  }
}
