{
  "_id": "vATa23CycXfo127L",
  "name": "Shard Explosion",
  "type": "feat",
  "img": "systems/pf1/icons/spells/light-royal-1.jpg",
  "system": {
    "description": {
      "value": "<p>As a swift action, you can cause jagged pieces of stone to explode outward from your body. These shards deal 1d6 points of piercing damage per two oracle levels (minimum 1d6) to all creatures within a 10-foot burst. A Reflex save halves this damage. In addition, the broken shards make the area difficult terrain until your next turn.</p>\n<p>You can use this ability once per day, plus one additional time per day at 5th level and every five levels thereafter.</p>"
    },
    "actions": [
      {
        "_id": "ym388lnihuted0qh",
        "name": "Use",
        "img": "systems/pf1/icons/spells/light-royal-1.jpg",
        "activation": {
          "type": "swift",
          "unchained": {
            "type": "action"
          }
        },
        "duration": {
          "units": "inst"
        },
        "target": {
          "value": "10-ft. burst"
        },
        "range": {
          "units": "personal"
        },
        "actionType": "spellsave",
        "damage": {
          "parts": [
            {
              "formula": "(min(1, (floor(@classes.oracle.level / 2))))d6",
              "type": {
                "values": ["piercing"],
                "custom": ""
              }
            }
          ]
        }
      }
    ],
    "uses": {
      "per": "day",
      "maxFormula": "1 + floor(@classes.oracle.level / 5)"
    },
    "tag": "classFeat_shardExplosion",
    "useCustomTag": true,
    "subType": "classFeat",
    "associations": {
      "classes": ["Oracle"]
    },
    "abilityType": "su"
  }
}
