{
  "_id": "GR8XOxoG2HkxZfo3",
  "name": "Shove Aside (UC)",
  "type": "feat",
  "img": "systems/pf1/icons/feats/deafening-critical.jpg",
  "system": {
    "description": {
      "value": "<p>Whenever the barbarian charges, she may push past one of her allies. That ally does not block the path of the charge as long as the ally is not adjacent to the target of the charge. This does not move the ally’s position; it simply allows the barbarian to move past.</p>"
    },
    "tag": "classFeat_shoveAsideUc",
    "useCustomTag": true,
    "subType": "classFeat",
    "associations": {
      "classes": ["Barbarian (Unchained)"]
    },
    "abilityType": "ex"
  }
}
