{
  "_id": "jknDwqjwCusrIi4d",
  "name": "Sickening Offensive",
  "type": "feat",
  "img": "systems/pf1/icons/items/weapons/sword-cane.png",
  "system": {
    "description": {
      "value": "<p>When the investigator damages a studied target, that creature is also sickened for 1 round.</p>\n<p>An investigator must be at least 7th level to select this talent.</p>"
    },
    "tag": "classFeat_sickeningOffensive",
    "useCustomTag": true,
    "subType": "classFeat",
    "associations": {
      "classes": ["Investigator"]
    },
    "abilityType": "ex"
  }
}
