{
  "_id": "6VcjpfzafOJbgipX",
  "name": "Slow Reactions",
  "type": "feat",
  "img": "systems/pf1/icons/items/weapons/dagger.PNG",
  "system": {
    "description": {
      "value": "<p>Opponents damaged by the rogue's sneak attack can't make attacks of opportunity for 1 round.</p>"
    },
    "tag": "classFeat_slowReactions",
    "useCustomTag": true,
    "subType": "classFeat",
    "associations": {
      "classes": ["Rogue"]
    },
    "abilityType": "ex"
  }
}
