{
  "_id": "pPwS60bRulleJl1Y",
  "name": "Snapping Turtle Aspect",
  "type": "feat",
  "img": "systems/pf1/icons/skills/blue_29.jpg",
  "system": {
    "description": {
      "value": "<p><em>Long-lived and resilient, turtles embody wisdom and endurance in many cultures. Those who take this aspect gain profound insight as well as remarkable resilience. A snapping turtle’s alternate attack is bite (B, P, S).</em><p><b>Minor Form:</b> You gain a +2 enhancement bonus to Wisdom.</p>\n<p>At 8th level, this bonus increases to +4, and at 15th level, it increases to +6.<p><b>Major Form:</b> Your shape changes to that of a Large <a href=\"https://www.aonprd.com/MonsterDisplay.aspx?ItemName=Giant%20Snapping%20Turtle\">giant snapping turtle</a>. While in this form, you gain low-light vision, scent (30 feet), a swim speed of 20 feet, and a bite attack (1d8 + 1-1/2 your Strength modifier damage).</p>\n<p>At 8th level, you gain an insight bonus equal to your Wisdom modifier to your CMD against bull rush, drag, overrun, reposition, and trip attempts.</p>\n<p>At 15th level, you gain DR 5/silver.<p><b>Alternate Natural Attacks:</b> Bite (B, P, S)</p>"
    },
    "tag": "classFeat_snappingTurtleAspect",
    "useCustomTag": true,
    "subType": "classFeat",
    "associations": {
      "classes": ["Shifter"]
    }
  }
}
