{
  "_id": "yt31EbrxFBXLuRMB",
  "name": "Sniper's Eye",
  "type": "feat",
  "img": "systems/pf1/icons/items/weapons/dagger.PNG",
  "system": {
    "description": {
      "value": "<p>A rogue with this talent can apply her sneak attack damage on ranged attacks targeting foes within 30 feet that benefit from concealment. Foes with total concealment are still immune.</p>"
    },
    "tag": "classFeat_snipersEye",
    "useCustomTag": true,
    "subType": "classFeat",
    "associations": {
      "classes": ["Rogue"]
    },
    "abilityType": "ex"
  }
}
