{
  "_id": "0qaF6Sl0do2pi3kX",
  "name": "Spark Skin",
  "type": "feat",
  "img": "systems/pf1/icons/spells/light-royal-1.jpg",
  "system": {
    "description": {
      "value": "<p>You gain resist electricity 5. This resistance increases to 10 at 5th level and 20 at 11th level.</p>\n<p>At 17th level, you gain immunity to electricity.</p>"
    },
    "actions": [
      {
        "_id": "p8zy61j1l2sbs734",
        "name": "Use",
        "img": "systems/pf1/icons/spells/light-royal-1.jpg",
        "activation": {
          "type": "passive",
          "unchained": {
            "type": "passive"
          }
        },
        "actionType": ""
      }
    ],
    "tag": "classFeat_sparkSkin",
    "useCustomTag": true,
    "subType": "classFeat",
    "associations": {
      "classes": ["Oracle"]
    },
    "abilityType": "ex"
  }
}
