{
  "_id": "O4NQ0ZjYO1LQICCr",
  "name": "Speak with Wood",
  "type": "feat",
  "img": "systems/pf1/icons/spells/light-royal-1.jpg",
  "system": {
    "description": {
      "value": "<p>You can talk to wood and learn what it knows. You must spend 1 minute meditating on and communing with the wood. At the end of this time, you can speak with the wood. This functions as the @Compendium[pf1.spells.wgm8mm1za909pwch]{Stone Tell} spell, except with wood instead of stones.</p>\n<p>You can use this ability for 1 minute per oracle level. This duration does not need to be consecutive, but it must be used in 1-minute increments. You can speak with natural or worked wood.</p>\n<p>You must be at least 11th level to select this revelation.</p>"
    },
    "actions": [
      {
        "_id": "2o0qwq3k6ny2vdxx",
        "name": "Use",
        "img": "systems/pf1/icons/spells/light-royal-1.jpg",
        "activation": {
          "type": "minute",
          "unchained": {
            "type": "minute"
          }
        },
        "duration": {
          "value": "1",
          "units": "minute"
        },
        "range": {
          "units": "personal"
        },
        "actionType": ""
      }
    ],
    "uses": {
      "per": "day",
      "maxFormula": "@classes.oracle.level"
    },
    "tag": "classFeat_speakWithWood",
    "useCustomTag": true,
    "subType": "classFeat",
    "associations": {
      "classes": ["Oracle"]
    },
    "abilityType": "sp"
  }
}
