{
  "_id": "x3rLN8tIWCw8pnpI",
  "name": "Spell Resistance (UC) (4 pts)",
  "type": "feat",
  "img": "systems/pf1/icons/skills/blue_26.jpg",
  "system": {
    "description": {
      "value": "<p><b>Requirements:</b> Summoner level 9th.</p>\n<p>The eidolon is protected against magic, gaining spell resistance. The eidolon’s spell resistance is equal to 11 + the summoner’s level.</p>\n<p>This spell resistance does not apply to spells cast by the summoner.</p>"
    },
    "tag": "classFeat_spellResistanceUc4Pts",
    "useCustomTag": true,
    "subType": "classFeat",
    "associations": {
      "classes": ["Eidolon (Unchained)"]
    },
    "abilityType": "ex"
  }
}
