{
  "_id": "XmRtUuWv5FbbNbnZ",
  "name": "Spiritual Companion",
  "type": "feat",
  "img": "systems/pf1/icons/items/weapons/kunai.png",
  "system": {
    "description": {
      "value": "<p>While ninjas are accustomed to solitude, some form pacts with magical beings to seek aid and advice. A ninja with this trick gains an improved familiar, treating her ninja level as her wizard level. The ninja can select any of the following as her familiar: <a href=\"https://www.aonprd.com/MonsterDisplay.aspx?ItemName=Calligraphy%20Wyrm\">calligraphy wyrm</a>, <a href=\"https://www.aonprd.com/MonsterDisplay.aspx?ItemName=Pipefox\">pipefox</a>, <a href=\"https://www.aonprd.com/MonsterDisplay.aspx?ItemName=Shikigami\">shikigami kami</a>, or <a href=\"https://www.aonprd.com/MonsterDisplay.aspx?ItemName=Spirit%20Oni\">spirit oni</a>.</p>\n<p>The ninja must have an alignment compatible with the chosen familiar.</p>"
    },
    "tag": "classFeat_spiritualCompanion",
    "useCustomTag": true,
    "subType": "classFeat",
    "associations": {
      "classes": ["Ninja"]
    },
    "abilityType": "ex"
  }
}
