{
  "_id": "cOHTnFTgJWw9kYl8",
  "name": "Spire Totem, Lesser",
  "type": "feat",
  "img": "systems/pf1/icons/feats/deafening-critical.jpg",
  "system": {
    "description": {
      "value": "<p>While raging, the barbarian gains a +1 morale bonus on attacks against any creature that has targeted one of her allies with an attack or a harmful spell within the last round.</p>"
    },
    "tag": "classFeat_spireTotemLesser",
    "useCustomTag": true,
    "subType": "classFeat",
    "associations": {
      "classes": ["Barbarian", "Skald"]
    },
    "abilityType": "su"
  }
}
