{
  "_id": "LYa8F2OxAAohx8ri",
  "name": "Spirit Shroud",
  "type": "feat",
  "img": "systems/pf1/icons/skills/affliction_08.jpg",
  "system": {
    "description": {
      "value": "<p>As a standard action, you can expend 1 point of mental focus to surround yourself with a shroud of spirit energy. You gain a number of temporary hit points equal to 1d6 + your occultist level. This shroud lasts for 1 minute per occultist level or until the temporary hit points are expended, whichever comes first. These temporary hit points stack with those from other sources, but not with those gained through multiple uses of this ability.</p>\n<p>At 4th level, as long as the shroud remains, you also gain a resistance bonus on all saving throws against death effects, fear effects, and any spells or effects that bestow negative levels or deal negative energy damage (if the spells or effects allow a save). This bonus is equal to 1 + 1 for every 4 occultist levels you possess beyond 4th.</p>\n<p>You must be at least 3rd level to select this focus power.</p>"
    },
    "actions": [
      {
        "_id": "0wnd9qynt9uzp8ba",
        "name": "Use",
        "img": "systems/pf1/icons/skills/affliction_08.jpg",
        "activation": {
          "type": "standard",
          "unchained": {
            "cost": 2,
            "type": "action"
          }
        },
        "duration": {
          "value": "1",
          "units": "minute"
        },
        "target": {
          "value": "self"
        },
        "range": {
          "units": "personal"
        },
        "actionType": ""
      }
    ],
    "tag": "classFeat_spiritShroud",
    "useCustomTag": true,
    "subType": "classFeat",
    "associations": {
      "classes": ["Occultist"]
    },
    "abilityType": "su"
  }
}
