{
  "_id": "uWcPXBy4K2vBzCU8",
  "name": "Squander",
  "type": "feat",
  "img": "systems/pf1/icons/feats/greater-disarm.jpg",
  "system": {
    "description": {
      "value": "<p>At 15th level, you gain the ability to force others to waste the opportunities they are given. Once per day as a <em>standard action</em>, you can cause a target within 30 feet to gain the <em>staggered</em> condition for a number of rounds equal to your <em>sorcerer</em> level. The duration is halved if the target makes a successful <em>Will</em> save (DC 10 + 1/2 your <em>sorcerer</em> level + your <em>Cha</em> modifier).</p>"
    },
    "actions": [
      {
        "_id": "ab95omvzv297uqxz",
        "name": "Use",
        "img": "systems/pf1/icons/feats/greater-disarm.jpg",
        "activation": {
          "type": "standard",
          "unchained": {
            "cost": 2,
            "type": "action"
          }
        },
        "duration": {
          "value": "@classes.sorcerer.level",
          "units": "round"
        },
        "target": {
          "value": "One creature"
        },
        "range": {
          "value": "30",
          "units": "spec"
        },
        "actionType": ""
      }
    ],
    "uses": {
      "per": "day",
      "maxFormula": "1"
    },
    "tag": "classFeat_squander",
    "useCustomTag": true,
    "subType": "classFeat",
    "associations": {
      "classes": ["Sorcerer"]
    },
    "abilityType": "su"
  }
}
