{
  "_id": "DaPzEEdBwonf1po2",
  "name": "Sticks and Stones",
  "type": "feat",
  "img": "systems/pf1/icons/items/weapons/rhoka.PNG",
  "system": {
    "description": {
      "value": "<p>The slayer gains @Compendium[pf1.feats.bZ1YdzkT8NtRIEJ4]{Catch Off-Guard} as a bonus feat.</p>"
    },
    "tag": "classFeat_sticksAndStones",
    "useCustomTag": true,
    "subType": "classFeat",
    "associations": {
      "classes": ["Slayer"]
    },
    "abilityType": "ex"
  }
}
