{
  "_id": "9g3r9NFMBBZtAlcw",
  "name": "Sting (UC) (1 pt)",
  "type": "feat",
  "img": "systems/pf1/icons/skills/blue_26.jpg",
  "system": {
    "description": {
      "value": "<p><b>Requirements:</b> Agathion, daemon, demon, devil, div, elemental, protean, or psychopomp subtype; tail evolution.</p>\n<p>The eidolon possesses a long, barbed stinger at the end of its tail, granting it a sting attack. This attack is a primary attack. The sting deals 1d4 points of damage (1d6 if Large, 1d8 if Huge).</p>\n<p>This evolution can be selected more than once, up to the number of tail evolutions the eidolon possesses.</p>"
    },
    "tag": "classFeat_stingUc1Pt",
    "useCustomTag": true,
    "subType": "classFeat",
    "associations": {
      "classes": ["Eidolon (Unchained)"]
    },
    "abilityType": "ex"
  }
}
