{
  "_id": "6n8L6nbXyfRXoTCF",
  "name": "Storms Subdomain",
  "type": "feat",
  "img": "systems/pf1/icons/spells/wind-sky-3.jpg",
  "system": {
    "description": {
      "value": "<p><b>Replacement Domain Spells:</b></p>\n<ul>\n<li>5th—@Compendium[pf1.spells.dwb03nzhbwb1b5nr]{Call Lightning Storm}</li>\n<li>6th—@Compendium[pf1.spells.nk37t5em8q4v1djs]{Sirocco}</li>\n</ul>"
    },
    "tag": "classFeat_stormsSubdomain",
    "useCustomTag": true,
    "subType": "classFeat",
    "associations": {
      "classes": ["Cleric"]
    }
  }
}
