{
  "_id": "XUOPtvbd4TYsTXff",
  "name": "Sudden Shift",
  "type": "feat",
  "img": "systems/pf1/icons/skills/violet_10.jpg",
  "system": {
    "description": {
      "value": "<p>In the blink of an eye, you can appear somewhere else. As an immediate action, after you are missed by a melee attack, you can teleport up to 10 feet to a space that you can see. This space must be inside the reach of the creature that attacked you. You can use this power a number of times each day equal to 3 + your Wisdom modifier.</p>\n<p>This power replaces the Copycat power of the Trickery Domain.</p>"
    },
    "actions": [
      {
        "_id": "aeyd7gapex91kmpv",
        "name": "Use",
        "img": "systems/pf1/icons/skills/violet_10.jpg",
        "activation": {
          "type": "immediate",
          "unchained": {
            "type": "reaction"
          }
        },
        "duration": {
          "units": "inst"
        },
        "target": {
          "value": "self"
        },
        "range": {
          "units": "personal"
        },
        "actionType": ""
      }
    ],
    "uses": {
      "per": "day",
      "maxFormula": "3 + @abilities.wis.mod"
    },
    "tag": "classFeat_suddenShift",
    "useCustomTag": true,
    "subType": "classFeat",
    "associations": {
      "classes": ["Cleric"]
    },
    "abilityType": "sp"
  }
}
