{
  "_id": "NFAMHOZ9ng7f4ExV",
  "name": "Suffocating Grip, Greater",
  "type": "feat",
  "img": "systems/pf1/icons/feats/deafening-critical.jpg",
  "system": {
    "description": {
      "value": "<p>When the barbarian is using the suffocating grip rage power, the grappled creature cannot hold its breath and immediately begins suffocating.</p>\n<p>A barbarian must be at least 12th level and have the suffocating grip rage power to select this rage power.</p>"
    },
    "tag": "classFeat_suffocatingGripGreater",
    "useCustomTag": true,
    "subType": "classFeat",
    "associations": {
      "classes": ["Barbarian", "Skald"]
    },
    "abilityType": "ex"
  }
}
