{
  "_id": "6SPes1mowA2wUkMP",
  "name": "Sun Domain",
  "type": "feat",
  "img": "systems/pf1/icons/spells/light-royal-3.jpg",
  "system": {
    "description": {
      "value": "<p><b>Granted Powers:</b> You see truth in the pure and burning light of the sun, and can call upon its blessing or wrath to work great deeds.</p>\n<p><b>Domain Spells:</b></p>\n<ul>\n<li>1st—@Compendium[pf1.spells.pau0ejk30fs1eebl]{Endure Elements}</li>\n<li>2nd—@Compendium[pf1.spells.3b1x69kfhnsa2d54]{Heat Metal}</li>\n<li>3rd—@Compendium[pf1.spells.dnet1tyxbsnwailm]{Searing Light}</li>\n<li>4th—@Compendium[pf1.spells.nfm6i9z9r3n2fku7]{Fire Shield}</li>\n<li>5th—@Compendium[pf1.spells.gmugktarbieojt59]{Flame Strike}</li>\n<li>6th—@Compendium[pf1.spells.0hknfnoaljc75fj3]{Fire Seeds}</li>\n<li>7th—@Compendium[pf1.spells.vax8ojz8g3oovwzu]{Sunbeam}</li>\n<li>8th—@Compendium[pf1.spells.j2mwv9wfxhqch10g]{Sunburst}</li>\n<li>9th—@Compendium[pf1.spells.lxxliyxfw9uvbxmt]{Prismatic Sphere}</li>\n</ul>"
    },
    "tag": "classFeat_sunDomain",
    "useCustomTag": true,
    "subType": "classFeat",
    "associations": {
      "classes": ["Cleric"]
    }
  }
}
