{
  "_id": "fttm0AJWflhbKEWT",
  "name": "Sungazer",
  "type": "feat",
  "img": "systems/pf1/icons/spells/light-royal-1.jpg",
  "system": {
    "description": {
      "value": "<p>You can study the sun and gaze upon any place its light touches. You can use @Compendium[pf1.spells.6kmkxepwgsbta6ui]{Clairaudience/Clairvoyance} as a spell-like ability, but only for visual observation and you can only place your sensor in places currently being touched by sunlight.</p>\n<p>At 10th level, you can instead use @Compendium[pf1.spells.g66w32kdup1f43bp]{Scrying} to observe any area touched by sunlight.</p>\n<p>At 15th level, you can use @Compendium[pf1.spells.glt6uk3n6g6l2p6l]{Scrying, Greater} instead. You must be at least 5th level to select this revelation.</p>\n<p>You can sungaze for 1 minute per day per oracle level; the duration need not be continuous, but it must be used in 1-minute increments.</p>"
    },
    "actions": [
      {
        "_id": "8tjl82wapi56cc6p",
        "name": "Use",
        "img": "systems/pf1/icons/spells/light-royal-1.jpg",
        "activation": {
          "type": "standard",
          "unchained": {
            "cost": 2,
            "type": "action"
          }
        },
        "duration": {
          "value": "1",
          "units": "minute"
        },
        "actionType": ""
      }
    ],
    "uses": {
      "per": "day",
      "maxFormula": "@classes.oracle.level"
    },
    "tag": "classFeat_sungazer",
    "useCustomTag": true,
    "subType": "classFeat",
    "associations": {
      "classes": ["Oracle"]
    },
    "abilityType": "sp"
  }
}
