{
  "_id": "X3wKgoZn4RU23LTa",
  "name": "Superior Transformation",
  "type": "feat",
  "img": "systems/pf1/icons/skills/blue_26.jpg",
  "system": {
    "description": {
      "value": "<p>At 15th level, you become master of your own shape and you fully understand the intricacies of all shapechanging magic. You are immune to <em>polymorph</em> effects unless you are a willing target. Once per day when you cast a <em>polymorph</em> spell on yourself, in addition to the normal effects of the spell, you can choose to gain a fly speed of 60 feet (average maneuverability), a swim speed of 60 feet, or an increase to your base land speed of 30 feet.</p>"
    },
    "actions": [
      {
        "_id": "q7divsxovyrwzkxr",
        "name": "Use",
        "img": "systems/pf1/icons/skills/blue_26.jpg",
        "activation": {
          "type": "passive",
          "unchained": {
            "type": "passive"
          }
        },
        "actionType": ""
      }
    ],
    "tag": "classFeat_superiorTransformation",
    "useCustomTag": true,
    "subType": "classFeat",
    "associations": {
      "classes": ["Sorcerer"]
    },
    "abilityType": "su"
  }
}
