{
  "_id": "FQiwHjr9khaqLNSU",
  "name": "Superior Psychic Magic (UC) (4 pts)",
  "type": "feat",
  "img": "systems/pf1/icons/skills/blue_26.jpg",
  "system": {
    "description": {
      "value": "<p><b>Requirements:</b> Aberrant subtype; advanced psychic magic evolution; summoner level 11th; Charisma 13.</p>\n<p>The eidolon has 7 points of psychic magic to spend each day. Select one spell from the following list:</p>\n<ul>\n<li>confusion, </li>\n<li>deeper darkness, </li>\n<li>displacement, </li>\n<li>jester’s jauntAPG, </li>\n<li>id insinuation IIOA, or </li>\n<li>mind thrust IIIOA.</li>\n</ul>\n<p>The eidolon can cast that spell as a psychic spell by spending 3 points of psychic energy. The caster level and save DC are the same as for basic psychic magic.</p>\n<p>This evolution can be selected more than once, selecting a different spell each time.</p>\n<p>The eidolon’s amount of psychic energy available to spend each day does not stack; it uses only the highest number of points granted by its most powerful psychic magic evolution.</p>"
    },
    "actions": [
      {
        "_id": "0pj4tr4lzkpyjes2",
        "name": "Use",
        "img": "systems/pf1/icons/skills/blue_26.jpg",
        "activation": {
          "type": "special",
          "unchained": {
            "type": "special"
          }
        },
        "actionType": ""
      }
    ],
    "uses": {
      "per": "day",
      "maxFormula": "7"
    },
    "tag": "classFeat_superiorPsychicMagicUc4Pts",
    "useCustomTag": true,
    "subType": "classFeat",
    "associations": {
      "classes": ["Eidolon (Unchained)"]
    }
  }
}
