{
  "_id": "LSRqea5ru6hXhsnY",
  "name": "Sustained Inspirational Expertise",
  "type": "feat",
  "img": "systems/pf1/icons/items/weapons/sword-cane.png",
  "system": {
    "description": {
      "value": "<p>When granting a bonus to allies via the inspirational expertise investigator talent (Pathfinder RPG Advanced Class Guide 33), the investigator can spend one use of inspiration as a swift action the following round to extend the duration of the granted bonus for 1 additional round. The insight bonus granted decreases by 1 each round this ability is used.</p>\n<p>The investigator must be at least 11th level and have the inspirational expertise talent to select this talent.</p>"
    },
    "actions": [
      {
        "_id": "8gkq7my0qitknbzi",
        "name": "Use",
        "img": "systems/pf1/icons/items/weapons/sword-cane.png",
        "activation": {
          "type": "swift",
          "unchained": {
            "type": "action"
          }
        },
        "actionType": ""
      }
    ],
    "tag": "classFeat_sustainedInspirationalExpertise",
    "useCustomTag": true,
    "subType": "classFeat",
    "associations": {
      "classes": ["Investigator"]
    },
    "abilityType": "ex"
  }
}
