{
  "_id": "r00mDlmP07I6KVBD",
  "name": "Synaptic Infusion",
  "type": "feat",
  "img": "systems/pf1/icons/spells/wind-sky-3.jpg",
  "system": {
    "description": {
      "value": "<p><b>Element</b> air; <b>Type</b> substance infusion; <b>Level</b> 3; <b>Burn</b> 2<br><b>Associated Blasts</b> electric, charged water, thunderstorm<br><b>Saving Throw</b> Will negates</p>\n<p>Your blast sends strange electric signals through the target’s body, scrambling its synapses and causing it to become staggered for 1 round. The target is aware it can choose to take a move action to remove the staggered condition inflicted by this infusion. This infusion is a mind-affecting effect.</p>"
    },
    "actions": [
      {
        "_id": "qpnx4kudl60p1fmv",
        "name": "Use",
        "img": "systems/pf1/icons/spells/wind-sky-3.jpg",
        "actionType": "save",
        "save": {
          "type": "will",
          "description": "Will negates"
        }
      }
    ],
    "tag": "classFeat_synapticInfusion",
    "useCustomTag": true,
    "subType": "classFeat",
    "associations": {
      "classes": ["Kineticist"]
    }
  }
}
