{
  "_id": "zx0lJIxpj8ZCDh97",
  "name": "Taboo",
  "type": "feat",
  "img": "systems/pf1/icons/skills/affliction_23.jpg",
  "system": {
    "description": {
      "value": "<p>When a creature touches you or strikes you with a melee attack, you can activate this power as an immediate action. That creature takes a –1 penalty on saving throws for 1 minute. This penalty increases by 1 for every 5 levels you possess. When you use this ability, you lose your resistance bonus granted by the Protection domain for 1 minute. You can use this ability a number of times per day equal to 3 + your Wisdom modifier.</p>\n<p>This power replaces the Resistant Touch power of the Protection Domain.</p>"
    },
    "actions": [
      {
        "_id": "ywegvdsd2e9k78i7",
        "name": "Use",
        "img": "systems/pf1/icons/skills/affliction_23.jpg",
        "activation": {
          "type": "immediate",
          "unchained": {
            "type": "reaction"
          }
        },
        "duration": {
          "value": "1",
          "units": "minute"
        },
        "target": {
          "value": "attacking creature"
        },
        "range": {
          "units": "touch"
        },
        "actionType": ""
      }
    ],
    "uses": {
      "per": "day",
      "maxFormula": "3 + @abilities.wis.mod"
    },
    "tag": "classFeat_taboo",
    "useCustomTag": true,
    "subType": "classFeat",
    "associations": {
      "classes": ["Cleric"]
    },
    "abilityType": "su"
  }
}
