{
  "_id": "wuRY1k1gAFmQweFa",
  "name": "Telekinetic Finesse",
  "type": "feat",
  "img": "systems/pf1/icons/spells/link-blue-2.jpg",
  "system": {
    "description": {
      "value": "<p><b>Element</b> aether; <b>Type</b> utility (Sp); <b>Level</b> 1; <b>Burn</b> 0</p>\n<p>You can perform any sort of fine manipulation you choose within close range, including attempting Sleight of Hand and Disable Device checks.</p>"
    },
    "tag": "classFeat_telekineticFinesse",
    "useCustomTag": true,
    "subType": "classFeat",
    "associations": {
      "classes": ["Kineticist"]
    },
    "abilityType": "sp"
  }
}
