{
  "_id": "fVnL2yhENozMMZ8j",
  "name": "Telepathy",
  "type": "feat",
  "img": "systems/pf1/icons/spells/light-royal-1.jpg",
  "system": {
    "description": {
      "value": "<p>You can mentally communicate with any other creature within 100 feet that has a language, as per the telepathy power of demons and angels.</p>\n<p>You must be at least 11th level before selecting this revelation.</p>"
    },
    "actions": [
      {
        "_id": "8bdtyagitkq46nyy",
        "name": "Use",
        "img": "systems/pf1/icons/spells/light-royal-1.jpg",
        "activation": {
          "type": "passive",
          "unchained": {
            "type": "passive"
          }
        },
        "actionType": ""
      }
    ],
    "tag": "classFeat_telepathy",
    "useCustomTag": true,
    "subType": "classFeat",
    "associations": {
      "classes": ["Oracle"]
    },
    "abilityType": "su"
  }
}
