{
  "_id": "029BrJWpmO7rMlPC",
  "name": "Teleportation Subschool",
  "type": "feat",
  "img": "systems/pf1/icons/spells/runes-magenta-2.jpg",
  "system": {
    "description": {
      "value": "<p><b>Associated School:</b> <em>Conjuration</em>.</p>\n<p><b>Replacement Power:</b> This subschool replaces the acid dart power of the <em>conjuration</em> school.</p>"
    },
    "tag": "classFeat_teleportationSubschool",
    "useCustomTag": true,
    "subType": "classFeat",
    "associations": {
      "classes": ["Wizard"]
    }
  }
}
