{
  "_id": "FaIdMG5WoDKGPOfA",
  "name": "Thief's Soul",
  "type": "feat",
  "img": "systems/pf1/icons/items/inventory/badge-cross.jpg",
  "system": {
    "description": {
      "value": "<p>At 8th level, you gain Improved Steal, Greater Steal, and Quick Steal as bonus feats, even if you don’t meet the prerequisites.</p>"
    },
    "tag": "classFeat_thiefsSoul",
    "useCustomTag": true,
    "subType": "classFeat",
    "associations": {
      "classes": ["Inquisitor"]
    },
    "abilityType": "ex"
  }
}
