{
  "_id": "eF2WDwa3qbtJhUYg",
  "name": "Time Sight",
  "type": "feat",
  "img": "systems/pf1/icons/spells/light-royal-1.jpg",
  "system": {
    "description": {
      "value": "<p>You can peer through the mists of time to see things as they truly are, as if using the @Compendium[pf1.spells.jbqo4o2b2tmdz7wv]{True Seeing} spell.</p>\n<p>At 15th level, this functions like @Compendium[pf1.spells.2vb5orfcy57lrfmc]{Moment of Prescience}.</p>\n<p>At 18th level, this functions like @Compendium[pf1.spells.vl7yer8k1leyuxld]{Foresight}.</p>\n<p>You can use this ability for a number of minutes per day equal to your oracle level, but these minutes do not need to be consecutive.</p>\n<p>You must be at least 11th level to select this revelation.</p>"
    },
    "tags": ["Revelation", "Time Mystery"],
    "actions": [
      {
        "_id": "h5tsx5rzqgb34icv",
        "name": "Use",
        "img": "systems/pf1/icons/spells/light-royal-1.jpg",
        "activation": {
          "type": "standard",
          "unchained": {
            "cost": 2,
            "type": "action"
          }
        },
        "duration": {
          "value": "1",
          "units": "minute"
        },
        "target": {
          "value": "self"
        },
        "range": {
          "units": "personal"
        },
        "actionType": ""
      }
    ],
    "uses": {
      "per": "day",
      "maxFormula": "@classes.oracle.level"
    },
    "tag": "classFeat_timeSight",
    "useCustomTag": true,
    "subType": "classFeat",
    "associations": {
      "classes": ["Oracle"]
    },
    "abilityType": "su"
  }
}
