{
  "_id": "f1VoGqF67fwhQ5Fh",
  "name": "Tracer Touch",
  "type": "feat",
  "img": "systems/pf1/icons/spells/light-royal-1.jpg",
  "system": {
    "description": {
      "value": "<p>Once per day, you can touch a creature or object and plant a scrying sensor on it, as if you had cast @Compendium[pf1.spells.b2yholbb5a0g8peg]{Vicarious View}.</p>\n<p>At 15th level, you can use this ability twice per day.</p>\n<p>You must be at least 11th level to select this revelation.</p>"
    },
    "actions": [
      {
        "_id": "z66jtlewygjg9qds",
        "name": "Use",
        "img": "systems/pf1/icons/spells/light-royal-1.jpg",
        "activation": {
          "type": "standard",
          "unchained": {
            "cost": 2,
            "type": "action"
          }
        },
        "duration": {
          "value": "@classes.oracle.level",
          "units": "minute"
        },
        "target": {
          "value": "creature or object touched"
        },
        "range": {
          "units": "touch"
        },
        "actionType": ""
      }
    ],
    "uses": {
      "per": "day",
      "maxFormula": "@classes.oracle.level >= 15 ? 2 : 1"
    },
    "tag": "classFeat_tracerTouch",
    "useCustomTag": true,
    "subType": "classFeat",
    "associations": {
      "classes": ["Oracle"]
    },
    "abilityType": "sp"
  }
}
