{
  "_id": "r9xQKkAtTxsvLmf1",
  "name": "True Death Inquisition",
  "type": "feat",
  "img": "systems/pf1/icons/items/inventory/badge-cross.jpg",
  "system": {
    "description": {
      "value": "<p><b>Granted Powers:</b> You see undead as a perversion of the natural order, a misuse of magic, or an unjust enslavement of a departed spirit’s body, and are sworn to destroying such beings.</p>"
    },
    "tag": "classFeat_trueDeathInquisition",
    "useCustomTag": true,
    "subType": "classFeat",
    "associations": {
      "classes": ["Inquisitor"]
    }
  }
}
