{
  "_id": "iXUf0hB7WYr3c2kS",
  "name": "Umbral Shield",
  "type": "feat",
  "img": "systems/pf1/icons/skills/violet_26.jpg",
  "system": {
    "description": {
      "value": "<p>The subject ignores any harmful effects of bright light or sunlight for 1 minute. The mesmerist can trigger this trick whenever the subject would be exposed to harmful bright light (such as sunlight is to a vampire).</p>\n<p>The subject is immune to the dazzled condition while this trick is in effect.</p>"
    },
    "tag": "classFeat_umbralShield",
    "useCustomTag": true,
    "subType": "classFeat",
    "associations": {
      "classes": ["Mesmerist"]
    }
  }
}
