{
  "_id": "2rYSUirW0lXDO8PL",
  "name": "Unbalancing Trick",
  "type": "feat",
  "img": "systems/pf1/icons/items/weapons/dagger.PNG",
  "system": {
    "description": {
      "value": "<p>The rogue gains @Compendium[pf1.feats.gTrGPxzN054GfpkM]{Improved Trip} as a bonus feat, even if she does not meet the prerequisites. At 6th level, she is treated as if she meets all the prerequisites of @Compendium[pf1.feats.lNyMFFQaOxxTOW7M]{Greater Trip} (although she must take the feat as normal to gain its benefits).</p>"
    },
    "tag": "classFeat_unbalancingTrick",
    "useCustomTag": true,
    "subType": "classFeat",
    "associations": {
      "classes": ["Rogue"]
    },
    "abilityType": "ex"
  }
}
