{
  "_id": "i4bu46pF2Y4sYqes",
  "name": "Undead Blood, Greater",
  "type": "feat",
  "img": "systems/pf1/icons/feats/deafening-critical.jpg",
  "system": {
    "description": {
      "value": "<p>While raging, the barbarian gains cold resistance 10, as well as DR 10/— against nonlethal damage.</p>"
    },
    "tag": "classFeat_undeadBloodGreater",
    "useCustomTag": true,
    "subType": "classFeat",
    "associations": {
      "classes": ["Barbarian", "Skald"]
    },
    "abilityType": "su"
  }
}
