{
  "_id": "bW5bLfNDtef6kyE3",
  "name": "Undead Blood",
  "type": "feat",
  "img": "systems/pf1/icons/feats/deafening-critical.jpg",
  "system": {
    "description": {
      "value": "<p>While raging, all of the barbarian’s melee attacks are treated as if they were made with a weapon with the <a href=\"https://aonprd.com/MagicWeaponsDisplay.aspx?ItemName=Ghost%20Touch\">ghost touch</a> weapon special ability.</p>"
    },
    "tag": "classFeat_undeadBlood",
    "useCustomTag": true,
    "subType": "classFeat",
    "associations": {
      "classes": ["Barbarian", "Skald"]
    },
    "abilityType": "su"
  }
}
