{
  "_id": "tSmRmVuqYPDTyVZY",
  "name": "Universalist School",
  "type": "feat",
  "img": "systems/pf1/icons/items/inventory/pearl.jpg",
  "system": {
    "description": {
      "value": "<p>Wizards who do not specialize (known as as universalists) have the most diversity of all arcane spellcasters.</p>"
    },
    "tag": "classFeat_universalistSchool",
    "useCustomTag": true,
    "subType": "classFeat",
    "associations": {
      "classes": ["Wizard"]
    }
  }
}
