{
  "_id": "bJHPOEjVfYnYCMtl",
  "name": "Unnerving Gaze",
  "type": "feat",
  "img": "systems/pf1/icons/skills/red_05.jpg",
  "system": {
    "description": {
      "value": "<p>At 16th level, your foes begin to see flashes of the faces of dead loved ones when they look at your face. You gain a gaze attack with a range of 30 feet. All foes who fail a Will save (DC = 10 + 1/2 your bloodrager level + your Charisma modifier) become shaken for 1d3 rounds.</p>"
    },
    "actions": [
      {
        "_id": "2huv65232dd0jb99",
        "name": "Use",
        "img": "systems/pf1/icons/skills/red_05.jpg",
        "activation": {
          "type": "standard",
          "unchained": {
            "cost": 2,
            "type": "action"
          }
        },
        "duration": {
          "value": "1d3",
          "units": "round"
        },
        "range": {
          "value": "30",
          "units": "ft"
        },
        "actionType": "save",
        "save": {
          "type": "will",
          "description": "Will negates"
        }
      }
    ],
    "tag": "classFeat_unnervingGaze",
    "useCustomTag": true,
    "subType": "classFeat",
    "associations": {
      "classes": ["Bloodrager"]
    },
    "abilityType": "su"
  }
}
