{
  "_id": "arVaIZZwyfaNYGgw",
  "name": "Unrivaled Focus",
  "type": "feat",
  "img": "systems/pf1/icons/spells/slice-spirit-3.jpg",
  "system": {
    "description": {
      "value": "<p>At 13th level, your powers of concentration become unmatched. Whenever you attempt a concentration check, you can spend 1 point from your phrenic pool to treat the result of your die roll as a 20. You must choose to use this ability before rolling the check.</p>"
    },
    "actions": [
      {
        "_id": "69oka8v1nkq1sub4",
        "name": "Use",
        "img": "systems/pf1/icons/spells/slice-spirit-3.jpg",
        "activation": {
          "type": "special",
          "unchained": {
            "type": "special"
          }
        },
        "actionType": ""
      }
    ],
    "tag": "classFeat_unrivaledFocus",
    "useCustomTag": true,
    "subType": "classFeat",
    "associations": {
      "classes": ["Psychic"]
    },
    "abilityType": "su"
  }
}
