{
  "_id": "6SJnnmySMkIeIMUP",
  "name": "Vision-Clouding Strike",
  "type": "feat",
  "img": "systems/pf1/icons/spells/enchant-red-3.jpg",
  "system": {
    "description": {
      "value": "<p>The magus can expend 1 or more points from his arcane pool as a swift action to empower his weapon with shadowy energy that dissipates within 1 minute. A creature struck with the weapon must succeed at a Will save (DC = 1/2 the magus’s level + his Intelligence modifier) or treat the magus as being in an area of dim light for 1d4 rounds, plus 1 additional round for each arcane pool point expended. True seeing penetrates this effect, but darkvision and similar darkness-penetrating effects do not.</p>\n<p>The magus must be at least 9th level before selecting this arcana.</p>"
    },
    "actions": [
      {
        "_id": "a0sel2ybtos2ny3t",
        "name": "Use",
        "img": "systems/pf1/icons/spells/enchant-red-3.jpg",
        "activation": {
          "type": "swift",
          "unchained": {
            "type": "action"
          }
        },
        "actionType": ""
      }
    ],
    "tag": "classFeat_visioncloudingStrike",
    "useCustomTag": true,
    "subType": "classFeat",
    "associations": {
      "classes": ["Magus"]
    }
  }
}
