{
  "_id": "HXEJU1ciwW3pyLGB",
  "name": "Voice of the Grave",
  "type": "feat",
  "img": "systems/pf1/icons/spells/light-royal-1.jpg",
  "system": {
    "description": {
      "value": "<p>You can @Compendium[pf1.spells.byn5q46du0ck592a]{Speak with Dead}, as per the spell, for a number of rounds per day equal to your oracle level. These rounds do not need to be consecutive.</p>\n<p>At 5th level, and every five levels thereafter, the dead creature you question takes a cumulative –2 penalty on its Will save to resist this effect.</p>"
    },
    "tags": ["Revelation", "Bones Mystery", "Ancestor Mystery"],
    "actions": [
      {
        "_id": "7y43ih57cu5r0yud",
        "name": "Use",
        "img": "systems/pf1/icons/spells/light-royal-1.jpg",
        "activation": {
          "type": "standard",
          "unchained": {
            "cost": 2,
            "type": "action"
          }
        },
        "duration": {
          "value": "1",
          "units": "round"
        },
        "target": {
          "value": "dead creature"
        },
        "range": {
          "value": "10",
          "units": "ft"
        },
        "actionType": ""
      }
    ],
    "uses": {
      "per": "day",
      "maxFormula": "@classes.oracle.level"
    },
    "tag": "classFeat_voiceOfTheGrave",
    "useCustomTag": true,
    "subType": "classFeat",
    "associations": {
      "classes": ["Oracle"]
    },
    "abilityType": "su"
  }
}
