{
  "_id": "bWd5E7g7iOLioDP0",
  "name": "Weapon Training (ROG)",
  "type": "feat",
  "img": "systems/pf1/icons/items/weapons/dagger.PNG",
  "system": {
    "description": {
      "value": "<p>A rogue that selects this talent gains @Compendium[pf1.feats.n250dFlbykAIAg5Z]{Weapon Focus} as a bonus feat.</p>"
    },
    "tag": "classFeat_weaponTrainingRog",
    "useCustomTag": true,
    "subType": "classFeat",
    "associations": {
      "classes": ["Rogue"]
    }
  }
}
