{
  "_id": "fsl5v9EiLr3PoSSh",
  "name": "Weapon Snatcher",
  "type": "feat",
  "img": "systems/pf1/icons/items/weapons/butterfly-knife.PNG",
  "system": {
    "description": {
      "value": "<p>A rogue with this talent can make a Sleight of Hand check in place of a combat maneuver check when attempting to disarm an opponent.</p>"
    },
    "tag": "classFeat_weaponSnatcher",
    "useCustomTag": true,
    "subType": "classFeat",
    "associations": {
      "classes": ["Rogue"]
    },
    "abilityType": "ex"
  }
}
