{
  "_id": "BuHgHIkacRq4QHhH",
  "name": "Winter Rage",
  "type": "feat",
  "img": "systems/pf1/icons/feats/deafening-critical.jpg",
  "system": {
    "description": {
      "value": "<p>As a standard action, the barbarian can bellow a 20-foot cone of frigid, snowy air. Until the beginning of the barbarian’s next turn, creatures moving through the cone move at half speed. A barbarian can have only one season-themed rage power, choosing between spring, summer, autumn, or winter rage.</p>"
    },
    "tag": "classFeat_winterRage",
    "useCustomTag": true,
    "subType": "classFeat",
    "associations": {
      "classes": ["Barbarian", "Skald"]
    },
    "abilityType": "su"
  }
}
