{
  "_id": "DxpiD3wcLuVAwnSa",
  "name": "Witch's Bounty",
  "type": "feat",
  "img": "systems/pf1/icons/skills/violet_02.jpg",
  "system": {
    "description": {
      "value": "<p>The witch may bless a bush, plant, or tree that is planted in the ground, so that it creates a plentiful harvest. Each day at dawn, this blessed bush grows a number of goodberries equal to twice her witch level. Berries on the tree remain until they are picked, but the tree can never manifest a number of berries greater than twice her level at one time.</p>\n<p>The witch may only have one witch’s bounty active at a time, but can shift her blessing to a new plant with a ritual requiring 1 hour.</p>"
    },
    "tags": ["Hex", "Major Hex"],
    "actions": [
      {
        "_id": "Ib1GDJfa8Q0wrmpP",
        "name": "Bless",
        "img": "systems/pf1/icons/skills/violet_02.jpg",
        "activation": {
          "type": "hour"
        },
        "duration": {
          "units": "inst"
        },
        "target": {
          "value": "one plant"
        },
        "range": {
          "value": "30",
          "units": "ft"
        },
        "actionType": ""
      }
    ],
    "tag": "classFeat_witchsBounty",
    "useCustomTag": true,
    "subType": "classFeat",
    "associations": {
      "classes": ["Witch"]
    },
    "abilityType": "su"
  }
}
