{
  "_id": "l3w835ZVmyyOEWlt",
  "name": "Withering Nimbus",
  "type": "feat",
  "img": "systems/pf1/icons/spells/light-air-fire-1.jpg",
  "system": {
    "description": {
      "value": "<p>This ability functions as the nimbus of light domain ability, but it damages plants and creatures with the aquatic or water subtype, not undead.</p>\n<p>This power replaces the Nimbus of Light power of the Sun Domain.</p>"
    },
    "actions": [
      {
        "_id": "7v0jfl98moqjr2bn",
        "name": "Use",
        "img": "systems/pf1/icons/spells/light-air-fire-1.jpg",
        "activation": {
          "type": "swift",
          "unchained": {
            "type": "action"
          }
        },
        "duration": {
          "value": "1",
          "units": "round"
        },
        "range": {
          "value": "30",
          "units": "ft"
        },
        "actionType": ""
      }
    ],
    "uses": {
      "per": "day",
      "maxFormula": "@classes.cleric.level"
    },
    "tag": "classFeat_witheringNimbus",
    "useCustomTag": true,
    "subType": "classFeat",
    "associations": {
      "classes": ["Cleric"]
    },
    "abilityType": "su"
  }
}
