{
  "_id": "ELZmtV3KDa0WCS4P",
  "name": "Wood Spirit",
  "type": "feat",
  "img": "systems/pf1/icons/skills/violet_11.jpg",
  "system": {
    "description": {
      "value": "<p><em>A shaman who selects the wood spirit has a skin tone similar to the coloration of trees in her home region. Her vibrant hair is fragrant and resembles leaves and blossoms.</em><p><b>Spirit Magic Spells:</b> </p>\n<ul>\n<li>@Compendium[pf1.spells.v05u8sl116ab2n9c]{Shillelagh} (1st), </li>\n<li>@Compendium[pf1.spells.la7kuehewu85ybnt]{Barkskin} (2nd), </li>\n<li>@Compendium[pf1.spells.jsvjsax2eabrlx8g]{Minor Creation} (wood items only) (3rd), </li>\n<li>@Compendium[pf1.spells.818uuekrao87o57u]{Thorn Body} (4th), </li>\n<li>@Compendium[pf1.spells.6x6epf4g5wgzl1gh]{Tree Stride} (5th), </li>\n<li>@Compendium[pf1.spells.xmacjpo6tgm1xhnv]{Ironwood} (6th), </li>\n<li>@Compendium[pf1.spells.3fravqa4vrm4ygkr]{Transmute Metal to Wood} (7th), </li>\n<li>@Compendium[pf1.spells.cp5m19me647dojha]{Changestaff} (8th), </li>\n<li>@Compendium[pf1.spells.9fd7mcoint902oyb]{Wooden Phalanx} (9th)</li>\n</ul>\n<p><b>Spirit Animal:</b> The shaman’s spirit animal looks like a wooden figurine or a vaguely animal-shaped tree branch when it is motionless. The animal gains freeze as per the universal monster rule (Pathfinder RPG Bestiary 2 297).</p>"
    },
    "tag": "classFeat_woodSpirit",
    "useCustomTag": true,
    "subType": "classFeat",
    "associations": {
      "classes": ["Shaman"]
    }
  }
}
