{
  "_id": "NLBwS65lWYkNP65y",
  "name": "Zephyr Blow (UC)",
  "type": "feat",
  "img": "systems/pf1/icons/skills/fire_07.jpg",
  "system": {
    "description": {
      "value": "<p>By spending 1 ki point as a standard action, a monk with this power can disrupt the wind and create a sharp blast of air, as if using the spell @Compendium[pf1.spells.cnuin981hdq7ryit]{Gust Of Wind}. The monk’s caster level for this effect is equal to his monk level.</p>"
    },
    "actions": [
      {
        "_id": "vfe8lbk7hkcpp0zj",
        "name": "Use",
        "img": "systems/pf1/icons/skills/fire_07.jpg",
        "activation": {
          "type": "standard",
          "unchained": {
            "cost": 2,
            "type": "action"
          }
        },
        "actionType": ""
      }
    ],
    "tag": "classFeat_zephyrBlowUc",
    "useCustomTag": true,
    "subType": "classFeat",
    "associations": {
      "classes": ["Monk (Unchained)"]
    },
    "abilityType": "su"
  }
}
