{
  "_id": "D2huasedfGMSetP7",
  "name": "Bane",
  "type": "buff",
  "img": "systems/pf1/icons/spells/evil-eye-eerie-1.jpg",
  "system": {
    "description": {
      "value": "<p>You take a -1 penalty on attack rolls and saving throws vs fear effects.</p>"
    },
    "changes": [
      {
        "_id": "naa3gpnz",
        "formula": "-1",
        "subTarget": "attack",
        "modifier": "untyped"
      }
    ],
    "contextNotes": [
      {
        "formula": "",
        "operator": "add",
        "target": "savingThrows",
        "subTarget": "allSavingThrows",
        "modifier": "",
        "priority": 0,
        "value": 0,
        "text": "-[[1]] vs Fear effects"
      }
    ],
    "level": "1",
    "duration": {
      "value": "@item.level",
      "units": "minute"
    }
  }
}
