{
  "_id": "KsgdOd5vzGu7UDBe",
  "name": "Eagle's Splendor",
  "type": "buff",
  "img": "systems/pf1/icons/spells/runes-royal-1.jpg",
  "system": {
    "description": {
      "value": "<p>The subject has a +4 enhancement bonus to Charisma.</p>"
    },
    "changes": [
      {
        "_id": "rzpoixra",
        "formula": "4",
        "subTarget": "cha",
        "modifier": "enh"
      }
    ],
    "level": "3",
    "duration": {
      "value": "@item.level",
      "units": "minute"
    }
  }
}
