{
  "_id": "3p34GJemfcLdKckV",
  "name": "Inspire Courage",
  "type": "buff",
  "img": "systems/pf1/icons/skills/red_01.jpg",
  "system": {
    "description": {
      "value": "<p>Someone is inspiring you with courage. You gain a morale bonus on saves vs charm and fear effects, and a competence bonus on attack rolls and weapon damage rolls.</p>\n<p><b>Usage</b>: Set the buff's level to the bard level of the person using Inspire Courage.</p>"
    },
    "changes": [
      {
        "_id": "o7gbtdbn",
        "formula": "1 + max(0, floor((@item.level + 1) / 6))",
        "subTarget": "attack",
        "modifier": "competence"
      },
      {
        "_id": "rf8izhuw",
        "formula": "1 + max(0, floor((@item.level + 1) / 6))",
        "subTarget": "wdamage",
        "modifier": "competence"
      }
    ],
    "contextNotes": [
      {
        "text": "+[[1 + max(0, floor((@item.level + 1) / 6))]] Morale vs Fear and Charm effects",
        "target": "savingThrows",
        "subTarget": "allSavingThrows"
      }
    ],
    "level": "1"
  }
}
