{
  "_id": "ky8n4yzn6kc2cume",
  "name": "Acid Fog",
  "type": "spell",
  "img": "systems/pf1/icons/misc/magic-swirl.png",
  "system": {
    "actions": [
      {
        "_id": "x81ufq3tc616s6en",
        "name": "Use",
        "img": "systems/pf1/icons/misc/magic-swirl.png",
        "activation": {
          "type": "standard",
          "unchained": {
            "cost": 2,
            "type": "action"
          }
        },
        "duration": {
          "value": "1 round/level"
        },
        "range": {
          "units": "medium"
        },
        "measureTemplate": {
          "type": "circle",
          "size": "20"
        },
        "actionType": "other",
        "damage": {
          "parts": [
            {
              "formula": "2d6",
              "type": {
                "values": ["acid"],
                "custom": ""
              }
            }
          ]
        },
        "spellEffect": "fog spreads in 20-ft. radius, 20 ft. high"
      }
    ],
    "learnedAt": {
      "class": {
        "sorcerer": 6,
        "wizard": 6,
        "magus": 6,
        "unchained Summoner": 6
      }
    },
    "level": 6,
    "school": "con",
    "subschool": "creation",
    "types": "acid",
    "components": {
      "verbal": true,
      "somatic": true,
      "material": true
    },
    "materials": {
      "value": "powdered peas and an animal hoof"
    },
    "sr": false,
    "shortDescription": "<p><i>Acid fog</i> creates a billowing mass of misty vapors like the <i>solid fog</i> spell. In addition to slowing down creatures and obscuring sight, this spell's vapors are highly acidic. Each round on your turn, starting when you cast the spell, the fog deals 2d6 points of acid damage to each creature and object within it.</p>"
  }
}
