{
  "_id": "b5wntsqynqa2xb34",
  "name": "Adjustable Disguise",
  "type": "spell",
  "img": "systems/pf1/icons/misc/magic-swirl.png",
  "system": {
    "actions": [
      {
        "_id": "d6ndvh14t75xl4c0",
        "name": "Use",
        "img": "systems/pf1/icons/misc/magic-swirl.png",
        "activation": {
          "type": "standard",
          "unchained": {
            "cost": 2,
            "type": "action"
          }
        },
        "duration": {
          "value": "10 minutes/level (D)"
        },
        "target": {
          "value": "you"
        },
        "range": {
          "units": "personal"
        },
        "actionType": ""
      }
    ],
    "learnedAt": {
      "class": {
        "sorcerer": 3,
        "wizard": 3,
        "bard": 3,
        "alchemist": 3,
        "witch": 3,
        "inquisitor": 3,
        "antipaladin": 3,
        "psychic": 3,
        "medium": 3,
        "mesmerist": 3,
        "occultist": 3
      }
    },
    "level": 3,
    "school": "ill",
    "subschool": "glamer",
    "components": {
      "verbal": true,
      "somatic": true
    },
    "sr": false,
    "shortDescription": "<p>This spell functions as <i><i>disguise</i> self</i>, except as a swift action you can alter the <i>disguise</i> (within the limitations of <i><i>disguise</i> self</i>). For example, you could make yourself look like a young human city guard, then an old elven wizard of the opposite gender, then a halfling thief, and so on. You can change the <i>disguise</i> a number of times equal to your caster level.</p>"
  }
}
