{
  "_id": "08xy2b3uqmw3qn95",
  "name": "Air Breathing",
  "type": "spell",
  "img": "systems/pf1/icons/misc/magic-swirl.png",
  "system": {
    "actions": [
      {
        "_id": "uet79kgpvhixf8qh",
        "name": "Use",
        "img": "systems/pf1/icons/misc/magic-swirl.png",
        "activation": {
          "type": "standard",
          "unchained": {
            "cost": 2,
            "type": "action"
          }
        },
        "duration": {
          "value": "2 hours/level; see text"
        },
        "target": {
          "value": "living aquatic creatures touched"
        },
        "range": {
          "units": "touch"
        },
        "actionType": "spellsave",
        "save": {
          "type": "will",
          "description": "Will negates (harmless)"
        }
      }
    ],
    "learnedAt": {
      "class": {
        "sorcerer": 3,
        "wizard": 3,
        "cleric": 3,
        "oracle": 3,
        "druid": 3,
        "alchemist": 3,
        "summoner": 3,
        "magus": 3,
        "bloodrager": 3,
        "shaman": 3,
        "psychic": 3,
        "hunter": 3,
        "unchained Summoner": 3
      }
    },
    "level": 3,
    "school": "trs",
    "components": {
      "verbal": true,
      "somatic": true,
      "material": true,
      "divineFocus": 2
    },
    "materials": {
      "value": "flower or piece of grass"
    },
    "shortDescription": "<p>The transmuted creatures can breathe air freely. Divide the duration evenly among all the creatures you touch. The spell doesn't make creatures unable to breathe water.</p>"
  }
}
