{
  "_id": "hotnncd59q6q6t9z",
  "name": "Alchemical Tinkering",
  "type": "spell",
  "img": "systems/pf1/icons/misc/magic-swirl.png",
  "system": {
    "actions": [
      {
        "_id": "9fyvxv2b8gqgh2yx",
        "name": "Use",
        "img": "systems/pf1/icons/misc/magic-swirl.png",
        "activation": {
          "type": "standard",
          "unchained": {
            "cost": 2,
            "type": "action"
          }
        },
        "duration": {
          "value": "1 minute/level"
        },
        "target": {
          "value": "firearm or alchemical item touched"
        },
        "range": {
          "units": "touch"
        },
        "actionType": "spellsave",
        "save": {
          "type": "fort",
          "description": "Fortitude negates (object)"
        }
      }
    ],
    "learnedAt": {
      "class": {
        "sorcerer": 1,
        "wizard": 1,
        "cleric": 2,
        "oracle": 2,
        "witch": 1
      }
    },
    "school": "trs",
    "components": {
      "verbal": true,
      "somatic": true
    },
    "shortDescription": "<p>You transform one alchemical item or firearm into another alchemical item or firearm of the same or lesser cost. Magic items are unaffected by this spell. At the end of the spell's duration, alchemical items used while transformed are destroyed and do not return to a usable state and firearms transformed revert back to their original type.</p>"
  }
}
