{
  "_id": "wr9t8oyqfq9qjpvb",
  "name": "Alluring Spores",
  "type": "spell",
  "img": "systems/pf1/icons/misc/magic-swirl.png",
  "system": {
    "actions": [
      {
        "_id": "1it8zqzbiap0hw65",
        "name": "Use",
        "img": "systems/pf1/icons/misc/magic-swirl.png",
        "activation": {
          "type": "standard",
          "unchained": {
            "cost": 2,
            "type": "action"
          }
        },
        "duration": {
          "value": "1 minute/level"
        },
        "range": {
          "units": "medium"
        },
        "actionType": "spellsave",
        "save": {
          "type": "fort",
          "description": "Fortitude negates"
        },
        "spellArea": "20-ft.-radius spread"
      }
    ],
    "learnedAt": {
      "class": {
        "druid": 2,
        "witch": 2,
        "shaman": 2,
        "hunter": 2
      }
    },
    "level": 2,
    "school": "con",
    "subschool": "creation",
    "components": {
      "verbal": true,
      "somatic": true,
      "material": true,
      "divineFocus": 2
    },
    "materials": {
      "value": "a clump of pollen"
    },
    "shortDescription": "<p>This spell creates a burst of spores that weaken the mind. Creatures within the area must succeed at a Fortitude save or take a -1 penalty on saving throws against your enchantment spells or effects for the duration of this spell. This penalty increases to -2 for any creature that is (or could be) sexually attracted to you.</p>"
  }
}
