{
  "_id": "8jrtvmhydudy7fks",
  "name": "Angelic Aspect",
  "type": "spell",
  "img": "systems/pf1/icons/misc/magic-swirl.png",
  "system": {
    "actions": [
      {
        "_id": "frij8g0r2m9vn0so",
        "name": "Use",
        "img": "systems/pf1/icons/misc/magic-swirl.png",
        "activation": {
          "type": "standard",
          "unchained": {
            "cost": 2,
            "type": "action"
          }
        },
        "duration": {
          "value": "1 minute/level (D)"
        },
        "target": {
          "value": "you"
        },
        "range": {
          "units": "personal"
        },
        "actionType": ""
      }
    ],
    "learnedAt": {
      "class": {
        "sorcerer": 5,
        "wizard": 5,
        "cleric": 5,
        "oracle": 5,
        "paladin": 3
      }
    },
    "level": 5,
    "school": "trs",
    "types": "good",
    "components": {
      "verbal": true,
      "somatic": true
    },
    "sr": false,
    "shortDescription": "<p>This spell functions like <i>lesser angelic aspect</i>, except you gain low-light vision, darkvision 60, resistance to acid 10, resistance to cold 10, and DR 5/evil, and you sprout white feathered wings allowing you to fly at a speed of 30 feet with average maneuverability. In addition, your natural weapons and any weapons you wield are considered good-aligned for the purpose of overcoming damage reduction.</p>"
  }
}
