{
  "_id": "0uxs1dj28glc9o8i",
  "name": "Aphasia",
  "type": "spell",
  "img": "systems/pf1/icons/misc/magic-swirl.png",
  "system": {
    "actions": [
      {
        "_id": "3zr9xd8x305jqlfi",
        "name": "Use",
        "img": "systems/pf1/icons/misc/magic-swirl.png",
        "activation": {
          "type": "standard",
          "unchained": {
            "cost": 2,
            "type": "action"
          }
        },
        "duration": {
          "value": "1 round/level"
        },
        "target": {
          "value": "one creature"
        },
        "range": {
          "units": "close"
        },
        "actionType": "spellsave",
        "save": {
          "type": "will",
          "description": "Will negates (see text)"
        }
      }
    ],
    "learnedAt": {
      "class": {
        "sorcerer": 1,
        "wizard": 1,
        "bard": 1,
        "witch": 1,
        "psychic": 1,
        "mesmerist": 1
      }
    },
    "school": "enc",
    "subschool": "compulsion",
    "types": "mind-affecting",
    "components": {
      "verbal": true,
      "somatic": true
    },
    "shortDescription": "<p>You render the target unable to understand any language, including spoken language, written language, sign language, gestures attempting to mimic a crude language, or even truespeech and telepathy. The affected creature is unable to communicate, use command words, cast spells with verbal components, or use any other abilities that requires language.  At the end of each of its turns, the subject can attempt a new saving throw to end the effect. <i>Tongues</i> counters and dispels <i>aphasia</i>, and a creature with the <i>tongues</i> spell active is immune to <i>aphasia</i>. Oracles with the <i>tongues</i> curse ignore <i>aphasia</i> in combat.</p>"
  }
}
