{
  "_id": "h7rhr6ypokvjssb4",
  "name": "Banshee Blast",
  "type": "spell",
  "img": "systems/pf1/icons/misc/magic-swirl.png",
  "system": {
    "actions": [
      {
        "_id": "zmk1gh86stxgq4za",
        "name": "Use",
        "img": "systems/pf1/icons/misc/magic-swirl.png",
        "activation": {
          "type": "standard",
          "unchained": {
            "cost": 2,
            "type": "action"
          }
        },
        "duration": {
          "value": "instantaneous and 1 round/level (see text)"
        },
        "range": {
          "value": "30",
          "units": "ft"
        },
        "actionType": "spellsave",
        "save": {
          "type": "ref",
          "description": "Reflex half and Will negates (see text)"
        },
        "spellArea": "cone-shaped burst"
      }
    ],
    "learnedAt": {
      "class": {
        "sorcerer": 6,
        "wizard": 6,
        "witch": 6,
        "spiritualist": 6
      }
    },
    "level": 6,
    "school": "nec",
    "types": "death, fear, mind-affecting, sonic",
    "components": {
      "verbal": true,
      "somatic": true
    },
    "shortDescription": "<p>You create a cone of spectral energy resembling screaming elven ghosts that deals 1d4 points of damage per caster level (maximum 15d4); a successful Reflex save halves this damage. Any creature that fails its Reflex save must succeed at a Will save or become panicked for 1 round/level.</p>"
  }
}
