{
  "_id": "b7cjr9x4kqnq9o0l",
  "name": "Barghest Feast",
  "type": "spell",
  "img": "systems/pf1/icons/misc/magic-swirl.png",
  "system": {
    "actions": [
      {
        "_id": "mgw8hzmvgzh50qkt",
        "name": "Use",
        "img": "systems/pf1/icons/misc/magic-swirl.png",
        "activation": {
          "type": "standard",
          "unchained": {
            "cost": 2,
            "type": "action"
          }
        },
        "duration": {
          "value": "10 minutes/level; see text"
        },
        "target": {
          "value": "creature touched"
        },
        "range": {
          "units": "touch"
        },
        "actionType": "spellsave",
        "save": {
          "type": "will",
          "description": "Will negates (harmless)"
        }
      }
    ],
    "learnedAt": {
      "class": {
        "alchemist": 3
      }
    },
    "level": 3,
    "school": "trs",
    "types": "evil",
    "components": {
      "somatic": true
    },
    "shortDescription": "<p>The target gains the ability to absorb power from devouring a humanoid corpse. To use this ability, the target must feed on the corpse of one nonevil humanoid creature, a process that takes 1 full round per Hit Die the creature had and provokes attacks of opportunity. For every 2 rounds it feeds on the corpse in this way, the target gains a +1 profane bonus on attack rolls, saving throws, and skill checks (to a maximum of +5).</p>"
  }
}
