{
  "_id": "dd8afygrpxpothn7",
  "name": "Beacon of Luck",
  "type": "spell",
  "img": "systems/pf1/icons/misc/magic-swirl.png",
  "system": {
    "actions": [
      {
        "_id": "0r0pvv8j1ip0viqu",
        "name": "Use",
        "img": "systems/pf1/icons/misc/magic-swirl.png",
        "activation": {
          "type": "standard",
          "unchained": {
            "cost": 2,
            "type": "action"
          }
        },
        "duration": {
          "value": "1 minute/level (D)"
        },
        "target": {
          "value": "you"
        },
        "range": {
          "units": "personal"
        },
        "actionType": ""
      }
    ],
    "learnedAt": {
      "class": {
        "cleric": 3,
        "oracle": 3,
        "bard": 3,
        "paladin": 4,
        "inquisitor": 4
      }
    },
    "level": 3,
    "school": "div",
    "components": {
      "verbal": true,
      "somatic": true,
      "material": true,
      "divineFocus": 2
    },
    "materials": {
      "value": "a tuft of rabbit fur"
    },
    "sr": false,
    "shortDescription": "<p>You send out a burst of luck with a 30-foot radius centered around you. While the <i>Beacon of Luck</i> is in effect, you gain a +2 sacred bonus on all saving throws. As an immediate action before a saving throw is made, allies within the area can choose to benefit from this luck, rolling twice for a saving throw and taking the better result. Once a creature benefits from the <i>Beacon of Luck</i> in this way, it cannot gain the benefit of this spell for 24 hours.</p>"
  }
}
