{
  "_id": "oyb99lofcbd21vk2",
  "name": "Bestow Planar Infusion III",
  "type": "spell",
  "img": "systems/pf1/icons/misc/magic-swirl.png",
  "system": {
    "actions": [
      {
        "_id": "3xqubzgmvh6a5ox3",
        "name": "Use",
        "img": "systems/pf1/icons/misc/magic-swirl.png",
        "activation": {
          "type": "standard",
          "unchained": {
            "cost": 2,
            "type": "action"
          }
        },
        "duration": {
          "value": "1 hour/level"
        },
        "target": {
          "value": "creature touched"
        },
        "range": {
          "units": "touch"
        },
        "actionType": "spellsave",
        "save": {
          "type": "fort",
          "description": "Fortitude negates (harmless)"
        }
      }
    ],
    "learnedAt": {
      "class": {
        "sorcerer": 7,
        "wizard": 7,
        "cleric": 7,
        "oracle": 7,
        "witch": 7,
        "psychic": 7
      }
    },
    "level": 7,
    "school": "evo",
    "components": {
      "verbal": true,
      "somatic": true
    },
    "shortDescription": "<p>This functions as <i>bestow planar infusion I</i>, except that the touched creature gains the greater infusion of the current plane.</p>"
  }
}
