{
  "_id": "b2y7l4cronnp5zls",
  "name": "Betraying Sting",
  "type": "spell",
  "img": "systems/pf1/icons/misc/magic-swirl.png",
  "system": {
    "actions": [
      {
        "_id": "xgymigugaqj9tey4",
        "name": "Use",
        "img": "systems/pf1/icons/misc/magic-swirl.png",
        "activation": {
          "type": "standard",
          "unchained": {
            "cost": 2,
            "type": "action"
          }
        },
        "duration": {
          "value": "instantaneous"
        },
        "target": {
          "value": "one creature"
        },
        "range": {
          "units": "long"
        },
        "actionType": "spellsave",
        "save": {
          "type": "will",
          "description": "Will partial"
        }
      }
    ],
    "learnedAt": {
      "class": {
        "cleric": 6,
        "oracle": 6,
        "witch": 6,
        "shaman": 6,
        "psychic": 6,
        "occultist": 6
      }
    },
    "level": 6,
    "school": "evo",
    "components": {
      "verbal": true
    },
    "shortDescription": "<p>You unleash divine power to smite those who wrongly trusted you. The power takes the form of a yellow-and-black bolt of energy that makes the sound of a thousand angry, swarming wasps. This spell affects only creatures that have an attitude toward you of indifferent, friendly, or helpful. The spell deals 1d8 points of damage per 2 caster levels you have.</p>"
  }
}
