{
  "_id": "272szq5d556toqgc",
  "name": "Blessing of Courage and Life",
  "type": "spell",
  "img": "systems/pf1/icons/misc/magic-swirl.png",
  "system": {
    "actions": [
      {
        "_id": "fhgrix5jnr6b2lu2",
        "name": "Use",
        "img": "systems/pf1/icons/misc/magic-swirl.png",
        "activation": {
          "type": "standard",
          "unchained": {
            "cost": 2,
            "type": "action"
          }
        },
        "duration": {
          "value": "1 minute/level (see below)"
        },
        "target": {
          "value": "one living creature"
        },
        "range": {
          "units": "close"
        },
        "actionType": "heal",
        "save": {
          "type": "will",
          "description": "Will negates (harmless)"
        }
      }
    ],
    "learnedAt": {
      "class": {
        "cleric": 2,
        "oracle": 2,
        "paladin": 2
      }
    },
    "level": 2,
    "school": "con",
    "subschool": "healing",
    "types": "emotion",
    "components": {
      "verbal": true,
      "somatic": true,
      "divineFocus": 1
    },
    "shortDescription": "<p>With this prayer you provide long-lasting succor to a wounded creature. For as long as the effect lasts, the target receives a +2 morale bonus on saving throws against fear and death effects.</p><p>At any time while the spell is in effect, the target can choose to end the spell as a swift action for a burst of healing energy. The target loses the saving throw bonus, but is healed of 1d8 points of damage +1 point per caster level (maximum +10).</p>"
  }
}
