{
  "_id": "miz7g08q96mwwwel",
  "name": "Break",
  "type": "spell",
  "img": "systems/pf1/icons/misc/magic-swirl.png",
  "system": {
    "actions": [
      {
        "_id": "ulwcyup5popfiixu",
        "name": "Use",
        "img": "systems/pf1/icons/misc/magic-swirl.png",
        "activation": {
          "type": "standard",
          "unchained": {
            "cost": 2,
            "type": "action"
          }
        },
        "duration": {
          "value": "instantaneous"
        },
        "target": {
          "value": "one Medium or smaller object"
        },
        "range": {
          "units": "close"
        },
        "actionType": "spellsave",
        "save": {
          "type": "fort",
          "description": "Fortitude negates (object)"
        }
      }
    ],
    "learnedAt": {
      "class": {
        "sorcerer": 1,
        "wizard": 1,
        "bloodrager": 1,
        "psychic": 1,
        "occultist": 1
      }
    },
    "school": "trs",
    "components": {
      "verbal": true,
      "somatic": true,
      "material": true
    },
    "materials": {
      "value": "a twig"
    },
    "shortDescription": "<p>You can attempt to break or at least damage any one Medium or smaller object within range. If the target fails its Fortitude saving throw, it gains the broken condition. If cast on a broken item, that item is destroyed on a failed save.</p>"
  }
}
