{
  "_id": "ezi3imjaq36895zy",
  "name": "Brightest Light",
  "type": "spell",
  "img": "systems/pf1/icons/misc/magic-swirl.png",
  "system": {
    "actions": [
      {
        "_id": "6brn2nstkabcxnwj",
        "name": "Use",
        "img": "systems/pf1/icons/misc/magic-swirl.png",
        "activation": {
          "type": "standard",
          "unchained": {
            "cost": 2,
            "type": "action"
          }
        },
        "duration": {
          "value": "1 hour/level (D)"
        },
        "target": {
          "value": "object touched"
        },
        "range": {
          "units": "touch"
        },
        "actionType": ""
      }
    ],
    "learnedAt": {
      "class": {
        "sorcerer": 4,
        "wizard": 4,
        "cleric": 4,
        "oracle": 4,
        "druid": 4,
        "ranger": 4,
        "bard": 4,
        "paladin": 4,
        "inquisitor": 4,
        "magus": 4,
        "shaman": 4,
        "occultist": 4,
        "hunter": 4
      }
    },
    "level": 4,
    "school": "evo",
    "types": "light",
    "components": {
      "verbal": true,
      "somatic": true
    },
    "sr": false,
    "shortDescription": "<p>This trademark spell of the Lantern Bearers functions as <i>daylight</i>, except it lasts longer. In addition, as a swift action once during the spell's duration, you can will the light to try to end a magical darkness effect located within 60 feet of the light this spell emits. Attempt a dispel check (1d20 + your caster level), with a DC equal to 11 + the caster level of the darkness effect. If you succeed, the darkness effect ends. Regardless of whether you are successful, the light from this spell dims to the brightness of a torch for the spell's remaining duration.</p>"
  }
}
