{
  "_id": "mdwmwiy6encq28m4",
  "name": "Charnel House",
  "type": "spell",
  "img": "systems/pf1/icons/misc/magic-swirl.png",
  "system": {
    "actions": [
      {
        "_id": "v407bjxlatcno060",
        "name": "Use",
        "img": "systems/pf1/icons/misc/magic-swirl.png",
        "activation": {
          "cost": 10,
          "type": "minute",
          "unchained": {
            "cost": 10,
            "type": "minute"
          }
        },
        "duration": {
          "value": "10 minutes/level"
        },
        "range": {
          "units": "close"
        },
        "actionType": "spellsave",
        "save": {
          "type": "will",
          "description": "Will partial"
        },
        "spellArea": "20-ft. cube (S)"
      }
    ],
    "learnedAt": {
      "class": {
        "sorcerer": 5,
        "wizard": 5,
        "cleric": 5,
        "oracle": 5,
        "witch": 5,
        "antipaladin": 3,
        "psychic": 5,
        "mesmerist": 5
      }
    },
    "level": 5,
    "school": "ill",
    "subschool": "shadow",
    "types": "evil, shadow",
    "components": {
      "verbal": true,
      "somatic": true,
      "material": true
    },
    "materials": {
      "value": "one Tiny or larger living creature"
    },
    "sr": false,
    "shortDescription": "<p>By sacrificing a living creature, you create the grisly illusion of viscera and gore splattered about the nearby area. When the casting time is complete, the walls drip with blood and the floor is slick with unidentifiable lumps of meat and other signs of a massacre. Anyone entering the area must attempt a Will save or be sickened for 1d6 rounds. This is a mind-affecting effect. If a creature succeeds at its save, it can see the semi-real nature of the illusion.  The room itself is covered in a layer of slippery, semi-real gore. Any creature attempting to walk within or through the area of gore can move at half normal speed with a DC 10 Acrobatics check. Failure means it can't move that round, and failure by 5 or more means it falls prone (see the Acrobatics skill for details). Creatures that don't move on their turns don't need to attempt this check and are not considered flat-footed. A creature that succeeded at its Will save gains a +5 bonus on the Acrobatics check.</p>"
  }
}
