{
  "_id": "wrh3m8ad4l8sbisc",
  "name": "Deflect Blame",
  "type": "spell",
  "img": "systems/pf1/icons/misc/magic-swirl.png",
  "system": {
    "actions": [
      {
        "_id": "dgm1p1be237hja7f",
        "name": "Use",
        "img": "systems/pf1/icons/misc/magic-swirl.png",
        "activation": {
          "type": "immediate",
          "unchained": {
            "type": "reaction"
          }
        },
        "duration": {
          "value": "instantaneous"
        },
        "target": {
          "value": "one creature"
        },
        "range": {
          "units": "close"
        },
        "actionType": "spellsave",
        "save": {
          "type": "will",
          "description": "Will negates"
        }
      }
    ],
    "learnedAt": {
      "class": {
        "sorcerer": 3,
        "wizard": 3,
        "bard": 2,
        "psychic": 2,
        "mesmerist": 2
      }
    },
    "level": 3,
    "school": "enc",
    "subschool": "compulsion",
    "types": "mind-affecting",
    "components": {
      "verbal": true,
      "somatic": true
    },
    "shortDescription": "<p>You can cast this spell immediately after attacking a creature, causing that creature to believe that a different creature that threatens it was responsible for the attack rather than you. You can instead cast this spell immediately after a failed Bluff, Diplomacy, or Intimidate check, causing the target of that check to believe that a different creature you designate within spell range was responsible for the content of that failed check. Using the spell in these ways doesn't compel the target to undertake a specific action in response to its belief of where the blame lies.</p>"
  }
}
