{
  "_id": "l7e01shgg8c44zfg",
  "name": "Delay Poison",
  "type": "spell",
  "img": "systems/pf1/icons/misc/magic-swirl.png",
  "system": {
    "actions": [
      {
        "_id": "xbblcxu6xmdb6aix",
        "name": "Use",
        "img": "systems/pf1/icons/misc/magic-swirl.png",
        "activation": {
          "type": "standard",
          "unchained": {
            "cost": 2,
            "type": "action"
          }
        },
        "duration": {
          "value": "1 hour/level"
        },
        "target": {
          "value": "creature touched"
        },
        "range": {
          "units": "touch"
        },
        "actionType": "heal",
        "save": {
          "type": "fort",
          "description": "Fortitude negates (harmless)"
        }
      }
    ],
    "learnedAt": {
      "class": {
        "cleric": 2,
        "oracle": 2,
        "druid": 2,
        "ranger": 1,
        "bard": 2,
        "paladin": 2,
        "alchemist": 2,
        "witch": 2,
        "inquisitor": 2,
        "adept": 2,
        "shaman": 2,
        "mesmerist": 2,
        "occultist": 2,
        "hunter": 1
      },
      "bloodline": {
        "Serpentine": 2
      }
    },
    "level": 2,
    "school": "con",
    "subschool": "healing",
    "components": {
      "verbal": true,
      "somatic": true,
      "divineFocus": 1
    },
    "shortDescription": "<p>The subject becomes temporarily immune to poison. Any poison in its system or any poison to which it is exposed during the spell's duration does not affect the subject until the spell's duration has expired. <i>Delay poison</i> does not cure any damage that poison may have already done.</p>"
  }
}
