{
  "_id": "o4M6v7BjXzvzrTec",
  "name": "Demon Dream",
  "type": "spell",
  "img": "icons/magic/perception/eye-ringed-glow-angry-large-teal.webp",
  "system": {
    "actions": [
      {
        "_id": "84hyc8bi93nz4l74",
        "name": "Use",
        "img": "icons/magic/perception/eye-ringed-glow-angry-large-teal.webp",
        "activation": {
          "type": "special"
        },
        "duration": {
          "value": "see text"
        },
        "target": {
          "value": "one living creature"
        },
        "range": {
          "units": "unlimited"
        },
        "uses": {
          "autoDeductChargesCost": "1 + @sl"
        },
        "actionType": "spellsave",
        "save": {
          "description": "see text"
        }
      }
    ],
    "learnedAt": {
      "class": {
        "cleric": 6,
        "oracle": 6,
        "warpriest": 6
      }
    },
    "school": "ill",
    "subschool": "phantasm",
    "types": "evil, mind-affecting",
    "components": {
      "verbal": true,
      "somatic": true,
      "divineFocus": 1
    },
    "spellbook": "",
    "shortDescription": "<p>When the target of <em>demon dream</em> is a worshiper of a demon lord or Lamashtu, the caster has the option of making the spell function instead as a @Compendium[pf1.spells.ifcnx1yyw6e7ousm]{Dream} spell. Otherwise, this spell functions like @Compendium[pf1.spells.siv3ub7hbmcklf8c]{Nightmare} (see <em>Pathfinder RPG Core Rulebook 316</em>), save that the subject matter of the dream always involves demons. Upon waking from a <em>demon dream</em>, the victim must make a saving throw against the spell to resist taking 1d6 points of Wisdom drain from the unsettling, madness- inducing dream — this is in addition to the damage and fatigue normally caused by the <em>nightmare</em>.</p>"
  }
}
