{
  "_id": "spt9bts9a7fa8j7b",
  "name": "Detect Desires",
  "type": "spell",
  "img": "systems/pf1/icons/misc/magic-swirl.png",
  "system": {
    "actions": [
      {
        "_id": "ek6a4f0hlk2z6uyr",
        "name": "Use",
        "img": "systems/pf1/icons/misc/magic-swirl.png",
        "activation": {
          "type": "standard",
          "unchained": {
            "cost": 2,
            "type": "action"
          }
        },
        "duration": {
          "value": "concentration, up to 1 minute/level (D)"
        },
        "range": {
          "value": "60",
          "units": "ft"
        },
        "actionType": "spellsave",
        "save": {
          "type": "will",
          "description": "Will negates (see text)"
        },
        "spellArea": "cone-shaped emanation"
      }
    ],
    "learnedAt": {
      "class": {
        "sorcerer": 3,
        "wizard": 3,
        "cleric": 3,
        "oracle": 3,
        "bard": 2,
        "paladin": 3,
        "witch": 3,
        "inquisitor": 3,
        "antipaladin": 2,
        "psychic": 2,
        "medium": 2,
        "mesmerist": 3,
        "spiritualist": 3
      }
    },
    "level": 3,
    "school": "div",
    "types": "mind-affecting",
    "components": {
      "verbal": true,
      "somatic": true,
      "focus": true,
      "divineFocus": 3
    },
    "materials": {
      "focus": "a medallion"
    },
    "sr": false,
    "shortDescription": "<p>This spell functions as per <i>detect thoughts</i>, except you sense significant desires of creatures with an Intelligence score of 1 or higher, regardless of whether they are conscious or not.  Instead of Intelligence, the second round of concentration reveals each mind's Charisma score. If the highest Charisma score is 26 or higher (and at least 10 points higher than your own Charisma score), you are stunned for 1 round and the spell ends.  Instead of surface thoughts, the third round of concentration reveals the most pressing current desire of any mind in the area (Will negates).  Presenting a creature with an opportunity to fulfill a significant desire grants you a +2 circumstance bonus (or higher, at the GM's discretion) on Diplomacy checks to influence it.</p>"
  }
}
