{
  "_id": "13pilcgm2oydyogv",
  "name": "Disfiguring Touch",
  "type": "spell",
  "img": "systems/pf1/icons/misc/magic-swirl.png",
  "system": {
    "actions": [
      {
        "_id": "ujcr6ppwk9jg7k7y",
        "name": "Use",
        "img": "systems/pf1/icons/misc/magic-swirl.png",
        "activation": {
          "type": "standard",
          "unchained": {
            "cost": 2,
            "type": "action"
          }
        },
        "duration": {
          "value": "1 day/level"
        },
        "target": {
          "value": "creature touched"
        },
        "range": {
          "units": "touch"
        },
        "actionType": "spellsave",
        "save": {
          "type": "will",
          "description": "Will negates"
        }
      }
    ],
    "learnedAt": {
      "class": {
        "sorcerer": 2,
        "wizard": 2,
        "cleric": 2,
        "oracle": 2,
        "witch": 2,
        "bloodrager": 2,
        "psychic": 2,
        "mesmerist": 2,
        "occultist": 2,
        "spiritualist": 2
      }
    },
    "level": 2,
    "school": "trs",
    "types": "curse",
    "components": {
      "verbal": true,
      "somatic": true
    },
    "shortDescription": "<p>With a touch, you cause the victim of this spell to suffer a painful curse that causes it to grow hideously disfigured. The physical appearance of the deformity is subject to the caster's whim (most demon worshipers choose deformities that reflect their Abyssal patron's shape or form). The target takes one of the following penalties. <ul><li> -2 decrease to an ability score (minimum 1). <li> -2 penalty on attack rolls or saving throws. <li> Land speed reduced by 5 feet.  You may also invent other effects, but they should be no more powerful than those described above.</ul></p>"
  }
}
