{
  "_id": "xgv1e2ayf1e0br9j",
  "name": "Dispel Good",
  "type": "spell",
  "img": "systems/pf1/icons/misc/magic-swirl.png",
  "system": {
    "actions": [
      {
        "_id": "vvds8l02sffg6tsj",
        "name": "Use",
        "img": "systems/pf1/icons/misc/magic-swirl.png",
        "activation": {
          "type": "standard",
          "unchained": {
            "cost": 2,
            "type": "action"
          }
        },
        "duration": {
          "value": "1 round/level or until discharged, whichever comes first"
        },
        "target": {
          "value": "you and a touched good creature from another plane, or you and an enchantment or good spell on a touched creature or object"
        },
        "range": {
          "units": "touch"
        },
        "actionType": "spellsave",
        "save": {
          "description": "see text"
        }
      }
    ],
    "learnedAt": {
      "class": {
        "cleric": 5,
        "oracle": 5,
        "inquisitor": 5,
        "antipaladin": 4,
        "shaman": 5
      },
      "domain": {
        "Evil": 5
      }
    },
    "level": 5,
    "school": "abj",
    "types": "evil",
    "components": {
      "verbal": true,
      "somatic": true,
      "divineFocus": 1
    },
    "sr": false,
    "shortDescription": "<p>This spell functions like <i>dispel evil</i>, except that you are surrounded by dark, wavering unholy energy, and the spell affects good creatures and spells rather than evil ones.</p>"
  }
}
