{
  "_id": "r190q9zxmei82lmv",
  "name": "Displacement",
  "type": "spell",
  "img": "systems/pf1/icons/misc/magic-swirl.png",
  "system": {
    "actions": [
      {
        "_id": "qcvoht7cqfciim17",
        "name": "Use",
        "img": "systems/pf1/icons/misc/magic-swirl.png",
        "activation": {
          "type": "standard",
          "unchained": {
            "cost": 2,
            "type": "action"
          }
        },
        "duration": {
          "value": "1 round/level"
        },
        "target": {
          "value": "creature touched"
        },
        "range": {
          "units": "touch"
        },
        "actionType": "spellsave",
        "save": {
          "type": "will",
          "description": "Will negates (harmless)"
        }
      }
    ],
    "learnedAt": {
      "class": {
        "sorcerer": 3,
        "wizard": 3,
        "bard": 3,
        "alchemist": 3,
        "summoner": 3,
        "magus": 3,
        "psychic": 3,
        "medium": 3,
        "mesmerist": 3,
        "occultist": 3,
        "spiritualist": 3,
        "unchained Summoner": 3
      },
      "subDomain": {
        "Protean": 3
      }
    },
    "level": 3,
    "school": "ill",
    "subschool": "glamer",
    "components": {
      "verbal": true,
      "material": true
    },
    "materials": {
      "value": "a small loop of leather"
    },
    "shortDescription": "<p>The subject of this spell appears to be about 2 feet away from its true location. The creature benefits from a 50% miss chance as if it had total concealment. Unlike actual total concealment, <i>displacement</i> does not prevent enemies from targeting the creature normally. <i>True seeing</i> reveals its true location and negates the miss chance.</p>"
  }
}
