{
  "_id": "0yvwyclhkf76veo1",
  "name": "Divine Power",
  "type": "spell",
  "img": "systems/pf1/icons/misc/magic-swirl.png",
  "system": {
    "actions": [
      {
        "_id": "1hien23tvlpn1grr",
        "name": "Use",
        "img": "systems/pf1/icons/misc/magic-swirl.png",
        "activation": {
          "type": "standard",
          "unchained": {
            "cost": 2,
            "type": "action"
          }
        },
        "duration": {
          "value": "1 round/level"
        },
        "target": {
          "value": "you"
        },
        "range": {
          "units": "personal"
        },
        "actionType": ""
      }
    ],
    "learnedAt": {
      "class": {
        "cleric": 4,
        "oracle": 4,
        "inquisitor": 4,
        "shaman": 4
      },
      "domain": {
        "War": 4
      }
    },
    "level": 4,
    "school": "evo",
    "components": {
      "verbal": true,
      "somatic": true,
      "divineFocus": 1
    },
    "sr": false,
    "shortDescription": "<p>Calling upon the divine power of your patron, you imbue yourself with strength and skill in combat. You gain a +1 luck bonus on attack rolls, weapon damage rolls, Strength checks, and Strength-based skill checks for every three caster levels you have (maximum +6). You also gain 1 temporary hit point per caster level. Whenever you make a full-attack action, you can make an additional attack at your full base attack bonus, plus any appropriate modifiers. This additional attack is not cumulative with similar effects, such as <i>haste</i> or weapons with the speed special ability.</p>"
  }
}
