{
  "_id": "6qz8muutqwyfp1mq",
  "name": "Elemental Mastery",
  "type": "spell",
  "img": "systems/pf1/icons/misc/magic-swirl.png",
  "system": {
    "actions": [
      {
        "_id": "4rre7jpgm24qe3df",
        "name": "Use",
        "img": "systems/pf1/icons/misc/magic-swirl.png",
        "activation": {
          "type": "standard",
          "unchained": {
            "cost": 2,
            "type": "action"
          }
        },
        "duration": {
          "value": "1 minute/level"
        },
        "target": {
          "value": "you"
        },
        "range": {
          "units": "personal"
        },
        "actionType": ""
      }
    ],
    "learnedAt": {
      "class": {
        "sorcerer": 4,
        "wizard": 4,
        "druid": 4,
        "ranger": 4,
        "magus": 4,
        "bloodrager": 4,
        "hunter": 4
      }
    },
    "level": 4,
    "school": "trs",
    "types": "see text",
    "components": {
      "verbal": true,
      "somatic": true
    },
    "sr": false,
    "shortDescription": "<p>You gain mastery over the element matching the elemental essence in your blood (fire for ifrits, earth for oreads, air for sylphs, and water for undines). If you are a suli, you can choose any one of the four options as you cast this spell, but the duration is reduced to 1 round per level. Your mastery gives you an insight bonus to your speed or a new movement mode, depending on the element you master, and grants one additional benefit. This spell's descriptor matches the chosen element. <table border ='1'><tr><th>Element (Race)</th><th>Movement</th><th>Benefit</th></tr><tr><td>Air Fly (suli, sylph)</td><td>30 ft.</td><td>+1 circumstance bonus (average) on attack rolls when both you and your foe are airborne.</td></tr><tr><td>Earth Burrow (oread, suli)</td><td>15 ft.</td><td>+1 circumstance bonus on attack rolls when both you and your foe are touching the ground.</td></tr><tr><td>Fire (ifrit, suli)</td><td>+20 ft.</td><td>+1 circumstance bonus all speeds on attack rolls when your foe is on fire.</td></tr><tr><td>Water (suli, undine)</td><td>+30 ft.</td><td>+1 circumstance bonus swim on attack rolls when both you and your foe are touching water.</td></tr></table>"
  }
}
