{
  "_id": "z05gnmzadjhhqjwu",
  "name": "Emotive Block",
  "type": "spell",
  "img": "systems/pf1/icons/misc/magic-swirl.png",
  "system": {
    "actions": [
      {
        "_id": "3dsxei9mxygzce4o",
        "name": "Use",
        "img": "systems/pf1/icons/misc/magic-swirl.png",
        "activation": {
          "type": "standard",
          "unchained": {
            "cost": 2,
            "type": "action"
          }
        },
        "duration": {
          "value": "1 round/level (D)"
        },
        "target": {
          "value": "one creature"
        },
        "range": {
          "units": "close"
        },
        "actionType": "spellsave",
        "save": {
          "type": "will",
          "description": "Will negates"
        }
      }
    ],
    "learnedAt": {
      "class": {
        "psychic": 3,
        "mesmerist": 2,
        "spiritualist": 2
      }
    },
    "level": 3,
    "school": "enc",
    "subschool": "compulsion",
    "types": "emotion, mind-affecting",
    "components": {
      "somatic": true
    },
    "shortDescription": "<p>You create an emotional block in the target's mind, adding an emotion component to each spell or spell-like ability he uses. This is in addition to any other components the spell already requires, and doesn't replace the somatic component. The target's spell-like abilities require this emotion component, even though they normally don't need spell components.  As usual with emotion components, the target can't cast spells (or use spell-like abilities, in this case) while affected by a non-harmless emotion or fear effect.</p>"
  }
}
