{
  "_id": "b9klr16gssc2x0ab",
  "name": "Entice Fey",
  "type": "spell",
  "img": "systems/pf1/icons/misc/magic-swirl.png",
  "system": {
    "actions": [
      {
        "_id": "rzvul8lgpptcqmcz",
        "name": "Use",
        "img": "systems/pf1/icons/misc/magic-swirl.png",
        "activation": {
          "cost": 10,
          "type": "minute",
          "unchained": {
            "cost": 10,
            "type": "minute"
          }
        },
        "duration": {
          "value": "instantaneous"
        },
        "range": {
          "units": "close"
        },
        "actionType": "other",
        "spellEffect": "one or two called fey, totaling no more than 12 Hit Dice, which can't appear more than 30 ft. apart"
      }
    ],
    "learnedAt": {
      "class": {
        "druid": 7,
        "bard": 6,
        "shaman": 7
      }
    },
    "level": 7,
    "school": "con",
    "subschool": "calling",
    "components": {
      "verbal": true,
      "somatic": true,
      "material": true,
      "divineFocus": 1
    },
    "materials": {
      "value": "offerings worth 1,250 gp plus payment",
      "gpValue": 1250
    },
    "spellbook": "",
    "preparation": {
      "spontaneousPrepared": false
    },
    "sr": false,
    "shortDescription": "<p>This spell functions as @Compendium[pf1.spells.fv17a5jsmapb0wcz]{lesser entice fey}, except that the spell's whimsical calling can produce a single fey of 12 Hit Dice or less, or two fey of the same kind whose Hit Dice total no more than 12.</p>"
  }
}
