{
  "_id": "nnaspi8c7xpzejy9",
  "name": "Eroding Ray",
  "type": "spell",
  "img": "systems/pf1/icons/misc/magic-swirl.png",
  "system": {
    "actions": [
      {
        "_id": "n6qfluiwrfzfwv89",
        "name": "Use",
        "img": "systems/pf1/icons/misc/magic-swirl.png",
        "activation": {
          "type": "standard",
          "unchained": {
            "cost": 2,
            "type": "action"
          }
        },
        "duration": {
          "value": "instantaneous"
        },
        "range": {
          "units": "close"
        },
        "actionType": "rsak",
        "ability": {
          "attack": "dex"
        },
        "spellEffect": "ray"
      }
    ],
    "learnedAt": {
      "class": {
        "sorcerer": 2,
        "wizard": 2,
        "cleric": 2,
        "oracle": 2,
        "druid": 2,
        "hunter": 2
      }
    },
    "level": 2,
    "school": "trs",
    "components": {
      "verbal": true,
      "somatic": true
    },
    "sr": false,
    "shortDescription": "<p>You channel a fraction of the tumultuous ecosystem of the Hao Jin Tapestry and redirect it through your hands as a beam of deteriorating energy. You can fire one ray, plus one additional ray for every 4 levels beyond 3rd (to a maximum of three rays at 11th level). Each ray requires a ranged touch attack to hit and can target only a construct or an object. If a ray hits, the target begins to crumble, taking 2d6 points of damage. This damage ignores hardness and damage reduction.</p>"
  }
}
