{
  "_id": "bl71og1gklwncmt7",
  "name": "Faerie Fire",
  "type": "spell",
  "img": "systems/pf1/icons/misc/magic-swirl.png",
  "system": {
    "actions": [
      {
        "_id": "80mo8lin4bqh6538",
        "name": "Use",
        "img": "systems/pf1/icons/misc/magic-swirl.png",
        "activation": {
          "type": "standard",
          "unchained": {
            "cost": 2,
            "type": "action"
          }
        },
        "duration": {
          "value": "1 min./level (D)"
        },
        "range": {
          "units": "long"
        },
        "actionType": "",
        "spellArea": "creatures and objects within a 5-ft.-radius burst"
      }
    ],
    "learnedAt": {
      "class": {
        "druid": 1,
        "mesmerist": 1,
        "hunter": 1
      },
      "subDomain": {
        "Light": 1,
        "Moon": 1
      }
    },
    "school": "evo",
    "types": "light",
    "components": {
      "verbal": true,
      "somatic": true,
      "divineFocus": 1
    },
    "shortDescription": "<p>A pale glow surrounds and outlines the subjects. Outlined subjects shed light as candles. Creatures outlined by <i>faerie fire</i> take a -20 penalty on all Stealth checks. Outlined creatures do not benefit from the concealment normally provided by <i>darkness</i> (though a 2nd-level or higher magical <i>darkness</i> effect functions normally), <i>blur</i>, <i>displacement</i>, <i>invisibility</i>, or similar effects. The light is too dim to have any special effect on undead or dark-dwelling creatures vulnerable to light. The <i>faerie fire</i> can be blue, green, or violet, according to your choice at the time of casting. The <i>faerie fire</i> does not cause any harm to the objects or creatures thus outlined.</p>"
  }
}
