{
  "_id": "3ze0kso9hxff5u2f",
  "name": "False Life",
  "type": "spell",
  "img": "systems/pf1/icons/misc/magic-swirl.png",
  "system": {
    "actions": [
      {
        "_id": "r7hedq5kywfyniuq",
        "name": "Use",
        "img": "systems/pf1/icons/misc/magic-swirl.png",
        "activation": {
          "type": "standard",
          "unchained": {
            "cost": 2,
            "type": "action"
          }
        },
        "duration": {
          "value": "1 hour/level or until discharged; see text"
        },
        "target": {
          "value": "you"
        },
        "range": {
          "units": "personal"
        },
        "actionType": "heal",
        "damage": {
          "parts": [
            {
              "formula": "1d10 + min(10, @cl)",
              "type": {
                "values": ["untyped"],
                "custom": ""
              }
            }
          ]
        }
      }
    ],
    "learnedAt": {
      "class": {
        "sorcerer": 2,
        "wizard": 2,
        "alchemist": 2,
        "witch": 2,
        "bloodrager": 2,
        "shaman": 2,
        "psychic": 2,
        "medium": 2,
        "mesmerist": 2,
        "occultist": 2,
        "spiritualist": 2
      },
      "bloodline": {
        "Undead": 2
      }
    },
    "level": 2,
    "school": "nec",
    "components": {
      "verbal": true,
      "somatic": true,
      "material": true
    },
    "materials": {
      "value": "a drop of blood"
    },
    "sr": false,
    "shortDescription": "<p>You harness the power of unlife to grant yourself a limited ability to avoid death. While this spell is in effect, you gain temporary hit points equal to 1d10 + 1 per caster level (maximum +10).</p>"
  }
}
