{
  "_id": "7il67b57towi3o6w",
  "name": "Fey Form III",
  "type": "spell",
  "img": "systems/pf1/icons/misc/magic-swirl.png",
  "system": {
    "actions": [
      {
        "_id": "dyvqmf7dbh8iukwb",
        "name": "Use",
        "img": "systems/pf1/icons/misc/magic-swirl.png",
        "activation": {
          "type": "standard",
          "unchained": {
            "cost": 2,
            "type": "action"
          }
        },
        "duration": {
          "value": "1 minute/level (D)"
        },
        "target": {
          "value": "you"
        },
        "range": {
          "units": "personal"
        },
        "actionType": ""
      }
    ],
    "learnedAt": {
      "class": {
        "sorcerer": 7,
        "wizard": 7,
        "druid": 6,
        "alchemist": 6,
        "witch": 7,
        "shaman": 6,
        "hunter": 6
      }
    },
    "level": 7,
    "school": "trs",
    "subschool": "polymorph",
    "components": {
      "verbal": true,
      "somatic": true,
      "material": true
    },
    "materials": {
      "value": "a piece of the creature whose form you plan to assume"
    },
    "sr": false,
    "shortDescription": "<p>This spell functions as <i>fey form II</i> except it allows you to assume the form of a Diminutive or Huge creature of the fey type. If the form you assume has any of the following abilities, you gain those abilities: burrow speed 60 feet, climb speed 90 feet, fly speed 90 feet (good maneuverability), swim speed 90 feet, all-around vision, blindsense 60 feet, blindsight 30 feet, darkvision 90 feet, low-light vision, scent, see in darkness, tremorsense 60 feet, abduct, animated hair, bleed, blood rage, boot stomp, burn, compression, constrict, crushing leap, DR 5/cold iron, fear aura, frightful presence, grab, heavy weapons, icewalking, kneecapper, luminous, nasal spray, no shadow, oversized weapons, poison, putrid vomit, rend, rock throwing (100 feet, 2d6 damage), sound mimicry, supernatural speed, tear shadow, trackless step, trample, tree meld, undersized weapons, and woodland stride. If the creature has immunity or resistance to any energy types, you gain resistance 20 to those energy types. If the creature has immunity to mind-affecting effects or poison, you gain a +8 resistance bonus on saves against those effects. If the creature has any weaknesses, you gain those weaknesses.</p><p><b>Diminutive Fey</b>: If you assume this form, you gain a +8 size bonus to your Dexterity score and take a -4 penalty to your Strength score.</p><p><b>Huge Fey</b>: If you assume this form, you gain a +6 size bonus to your Strength and Constitution scores and take a -4 penalty to your Dexterity score.</p>"
  }
}
