{
  "_id": "91pzm8db3fbusr76",
  "name": "Final Sacrifice",
  "type": "spell",
  "img": "systems/pf1/icons/misc/magic-swirl.png",
  "system": {
    "actions": [
      {
        "_id": "n1h5iz0kv641wj5l",
        "name": "Use",
        "img": "systems/pf1/icons/misc/magic-swirl.png",
        "activation": {
          "type": "standard",
          "unchained": {
            "cost": 2,
            "type": "action"
          }
        },
        "duration": {
          "value": "instantaneous"
        },
        "target": {
          "value": "one summoned creature"
        },
        "range": {
          "units": "close"
        },
        "actionType": "spellsave",
        "save": {
          "type": "ref",
          "description": "Fortitude negates, then Reflex half (see text)"
        }
      }
    ],
    "learnedAt": {
      "class": {
        "sorcerer": 3,
        "wizard": 3,
        "cleric": 3,
        "oracle": 3,
        "summoner": 2,
        "witch": 4,
        "antipaladin": 3,
        "bloodrager": 2,
        "shaman": 3,
        "unchained Summoner": 2
      }
    },
    "level": 3,
    "school": "evo",
    "components": {
      "verbal": true,
      "somatic": true
    },
    "shortDescription": "<p>You disrupt the conjuring energies within a summoned creature, causing it to violently explode. If the target fails its Fortitude save, it is immediately slain and all creatures within 20 feet of the target take 1d4 points of damage per spell level of the  summoning spell that conjured the target. This damage is fire damage unless the target creature has the cold or water subtype, in which case it's cold damage. Creatures caught in this explosion take half damage if they succeed at their Reflex saves against this spell's DC. <i>Final sacrifice</i> can detonate a summoner's eidolon, though an eidolon receives a +4 bonus on its Fortitude save unless the spell is cast by the eidolon's own summoner. If this spell targets an eidolon, creatures within 20 feet of the eidolon take an amount of damage equal to 1d4 + 1/2 the caster level of the summoner who controlled the eidolon.</p>"
  }
}
