{
  "_id": "ph3krpxerzptnwbl",
  "name": "Flaming Sphere, Greater",
  "type": "spell",
  "img": "systems/pf1/icons/spells/fireball-red-3.jpg",
  "system": {
    "actions": [
      {
        "_id": "w901zeg0hyikdqrj",
        "name": "Use",
        "img": "systems/pf1/icons/spells/fireball-red-3.jpg",
        "activation": {
          "type": "standard",
          "unchained": {
            "cost": 2,
            "type": "action"
          }
        },
        "duration": {
          "value": "1 round/level"
        },
        "range": {
          "units": "medium"
        },
        "actionType": "spellsave",
        "save": {
          "type": "ref",
          "description": "Reflex negates (see text)"
        },
        "spellEffect": "5-ft.-diameter sphere"
      }
    ],
    "learnedAt": {
      "class": {
        "sorcerer": 4,
        "wizard": 4,
        "druid": 4,
        "magus": 4,
        "bloodrager": 4,
        "occultist": 4,
        "hunter": 4
      }
    },
    "level": 4,
    "school": "evo",
    "types": "fire",
    "components": {
      "verbal": true,
      "somatic": true,
      "material": true,
      "divineFocus": 2
    },
    "materials": {
      "value": "tallow, brimstone, and powdered iron"
    },
    "shortDescription": "<p>This spell functions as @Compendium[pf1.spells.lzos34s87qsc620l]{flaming sphere}, except that it deals 6d6 points of fire damage to any creature it strikes.</p>\n<p>Any creature that fails its save against the sphere catches on fire (see page 444 of the <em>Core</em> Rulebook). If a creature catches on fire, the DC to extinguish the flames is equal to the DC of this spell.</p>"
  }
}
