{
  "_id": "c43vz4c3e3vrsmwz",
  "name": "Fleeting Memory, Mass",
  "type": "spell",
  "img": "systems/pf1/icons/misc/magic-swirl.png",
  "system": {
    "actions": [
      {
        "_id": "96zttnq77zlgkwd6",
        "name": "Use",
        "img": "systems/pf1/icons/misc/magic-swirl.png",
        "activation": {
          "type": "standard",
          "unchained": {
            "cost": 2,
            "type": "action"
          }
        },
        "duration": {
          "value": "1 round/level (D)"
        },
        "target": {
          "value": "one creature/level, no two of which can be more than 30 ft. apart"
        },
        "range": {
          "units": "close"
        },
        "measureTemplate": {
          "type": "circle",
          "size": "15"
        },
        "actionType": "spellsave",
        "save": {
          "type": "will",
          "description": "Will partial"
        }
      }
    ],
    "learnedAt": {
      "class": {
        "sorcerer": 8,
        "wizard": 8,
        "bard": 6,
        "psychic": 7,
        "mesmerist": 5,
        "occultist": 6
      }
    },
    "level": 8,
    "school": "enc",
    "subschool": "compulsion",
    "types": "mind-affecting",
    "components": {
      "verbal": true
    },
    "shortDescription": "<p>This spell functions as <i>fleeting memory</i>, except that it affects multiple creatures.</p>"
  }
}
