{
  "_id": "vf1baze7fk1p04my",
  "name": "Fleeting Memory",
  "type": "spell",
  "img": "systems/pf1/icons/misc/magic-swirl.png",
  "system": {
    "actions": [
      {
        "_id": "uyz1jj3s5nbda2iq",
        "name": "Use",
        "img": "systems/pf1/icons/misc/magic-swirl.png",
        "activation": {
          "type": "standard",
          "unchained": {
            "cost": 2,
            "type": "action"
          }
        },
        "duration": {
          "value": "1 round/level (D)"
        },
        "target": {
          "value": "one creature"
        },
        "range": {
          "units": "close"
        },
        "actionType": "spellsave",
        "save": {
          "type": "will",
          "description": "Will partial"
        }
      }
    ],
    "learnedAt": {
      "class": {
        "sorcerer": 4,
        "wizard": 4,
        "bard": 3,
        "psychic": 3,
        "mesmerist": 2,
        "occultist": 3
      }
    },
    "level": 4,
    "school": "enc",
    "subschool": "compulsion",
    "types": "mind-affecting",
    "components": {
      "verbal": true
    },
    "shortDescription": "<p>You create a gap in the target's memory, preventing the target from remembering anything that happens from the moment you cast this spell until the moment its complete duration ends. <i>Fleeting memory</i> doesn't wipe out its target's memories until the end of its duration, so the target can remember the preceding rounds until the spell's duration ends. If the spell ends prematurely, either because you dismiss it or because it is dispelled, it disperses without affecting its target's memory.  Whether or not the target's save is successful, the target forgets that you cast a spell.</p>"
  }
}
