{
  "_id": "m6nj8x0gd1cugw6g",
  "name": "Fly, Mass",
  "type": "spell",
  "img": "systems/pf1/icons/misc/magic-swirl.png",
  "system": {
    "actions": [
      {
        "_id": "ljswimzsnir3orts",
        "name": "Use",
        "img": "systems/pf1/icons/misc/magic-swirl.png",
        "activation": {
          "type": "standard",
          "unchained": {
            "cost": 2,
            "type": "action"
          }
        },
        "duration": {
          "value": "10 minutes/level"
        },
        "target": {
          "value": "one creature/level, no two of which can be more than 30 ft. apart"
        },
        "range": {
          "units": "close"
        },
        "measureTemplate": {
          "type": "circle",
          "size": "15"
        },
        "actionType": "spellsave",
        "save": {
          "type": "will",
          "description": "Will negates (harmless)"
        }
      }
    ],
    "learnedAt": {
      "class": {
        "sorcerer": 7,
        "wizard": 7,
        "psychic": 7
      },
      "domain": {
        "Vermin": 8
      },
      "subDomain": {
        "Feather": 6
      }
    },
    "level": 7,
    "school": "trs",
    "components": {
      "verbal": true,
      "somatic": true,
      "focus": true
    },
    "materials": {
      "focus": "a wing feather"
    },
    "shortDescription": "<p>This spell functions as <i>fly</i> (<i>Core Rulebook</i> 284), save that it can target numerous creatures and lasts longer.</p>"
  }
}
