{
  "name": "Fool's Gold (AA)",
  "type": "spell",
  "img": "icons/commodities/currency/coin-inset-skull-gold.webp",
  "system": {
    "actions": [
      {
        "_id": "5TkFFJ78xCR2nPq4",
        "name": "Use",
        "img": "icons/commodities/currency/coin-inset-skull-gold.webp",
        "activation": {
          "type": "standard",
          "unchained": {
            "cost": 2,
            "type": "action"
          }
        },
        "duration": {
          "value": "10 minutes/level"
        },
        "target": {
          "value": "1 gold piece/level touched"
        },
        "range": {
          "units": "touch"
        },
        "actionType": "msak",
        "formulaicAttacks": {
          "label": ""
        },
        "save": {
          "type": "fort",
          "description": "Fortitude negates (object, see text)"
        },
        "touch": true
      }
    ],
    "uses": {
      "autoDeductChargesCost": ""
    },
    "learnedAt": {
      "class": {
        "alchemist": 1,
        "antipaladin": 1,
        "arcanist": 2,
        "bard": 1,
        "investigator": 1,
        "mesmerist": 1,
        "occultist": 2,
        "psychic": 1,
        "shaman": 2,
        "skald": 1,
        "sorcerer": 2,
        "witch": 2,
        "wizard": 2
      }
    },
    "school": "trs",
    "components": {
      "verbal": true,
      "somatic": true,
      "focus": true
    },
    "materials": {
      "focus": "a lump of gold worth 5 gp"
    },
    "spellbook": "",
    "shortDescription": "<p>You cast this spell on one or more gold pieces, which make those who have them more vulnerable to your magics. A creature with one or more of these gold pieces in its possession must attempt a Will save (at this spell’s save DC) the first time the creature is forced to attempt a saving throw against a spell, spell-like ability, or supernatural ability you create. If the creature fails, it takes a –2 penalty on all saving throws against your magic effects as long as the gold piece is in its possession. Additionally, if it fails a saving throw against a magic ability of yours that is not harmless and has a duration, the duration is doubled for that creature.</p>"
  },
  "_id": "Y1wgewApRHLDb3Hq"
}
