{
  "_id": "wa0hpftmcx9k6fli",
  "name": "Grasp",
  "type": "spell",
  "img": "systems/pf1/icons/misc/magic-swirl.png",
  "system": {
    "actions": [
      {
        "_id": "6965go3we8muifgj",
        "name": "Use",
        "img": "systems/pf1/icons/misc/magic-swirl.png",
        "activation": {
          "type": "immediate",
          "unchained": {
            "type": "reaction"
          }
        },
        "duration": {
          "value": "instantaneous"
        },
        "target": {
          "value": "you"
        },
        "range": {
          "units": "personal"
        },
        "actionType": ""
      }
    ],
    "uses": {
      "autoDeductChargesCost": "0"
    },
    "learnedAt": {
      "class": {
        "sorcerer": 0,
        "wizard": 0,
        "cleric": 0,
        "oracle": 0,
        "druid": 0,
        "bard": 0,
        "witch": 0,
        "magus": 0,
        "psychic": 0,
        "skald": 0,
        "hunter": 0
      }
    },
    "level": 0,
    "school": "div",
    "components": {
      "verbal": true
    },
    "sr": false,
    "shortDescription": "<p>You can cast this spell as an immediate action when you fail a Climb check and would fall. You can immediately attempt another Climb check as a free action at a -2 penalty. Each successive use of this spell in a particular situation increases the penalty by 2. If successful, you don't fall, but you don't progress at climbing.</p>"
  }
}
