{
  "_id": "lkmgyqm6pzgb349s",
  "name": "Grease, Greater",
  "type": "spell",
  "img": "systems/pf1/icons/misc/magic-swirl.png",
  "system": {
    "actions": [
      {
        "_id": "7uvqq9dconrksss9",
        "name": "Use",
        "img": "systems/pf1/icons/misc/magic-swirl.png",
        "activation": {
          "type": "standard",
          "unchained": {
            "cost": 2,
            "type": "action"
          }
        },
        "duration": {
          "value": "1 min./level (D)"
        },
        "target": {
          "value": "one object/2 levels or 1 10-ft. square/2 levels; see text"
        },
        "range": {
          "units": "medium"
        },
        "actionType": "spellsave",
        "save": {
          "description": "see text"
        }
      }
    ],
    "learnedAt": {
      "class": {
        "sorcerer": 5,
        "wizard": 5,
        "bard": 5,
        "summoner": 5,
        "magus": 5,
        "unchained Summoner": 5
      }
    },
    "level": 5,
    "school": "con",
    "subschool": "creation",
    "components": {
      "verbal": true,
      "somatic": true,
      "material": true
    },
    "materials": {
      "value": "butter"
    },
    "spellbook": "",
    "sr": false,
    "shortDescription": "<p>This spell functions like @Compendium[pf1.spells.ik9u3eel5vfwrtb5]{Grease}, except as noted here. When you use this spell to cover a solid surface with slippery <em>grease</em>, the 10-foot squares must form a continuous area, each part of which must be within the spell's range. When you use this spell to create a greasy coating on items, no two of the targeted items can be more than 30 feet apart. You cannot target both items and surfaces with a single casting of this spell.</p>"
  }
}
