{
  "_id": "dcc9m28ryxw1aezl",
  "name": "Half-Blood Extraction",
  "type": "spell",
  "img": "systems/pf1/icons/misc/magic-swirl.png",
  "system": {
    "actions": [
      {
        "_id": "2nk6icwwg41lgho3",
        "name": "Use",
        "img": "systems/pf1/icons/misc/magic-swirl.png",
        "activation": {
          "type": "hour",
          "unchained": {
            "type": "hour"
          }
        },
        "duration": {
          "value": "instantaneous"
        },
        "target": {
          "value": "willing half-orc touched"
        },
        "range": {
          "units": "touch"
        },
        "actionType": ""
      }
    ],
    "learnedAt": {
      "class": {
        "sorcerer": 5,
        "wizard": 5,
        "cleric": 5,
        "oracle": 5,
        "druid": 5,
        "alchemist": 5,
        "witch": 5,
        "psychic": 5,
        "hunter": 5
      }
    },
    "level": 5,
    "school": "trs",
    "components": {
      "verbal": true,
      "somatic": true,
      "material": true,
      "divineFocus": 1
    },
    "materials": {
      "value": "oils and poisons worth 3,000 gp",
      "gpValue": 3000
    },
    "spellbook": "",
    "preparation": {
      "spontaneousPrepared": false
    },
    "sr": false,
    "shortDescription": "<p>You transform the target half-orc into a full-blooded orc. The target loses all of its half-orc racial traits and gains the orc racial traits.</p>"
  }
}
