{
  "_id": "gp46dk2ffonblk53",
  "name": "Harvest Knowledge",
  "type": "spell",
  "img": "systems/pf1/icons/misc/magic-swirl.png",
  "system": {
    "actions": [
      {
        "_id": "1nw87yjuf4np9z4v",
        "name": "Use",
        "img": "systems/pf1/icons/misc/magic-swirl.png",
        "activation": {
          "type": "standard",
          "unchained": {
            "cost": 2,
            "type": "action"
          }
        },
        "duration": {
          "value": "concentration, up to 1 minute/level"
        },
        "target": {
          "value": "one creature or object; see text"
        },
        "range": {
          "units": "touch"
        },
        "actionType": "spellsave",
        "save": {
          "type": "will",
          "description": "Will negates; see text"
        }
      }
    ],
    "learnedAt": {
      "class": {
        "sorcerer": 4,
        "wizard": 4,
        "bard": 4,
        "alchemist": 4,
        "witch": 4,
        "inquisitor": 4,
        "antipaladin": 4,
        "psychic": 4,
        "mesmerist": 4
      }
    },
    "level": 4,
    "school": "div",
    "types": "mind-affecting",
    "components": {
      "verbal": true,
      "somatic": true,
      "material": true
    },
    "materials": {
      "value": "a piece of lodestone"
    },
    "sr": false,
    "shortDescription": "<p>You touch a creature and temporarily absorb its knowledge for yourself. If the target fails its saving throw, you can sort through its lore and memories. You can retrieve one answer to a specific question per minute, as through sifting through the creature's surface thoughts with <i>detect thoughts</i>. Alternatively, you can tap into the target's learned experiences and attempt one Knowledge check in a skill in which the target has at least 1 rank, using the target's total skill modifier. Each Knowledge check requires 1 minute and allows the target another Will save to resist the effect. If the target successfully resists, the spell does not end, but you are unable to attempt another Knowledge check for that skill using this spell. You can also use this spell against targets trapped in magic items or spells that hold their bodies or souls, such as an <i>iron flask</i> or the spell <i>trap the soul</i>, by touching the associated receptacle.</p>"
  }
}
