{
  "_id": "klcvk9ct1l7mhjwp",
  "name": "Heal, Mass",
  "type": "spell",
  "img": "systems/pf1/icons/misc/magic-swirl.png",
  "system": {
    "actions": [
      {
        "_id": "ekd43xchvafrtfco",
        "name": "Use",
        "img": "systems/pf1/icons/misc/magic-swirl.png",
        "activation": {
          "type": "standard",
          "unchained": {
            "cost": 2,
            "type": "action"
          }
        },
        "duration": {
          "value": "instantaneous"
        },
        "target": {
          "value": "one or more creatures, no two of which can be more than 30 ft. apart"
        },
        "range": {
          "units": "close"
        },
        "measureTemplate": {
          "type": "circle",
          "size": "30"
        },
        "actionType": "heal",
        "damage": {
          "parts": [
            {
              "formula": "min(250, @cl * 10)",
              "type": {
                "values": ["positive"],
                "custom": ""
              }
            }
          ]
        },
        "save": {
          "type": "will",
          "description": "Will negates (harmless)"
        }
      }
    ],
    "learnedAt": {
      "class": {
        "cleric": 9,
        "oracle": 9,
        "shaman": 9
      },
      "domain": {
        "Healing": 9
      }
    },
    "level": 9,
    "school": "con",
    "subschool": "healing",
    "components": {
      "verbal": true,
      "somatic": true
    },
    "shortDescription": "<p>This spell functions like @UUID[Compendium.pf1.spells.4re1j2w8wkvsvnsi]{heal}, except as noted above. The maximum number of hit points restored to each creature is 250.</p>"
  }
}
