{
  "_id": "2fg73hig4umqb9h6",
  "name": "Hidden Blades",
  "type": "spell",
  "img": "systems/pf1/icons/misc/magic-swirl.png",
  "system": {
    "actions": [
      {
        "_id": "g51rhjbykkha0g2z",
        "name": "Use",
        "img": "systems/pf1/icons/misc/magic-swirl.png",
        "activation": {
          "type": "standard",
          "unchained": {
            "cost": 2,
            "type": "action"
          }
        },
        "duration": {
          "value": "10 minutes/level"
        },
        "target": {
          "value": "weapon or ammunition touched; see text"
        },
        "range": {
          "units": "touch"
        },
        "actionType": "spellsave",
        "save": {
          "type": "will",
          "description": "Will negates (harmless, object)"
        }
      }
    ],
    "learnedAt": {
      "class": {
        "sorcerer": 2,
        "wizard": 2,
        "bard": 2,
        "alchemist": 2,
        "summoner": 2,
        "inquisitor": 2,
        "antipaladin": 2,
        "magus": 2,
        "unchained Summoner": 2
      }
    },
    "level": 2,
    "school": "ill",
    "subschool": "glamer",
    "components": {
      "verbal": true,
      "somatic": true,
      "material": true
    },
    "materials": {
      "value": "a shard of glass"
    },
    "shortDescription": "<p>You render a target weapon or up to 50 pieces of ammunition invisible, granting the wielder a +20 bonus on Sleight of Hand checks made to conceal the weapon or ammunition and a +5 circumstance bonus on Bluff checks to feint with the weapon or ammunition.</p>"
  }
}
