{
  "_id": "at1jo3acj1rdlmrn",
  "name": "Imbue Army Special Ability",
  "type": "spell",
  "img": "systems/pf1/icons/misc/magic-swirl.png",
  "system": {
    "actions": [
      {
        "_id": "p1yjb1bc2c95tx1v",
        "name": "Use",
        "img": "systems/pf1/icons/misc/magic-swirl.png",
        "activation": {
          "cost": 10,
          "type": "minute",
          "unchained": {
            "cost": 10,
            "type": "minute"
          }
        },
        "duration": {
          "value": "1 battle"
        },
        "target": {
          "value": "one army"
        },
        "actionType": "spellsave",
        "save": {
          "type": "will",
          "description": "none or Will negates (harmless)"
        }
      }
    ],
    "learnedAt": {
      "class": {
        "cleric": 9,
        "oracle": 9
      }
    },
    "level": 9,
    "school": "evo",
    "components": {
      "verbal": true,
      "somatic": true,
      "focus": true
    },
    "materials": {
      "focus": "a silver mirror worth 100 gp"
    },
    "shortDescription": "<p>You imbue the target with an army special ability (see page 242 of <i>Ultimate</i> Campaign) possessed by the army's commander. The army is treated as if it consists of units who all possess the chosen special ability. This special ability is in addition to any special abilities the army inherently possessed prior to the casting of the spell.</p>"
  }
}
