{
  "_id": "8kqajvwnbv9psq1h",
  "name": "Instant Enemy",
  "type": "spell",
  "img": "systems/pf1/icons/misc/magic-swirl.png",
  "system": {
    "actions": [
      {
        "_id": "u0dd6e8icamquuy9",
        "name": "Use",
        "img": "systems/pf1/icons/misc/magic-swirl.png",
        "activation": {
          "type": "swift",
          "unchained": {
            "type": "action"
          }
        },
        "duration": {
          "value": "1 minute/level"
        },
        "target": {
          "value": "one creature that is not your favored enemy."
        },
        "range": {
          "units": "close"
        },
        "actionType": ""
      }
    ],
    "learnedAt": {
      "class": {
        "ranger": 3,
        "hunter": 3
      }
    },
    "level": 3,
    "school": "enc",
    "components": {
      "verbal": true,
      "somatic": true
    },
    "sr": false,
    "shortDescription": "<p>With this spell you designate the target as your favored enemy for the remainder of its duration. Select one of your favored enemy types. For the duration of the spell, you treat the target as if it were that type of favored enemy for all purposes.</p>"
  }
}
