{
  "_id": "drf8ghbrz270wal8",
  "name": "Instant Restoration",
  "type": "spell",
  "img": "systems/pf1/icons/misc/magic-swirl.png",
  "system": {
    "actions": [
      {
        "_id": "ryvbfk9a0vx7906y",
        "name": "Use",
        "img": "systems/pf1/icons/misc/magic-swirl.png",
        "activation": {
          "type": "immediate",
          "unchained": {
            "type": "reaction"
          }
        },
        "duration": {
          "value": "1 round/level (D)"
        },
        "target": {
          "value": "one summoned creature you control"
        },
        "range": {
          "units": "close"
        },
        "actionType": "heal"
      }
    ],
    "learnedAt": {
      "class": {
        "cleric": 4,
        "oracle": 4,
        "druid": 4,
        "summoner": 4,
        "witch": 4,
        "shaman": 4,
        "hunter": 4,
        "unchained Summoner": 4
      }
    },
    "level": 4,
    "school": "con",
    "subschool": "healing",
    "components": {
      "verbal": true,
      "somatic": true,
      "focus": true,
      "divineFocus": 3
    },
    "materials": {
      "focus": "a thimble of water and a seed"
    },
    "sr": false,
    "shortDescription": "<p><i>Instant restoration</i> channels planar energy into a summoned creature. This spell can be cast as an immediate action when a summoned creature you control drops to 0 or fewer hit points. Rather than immediately disappear, the creature is healed for 4d8 hp + 1 hit point per caster level (maximum 4d8+10 hit points). If this healing brings your summoned creature's hit point total to 1 or more hit points, it remains as if its hit points had never dropped to 0 or fewer. Creatures slain by death effects cannot be saved by <i>instant restoration</i>. A summoner can target his eidolon with this spell.</p>"
  }
}
