{
  "_id": "vffgsrvilkkf18im",
  "name": "Isolate",
  "type": "spell",
  "img": "systems/pf1/icons/misc/magic-swirl.png",
  "system": {
    "actions": [
      {
        "_id": "1hpx9xuhgh1u8oay",
        "name": "Use",
        "img": "systems/pf1/icons/misc/magic-swirl.png",
        "activation": {
          "type": "standard",
          "unchained": {
            "cost": 2,
            "type": "action"
          }
        },
        "duration": {
          "value": "1 round/level (D)"
        },
        "target": {
          "value": "creature touched"
        },
        "range": {
          "units": "touch"
        },
        "actionType": "spellsave",
        "save": {
          "type": "will",
          "description": "Will partial"
        }
      }
    ],
    "learnedAt": {
      "class": {
        "sorcerer": 3,
        "wizard": 3,
        "bard": 3,
        "witch": 3,
        "inquisitor": 3,
        "antipaladin": 3,
        "psychic": 3,
        "mesmerist": 3
      }
    },
    "level": 3,
    "school": "ill",
    "subschool": "glamer",
    "components": {
      "verbal": true,
      "somatic": true
    },
    "shortDescription": "<p>You cause the target to become invisible and silent, but only to his allies. Any creature with an attitude of indifferent or worse toward the target, and any creature that wishes the target harm, can see the target normally. The target can see and hear himself, can cast spells with verbal components, and can use command words normally, but any effect that requires allies to see or hear the target does not function. An ally that can see invisible creatures can both see and hear the target of <i>isolate</i>.  If the target succeeds at its save, the duration of the spell is reduced to 1 round.</p>"
  }
}
