{
  "_id": "m2r6cfdd7ab137xo",
  "name": "Lend Judgment, Greater",
  "type": "spell",
  "img": "systems/pf1/icons/misc/magic-swirl.png",
  "system": {
    "actions": [
      {
        "_id": "1x2wn5k7k72skfbu",
        "name": "Use",
        "img": "systems/pf1/icons/misc/magic-swirl.png",
        "activation": {
          "type": "standard",
          "unchained": {
            "cost": 2,
            "type": "action"
          }
        },
        "duration": {
          "value": "1 round/level"
        },
        "target": {
          "value": "one ally"
        },
        "range": {
          "units": "touch"
        },
        "actionType": "spellsave",
        "save": {
          "type": "will",
          "description": "Will negates (harmless)"
        }
      }
    ],
    "learnedAt": {
      "class": {
        "inquisitor": 5
      }
    },
    "level": 5,
    "school": "div",
    "components": {
      "verbal": true,
      "divineFocus": 1
    },
    "spellbook": "",
    "shortDescription": "<p>This functions as @Compendium[pf1.spells.kofz5oklwt5y8v6s]{Lend Judgment}, except the ally gains the benefit of all your active judgments.</p>"
  }
}
