{
  "_id": "qfzxsh0mqh9n7118",
  "name": "Life Conduit, Improved",
  "type": "spell",
  "img": "systems/pf1/icons/misc/magic-swirl.png",
  "system": {
    "actions": [
      {
        "_id": "nlt2mv77clk9g4nm",
        "name": "Use",
        "img": "systems/pf1/icons/misc/magic-swirl.png",
        "activation": {
          "type": "standard",
          "unchained": {
            "cost": 2,
            "type": "action"
          }
        },
        "duration": {
          "value": "1 round/level"
        },
        "target": {
          "value": "you"
        },
        "range": {
          "units": "personal"
        },
        "actionType": "heal"
      }
    ],
    "learnedAt": {
      "class": {
        "summoner": 3,
        "unchained Summoner": 3
      }
    },
    "level": 3,
    "school": "con",
    "subschool": "healing",
    "components": {
      "verbal": true,
      "somatic": true
    },
    "spellbook": "",
    "sr": false,
    "shortDescription": "<p>This spell functions like @Compendium[pf1.spells.xcjp1creu2nn3vjj]{life conduit}, except you can transfer 2d6 hit points as a swift action.</p>"
  }
}
