{
  "_id": "leiz2fbqmoktng36",
  "name": "Life Current",
  "type": "spell",
  "img": "systems/pf1/icons/misc/magic-swirl.png",
  "system": {
    "actions": [
      {
        "_id": "q1u677vc9z9a822v",
        "name": "Use",
        "img": "systems/pf1/icons/misc/magic-swirl.png",
        "activation": {
          "type": "standard",
          "unchained": {
            "cost": 2,
            "type": "action"
          }
        },
        "duration": {
          "value": "1 round"
        },
        "range": {
          "units": "medium"
        },
        "actionType": "heal",
        "save": {
          "type": "will",
          "description": "Will half"
        },
        "spellArea": "current or portion of current up to 20 feet wide and 100 feet long"
      }
    ],
    "learnedAt": {
      "class": {
        "cleric": 3,
        "oracle": 3,
        "druid": 3,
        "ranger": 3,
        "paladin": 3,
        "shaman": 3,
        "hunter": 3
      }
    },
    "level": 3,
    "school": "con",
    "subschool": "healing",
    "types": "water",
    "components": {
      "verbal": true,
      "somatic": true,
      "divineFocus": 1
    },
    "shortDescription": "<p>You infuse the current with positive energy. At the start of their turn when the current moves them, living creatures in the current's area heal 1d6 hit points per 10 feet of the current's speed (maximum 6d6). Undead creatures in the current instead take an equal amount of damage.</p>"
  }
}
