{
  "_id": "q29ac2m1kcdljje2",
  "name": "Line in the Sand",
  "type": "spell",
  "img": "systems/pf1/icons/misc/magic-swirl.png",
  "system": {
    "actions": [
      {
        "_id": "uaexii1vxdqnhux3",
        "name": "Use",
        "img": "systems/pf1/icons/misc/magic-swirl.png",
        "activation": {
          "type": "standard",
          "unchained": {
            "cost": 2,
            "type": "action"
          }
        },
        "duration": {
          "value": "1 round/level"
        },
        "range": {
          "value": "5",
          "units": "ft"
        },
        "actionType": "",
        "spellArea": "5-ft. burst centered on you"
      }
    ],
    "learnedAt": {
      "class": {
        "sorcerer": 1,
        "wizard": 1,
        "magus": 1,
        "bloodrager": 1
      }
    },
    "school": "abj",
    "components": {
      "verbal": true,
      "somatic": true
    },
    "sr": false,
    "shortDescription": "<p>You create a glowing crimson line around the area. Against creatures in the area, you can attempt a number of additional attacks of opportunity per round equal to your spellcasting ability score modifier (Intelligence for magi and wizards, Charisma for bloodragers and sorcerers). The spell does not allow you to make more than one attack against a creature for each action it takes that provokes such attacks.</p>"
  }
}
