{
  "_id": "cxp0vodhvuwnfmye",
  "name": "Litany of Madness",
  "type": "spell",
  "img": "systems/pf1/icons/misc/magic-swirl.png",
  "system": {
    "actions": [
      {
        "_id": "t5lw359ljxzs1udb",
        "name": "Use",
        "img": "systems/pf1/icons/misc/magic-swirl.png",
        "activation": {
          "type": "swift",
          "unchained": {
            "type": "action"
          }
        },
        "duration": {
          "value": "1 or more rounds (see below)"
        },
        "target": {
          "value": "one creature"
        },
        "range": {
          "units": "close"
        },
        "actionType": "spellsave",
        "save": {
          "description": "no, see below"
        }
      }
    ],
    "learnedAt": {
      "class": {
        "inquisitor": 6,
        "antipaladin": 4
      }
    },
    "level": 6,
    "school": "enc",
    "subschool": "charm",
    "types": "language-dependent, mind-affecting",
    "components": {
      "verbal": true,
      "somatic": true,
      "divineFocus": 1
    },
    "shortDescription": "<p>This litany is a sermon of madness. The target is confused. At the start of each of its turns, it can make a Will saving throw against the confused effect (DC of the spell). If the target fails the save, it continues to be confused. If it makes the save, the effect ends.  While subject to this spell, the target cannot be the target of another spell that has the word \"litany\" in the title.</p>"
  }
}
