{
  "_id": "0svkqpvg2n2j29md",
  "name": "Litany of Truth",
  "type": "spell",
  "img": "systems/pf1/icons/misc/magic-swirl.png",
  "system": {
    "actions": [
      {
        "_id": "epr8wi1781l3pp88",
        "name": "Use",
        "img": "systems/pf1/icons/misc/magic-swirl.png",
        "activation": {
          "type": "swift",
          "unchained": {
            "type": "action"
          }
        },
        "duration": {
          "value": "1 round"
        },
        "target": {
          "value": "one creature"
        },
        "range": {
          "units": "close"
        },
        "actionType": "spellsave",
        "save": {
          "type": "will",
          "description": "Will negates"
        }
      }
    ],
    "learnedAt": {
      "class": {
        "paladin": 4,
        "inquisitor": 6
      }
    },
    "level": 4,
    "school": "div",
    "types": "language-dependent",
    "components": {
      "verbal": true,
      "somatic": true,
      "divineFocus": 1
    },
    "shortDescription": "<p>With a tirade against deceit, you strip the target of any illusions cloaking it. Any illusion spells or effects affecting the target are suppressed for the spell's duration. In addition, the target can't benefit from concealment.  While subject to this spell, the target cannot be the target of another spell that has the word \"litany\" in the title.</p>"
  }
}
