{
  "_id": "steozrynqopyxiua",
  "name": "Long Arm",
  "type": "spell",
  "img": "systems/pf1/icons/misc/magic-swirl.png",
  "system": {
    "actions": [
      {
        "_id": "s8tbagieq5bion1r",
        "name": "Use",
        "img": "systems/pf1/icons/misc/magic-swirl.png",
        "activation": {
          "type": "standard",
          "unchained": {
            "cost": 2,
            "type": "action"
          }
        },
        "duration": {
          "value": "1 minute/level (D)"
        },
        "target": {
          "value": "you"
        },
        "range": {
          "units": "personal"
        },
        "actionType": ""
      }
    ],
    "learnedAt": {
      "class": {
        "sorcerer": 1,
        "wizard": 1,
        "alchemist": 1,
        "summoner": 1,
        "witch": 1,
        "magus": 1,
        "bloodrager": 1,
        "psychic": 1,
        "medium": 1,
        "unchained Summoner": 1
      }
    },
    "school": "trs",
    "components": {
      "verbal": true,
      "somatic": true
    },
    "sr": false,
    "shortDescription": "<p>Your arms temporarily grow in length, increasing your reach with those limbs by 5 feet.</p>"
  }
}
