{
  "_id": "6wz8eno1m5iopn2z",
  "name": "Nature's Paths",
  "type": "spell",
  "img": "systems/pf1/icons/misc/magic-swirl.png",
  "system": {
    "actions": [
      {
        "_id": "ek7adbtvt5qt8ppj",
        "name": "Use",
        "img": "systems/pf1/icons/misc/magic-swirl.png",
        "activation": {
          "type": "standard",
          "unchained": {
            "cost": 2,
            "type": "action"
          }
        },
        "duration": {
          "value": "8 hours (D)"
        },
        "target": {
          "value": "one creature"
        },
        "range": {
          "units": "touch"
        },
        "actionType": "spellsave",
        "save": {
          "type": "will",
          "description": "Will negates (harmless)"
        }
      }
    ],
    "learnedAt": {
      "class": {
        "druid": 1,
        "ranger": 1,
        "bard": 1,
        "witch": 1,
        "inquisitor": 1,
        "shaman": 1,
        "hunter": 1
      }
    },
    "school": "div",
    "components": {
      "verbal": true,
      "somatic": true,
      "material": true,
      "divineFocus": 2
    },
    "materials": {
      "value": "a smooth stone"
    },
    "shortDescription": "<p>The target instinctively knows the shortest, easiest, and fastest way through the wilderness. For the purpose of determining overland speed, the target treats any trackless terrain as though there were a trail or road, and any terrain with a road or trail as though there were a highway (<i>Pathfinder RPG Core Rulebook</i> 171-172). Up to one creature per caster level traveling with the target can also benefit from the effect. The spell functions only outdoors and does not function in magically altered terrain.</p>"
  }
}
