{
  "_id": "j5qx95a6lhw01n9k",
  "name": "Nex's Secret Workshop",
  "type": "spell",
  "img": "systems/pf1/icons/misc/magic-swirl.png",
  "system": {
    "actions": [
      {
        "_id": "o63hfcdccvztuhjh",
        "name": "Use",
        "img": "systems/pf1/icons/misc/magic-swirl.png",
        "activation": {
          "type": "standard",
          "unchained": {
            "cost": 2,
            "type": "action"
          }
        },
        "duration": {
          "value": "1 hour/level"
        },
        "target": {
          "value": "any number of creatures or objects in range"
        },
        "range": {
          "units": "close"
        },
        "actionType": "spellsave",
        "save": {
          "type": "will",
          "description": "Will negates (harmless, object)"
        }
      }
    ],
    "learnedAt": {
      "class": {
        "sorcerer": 5,
        "wizard": 5,
        "summoner": 5,
        "psychic": 5,
        "medium": 4,
        "mesmerist": 5,
        "occultist": 5,
        "spiritualist": 5,
        "unchained Summoner": 5
      }
    },
    "level": 5,
    "school": "abj",
    "components": {
      "verbal": true,
      "somatic": true,
      "material": true
    },
    "materials": {
      "value": "diamond dust worth 150 gp",
      "gpValue": 150
    },
    "spellbook": "",
    "preparation": {
      "spontaneousPrepared": false
    },
    "shortDescription": "<p>Designed to protect a large number of items from rivals of the Arclords of Nex, this spell functions as <i>nondetection</i> except as noted above. You can exclude any creatures or objects in the spell's range when casting this spell, if you wish.</p>"
  }
}
