{
  "_id": "ehx69vy9d9o5i4w4",
  "name": "Night of Blades",
  "type": "spell",
  "img": "systems/pf1/icons/misc/magic-swirl.png",
  "system": {
    "actions": [
      {
        "_id": "syxu4fnl8tmgt62r",
        "name": "Use",
        "img": "systems/pf1/icons/misc/magic-swirl.png",
        "activation": {
          "type": "standard",
          "unchained": {
            "cost": 2,
            "type": "action"
          }
        },
        "duration": {
          "value": "1 minute/level (D)"
        },
        "range": {
          "units": "close"
        },
        "actionType": "spellsave",
        "save": {
          "type": "ref",
          "description": "Reflex half"
        },
        "spellEffect": "wall of blades up to 10 ft. long/level and 10 ft. tall"
      }
    ],
    "learnedAt": {
      "class": {
        "sorcerer": 3,
        "wizard": 3,
        "ranger": 4,
        "summoner": 3,
        "inquisitor": 3,
        "antipaladin": 4,
        "hunter": 4,
        "unchained Summoner": 3
      }
    },
    "level": 3,
    "school": "evo",
    "components": {
      "verbal": true,
      "somatic": true
    },
    "shortDescription": "<p>Useful primarily to those who skulk in the darkness, this spell is a temporary trap for the unwary. You create an immobile wall of tiny black blades that whirl and tear into creatures like a cyclone.</p><p>Anyone who enters this space takes 1d4 points of damage per caster level (maximum 10d4), though a successful Reflex save halves the damage. The spell cannot be cast so that it appears in a space already occupied by Small or larger creatures.</p>"
  }
}
