{
  "_id": "j7mhkhixnvd0amye",
  "name": "Oneiric Horror",
  "type": "spell",
  "img": "systems/pf1/icons/misc/magic-swirl.png",
  "system": {
    "actions": [
      {
        "_id": "ha7xil3tsp4kk7z0",
        "name": "Use",
        "img": "systems/pf1/icons/misc/magic-swirl.png",
        "activation": {
          "type": "standard",
          "unchained": {
            "cost": 2,
            "type": "action"
          }
        },
        "duration": {
          "value": "1 round/level (D)"
        },
        "target": {
          "value": "one living creature"
        },
        "range": {
          "units": "medium"
        },
        "actionType": "spellsave",
        "save": {
          "type": "will",
          "description": "Will negates"
        }
      }
    ],
    "learnedAt": {
      "class": {
        "sorcerer": 3,
        "wizard": 3,
        "bard": 2,
        "psychic": 2,
        "medium": 1,
        "mesmerist": 2
      }
    },
    "level": 3,
    "school": "ill",
    "subschool": "phantasm",
    "types": "mind-affecting",
    "components": {
      "verbal": true,
      "somatic": true
    },
    "spellbook": "",
    "shortDescription": "<p>You cause the subject to believe it is being attacked by a creature out of its nightmares. Each round, the subject makes a full-attack action against the creature. A flying creature can still attempt a @UUID[Compendium.pf1.pf1e-rules.x175kVqUfLGPt8tC.JournalEntryPage.iH69GIwm8BjecrPN]{Fly} check to hover. Each round on its turn after making a full attack against the imaginary creature, the subject can attempt a new saving throw to end the effect. The subject is @UUID[Compendium.pf1.pf1e-rules.NSqfXaj4MevUR2uJ.JournalEntryPage.AVaxTNildXRzYnQm]{fatigued} for 1 minute after the spell ends.</p>"
  }
}
