{
  "_id": "jve8s6ut5yp4hht3",
  "name": "Open and Shut",
  "type": "spell",
  "img": "systems/pf1/icons/misc/magic-swirl.png",
  "system": {
    "actions": [
      {
        "_id": "wwgo78zrw1pe02v1",
        "name": "Use",
        "img": "systems/pf1/icons/misc/magic-swirl.png",
        "activation": {
          "type": "swift",
          "unchained": {
            "type": "action"
          }
        },
        "duration": {
          "value": "1 round/level (D)"
        },
        "target": {
          "value": "one door, window, or similar portal no more than 10 feet by 10 feet in area"
        },
        "range": {
          "units": "touch"
        },
        "actionType": "spellsave",
        "save": {
          "type": "will",
          "description": "Will disbelief"
        }
      }
    ],
    "learnedAt": {
      "class": {
        "sorcerer": 1,
        "wizard": 1,
        "bard": 1,
        "witch": 1,
        "inquisitor": 1
      }
    },
    "school": "ill",
    "subschool": "glamer",
    "components": {
      "verbal": true,
      "somatic": true,
      "focus": true
    },
    "materials": {
      "focus": "a doornail, doorknob, or hinge"
    },
    "sr": false,
    "shortDescription": "<p>You alter the appearance of a door and disguise whether it is open or closed. You can cause the touched door to appear closed regardless of whether it is open or closed, to appear open regardless of whether it is open or closed, or to appear to open or close. After you cast the spell, you can change between these options as a move action. Creatures using a move action to open or shut the door can attempt a Will save to disbelieve the illusion.  Regardless of how you alter the appearance of the door, creatures that believe the illusion take a -5 penalty on Perception checks regarding the door itself or creatures on the other side of the door.  This spell affects windows, gates, and similar openings in the same way it affects doors.</p>"
  }
}
