{
  "_id": "jy64xofud29j5ju6",
  "name": "Pain Strike",
  "type": "spell",
  "img": "systems/pf1/icons/misc/magic-swirl.png",
  "system": {
    "actions": [
      {
        "_id": "yh59y9qxi6f413yr",
        "name": "Use",
        "img": "systems/pf1/icons/misc/magic-swirl.png",
        "activation": {
          "type": "standard",
          "unchained": {
            "cost": 2,
            "type": "action"
          }
        },
        "duration": {
          "value": "1 round/level (D)"
        },
        "target": {
          "value": "one living creature"
        },
        "range": {
          "units": "close"
        },
        "actionType": "spellsave",
        "save": {
          "type": "fort",
          "description": "Fortitude negates"
        }
      }
    ],
    "learnedAt": {
      "class": {
        "sorcerer": 3,
        "wizard": 3,
        "witch": 3,
        "bloodrager": 3,
        "psychic": 2,
        "spiritualist": 3
      },
      "subDomain": {
        "Torture": 2
      }
    },
    "level": 3,
    "school": "evo",
    "types": "evil, pain",
    "components": {
      "verbal": true,
      "somatic": true
    },
    "shortDescription": "<p><i>Pain strike</i> racks the targeted creature with agony, inflicting 1d6 points of nonlethal damage per round for 1 round per level (maximum 10 rounds). Additionally, the affected creature is sickened for the spell's duration, and the caster gains a +4 circumstance bonus on Intimidate checks against the target.</p>"
  }
}
