{
  "_id": "118e7kl304qi23ap",
  "name": "Phantasmal Affliction",
  "type": "spell",
  "img": "systems/pf1/icons/misc/magic-swirl.png",
  "system": {
    "actions": [
      {
        "_id": "d32k52qp48g58wpq",
        "name": "Use",
        "img": "systems/pf1/icons/misc/magic-swirl.png",
        "activation": {
          "type": "standard",
          "unchained": {
            "cost": 2,
            "type": "action"
          }
        },
        "duration": {
          "value": "see text"
        },
        "target": {
          "value": "living creature"
        },
        "range": {
          "units": "close"
        },
        "actionType": "spellsave",
        "save": {
          "type": "fort",
          "description": "Will disbelief, then Fortitude or Will negates (see text)"
        }
      }
    ],
    "learnedAt": {
      "class": {
        "sorcerer": 3,
        "wizard": 3,
        "witch": 3,
        "psychic": 3,
        "mesmerist": 2
      }
    },
    "level": 3,
    "school": "ill",
    "subschool": "phantasm",
    "types": "mind-affecting",
    "components": {
      "verbal": true,
      "somatic": true,
      "material": true
    },
    "materials": {
      "value": "a drop of cod liver oil"
    },
    "shortDescription": "<p>You cause the creature to believe she has a debilitating affliction. The target can attempt a Will save to recognize the affliction as unreal. If that save fails, the creature suffers an imaginary affliction of your choice. <i>Curse</i>: The target believes she has been cursed. She takes a permanent -4 penalty on attack rolls, saves, ability checks, and skill checks for 1 hour per caster level. After her save to disbelieve, the target attempts a second Will save to negate this effect. <i>Poison</i>: The target believes she has been poisoned. Choose a physical ability score. Each round for 6 rounds, plus 1 round per 5  caster levels, the target takes 1d3 points of damage to the chosen ability score. Each turn, the creature can attempt a Fortitude save to negate the damage and end the ongoing damage. <i>Wasting</i>: The target believes she has contracted a wasting disease. Each day, the creature takes 1d4 points of Constitution damage and becomes fatigued. A successful Fortitude save prevents this damage. Two consecutive successful saves end the effect.  Since the affliction exists entirely in the creature's mind, <i>phantasmal affliction</i> is not affected by normal cures like <i>neutralize poison</i> or <i>remove disease</i>, or other effects like <i>delay poison</i> or the Heal skill. Ordinary immunities do not apply in this case (though a creature immune to the affliction receives a +4 bonus on the Will save to disbelieve the illusion). Constitution damage from the affliction can't kill the target. Instead, it causes the target to fall unconscious like other forms of ability damage. <i>Phantasmal affliction</i> is a spell effect and can be dispelled normally. <i>Placebo</i> effectOA counters and dispels <i>phantasmal affliction</i>.</p>"
  }
}
