{
  "_id": "3opbwwfp21ih8wz2",
  "name": "Pierce Disguise",
  "type": "spell",
  "img": "systems/pf1/icons/misc/magic-swirl.png",
  "system": {
    "actions": [
      {
        "_id": "bk44c5tasevofe6h",
        "name": "Use",
        "img": "systems/pf1/icons/misc/magic-swirl.png",
        "activation": {
          "type": "standard",
          "unchained": {
            "cost": 2,
            "type": "action"
          }
        },
        "duration": {
          "value": "1 minute/level"
        },
        "target": {
          "value": "you"
        },
        "range": {
          "units": "personal"
        },
        "actionType": ""
      }
    ],
    "learnedAt": {
      "class": {
        "sorcerer": 3,
        "wizard": 3,
        "bard": 3,
        "witch": 3,
        "shaman": 3,
        "psychic": 3,
        "medium": 3,
        "occultist": 3
      }
    },
    "level": 3,
    "school": "div",
    "components": {
      "verbal": true,
      "somatic": true
    },
    "sr": false,
    "shortDescription": "<p>You see through magical disguises (whether illusions or polymorph effects) of the same spell level or lower. This allows you to see the true forms of creatures magically disguised by such methods. The true form appears as a ghostly overlay on the creature's disguised appearance.</p>"
  }
}
