{
  "_id": "6sc2szgfkr6xb71l",
  "name": "Protection from Evil, Communal",
  "type": "spell",
  "img": "systems/pf1/icons/misc/magic-swirl.png",
  "system": {
    "actions": [
      {
        "_id": "o3sr2xcdguevxcfk",
        "name": "Use",
        "img": "systems/pf1/icons/misc/magic-swirl.png",
        "activation": {
          "type": "standard",
          "unchained": {
            "cost": 2,
            "type": "action"
          }
        },
        "duration": {
          "value": "1 min./level (D)"
        },
        "target": {
          "value": "creatures touched"
        },
        "range": {
          "units": "touch"
        },
        "actionType": "spellsave",
        "save": {
          "type": "will",
          "description": "Will negates (harmless)"
        }
      }
    ],
    "learnedAt": {
      "class": {
        "sorcerer": 2,
        "wizard": 2,
        "cleric": 2,
        "oracle": 2,
        "paladin": 2,
        "summoner": 2,
        "inquisitor": 2,
        "unchained Summoner": 2
      }
    },
    "level": 2,
    "school": "abj",
    "types": "good",
    "components": {
      "verbal": true,
      "somatic": true
    },
    "sr": false,
    "shortDescription": "<p>This spell functions like <i>Protection from Evil</i>, except you divide the duration in 1-minute intervals among the creatures touched.</p>"
  }
}
