{
  "_id": "bmr954ayksd33hdk",
  "name": "Punishing Armor",
  "type": "spell",
  "img": "systems/pf1/icons/misc/magic-swirl.png",
  "system": {
    "actions": [
      {
        "_id": "he1fz6lgls81mrui",
        "name": "Use",
        "img": "systems/pf1/icons/misc/magic-swirl.png",
        "activation": {
          "type": "standard",
          "unchained": {
            "cost": 2,
            "type": "action"
          }
        },
        "duration": {
          "value": "10 minutes/level (D)"
        },
        "target": {
          "value": "you"
        },
        "range": {
          "units": "personal"
        },
        "actionType": "spellsave",
        "save": {
          "type": "fort",
          "description": "Fortitude negates; see below"
        }
      }
    ],
    "learnedAt": {
      "class": {
        "sorcerer": 1,
        "wizard": 1,
        "alchemist": 1,
        "summoner": 1,
        "magus": 1,
        "bloodrager": 1,
        "shaman": 1,
        "spiritualist": 1,
        "unchained Summoner": 1
      }
    },
    "school": "abj",
    "components": {
      "verbal": true,
      "somatic": true
    },
    "sr": false,
    "shortDescription": "<p>You coat yourself with a thin layer of shimmering energy. Any creature dealing nonlethal damage to you immediately takes half the amount of nonlethal damage dealt. A successful Fortitude save made by the attacking creature negates this damage.</p>"
  }
}
