{
  "_id": "hcalydzd39g8xdov",
  "name": "Remove Radioactivity, Greater",
  "type": "spell",
  "img": "systems/pf1/icons/misc/magic-swirl.png",
  "system": {
    "actions": [
      {
        "_id": "zahiohmri0rwhevz",
        "name": "Use",
        "img": "systems/pf1/icons/misc/magic-swirl.png",
        "activation": {
          "type": "standard",
          "unchained": {
            "cost": 2,
            "type": "action"
          }
        },
        "duration": {
          "value": "instantaneous"
        },
        "target": {
          "value": "creature or object touched"
        },
        "range": {
          "units": "touch"
        },
        "actionType": "heal",
        "save": {
          "type": "fort",
          "description": "Fortitude negates (object)"
        }
      }
    ],
    "learnedAt": {
      "class": {
        "cleric": 8,
        "oracle": 8,
        "druid": 8,
        "witch": 8
      }
    },
    "level": 8,
    "school": "con",
    "subschool": "healing",
    "components": {
      "verbal": true,
      "somatic": true
    },
    "shortDescription": "<p>This spell functions like <i>remove radioactivity</i>, save that it cures all ability damage and drain due to radioactivity that the target has taken. In addition, you can deplete a radioactive object as well, although because you must touch the object to affect it, you expose yourself to at least 1 round of contact with the object's radiation. You must succeed at a caster level check (DC = 5 + the Fortitude DC associated with the radiation effect) in order to deplete the object. If you are successful, the object no longer emits radiation. In the case of a nuclear reactor or atomic warhead, this permanently renders the reactor or warhead inert and harmless.</p>"
  }
}
