{
  "_id": "fuzz61kzm61atuzh",
  "name": "Restore Eidolon",
  "type": "spell",
  "img": "systems/pf1/icons/misc/magic-swirl.png",
  "system": {
    "actions": [
      {
        "_id": "esrg6izm7rm79j1m",
        "name": "Use",
        "img": "systems/pf1/icons/misc/magic-swirl.png",
        "activation": {
          "type": "minute",
          "unchained": {
            "type": "minute"
          }
        },
        "duration": {
          "value": "instantaneous"
        },
        "target": {
          "value": "eidolon touched"
        },
        "range": {
          "units": "touch"
        },
        "actionType": "heal",
        "save": {
          "type": "will",
          "description": "Will negates (harmless)"
        }
      }
    ],
    "learnedAt": {
      "class": {
        "summoner": 3,
        "unchained Summoner": 3
      }
    },
    "level": 3,
    "school": "con",
    "subschool": "healing",
    "components": {
      "verbal": true,
      "somatic": true,
      "material": true
    },
    "materials": {
      "value": "diamond dust worth 100 gp or 1,000 gp, see text",
      "gpValue": 1000
    },
    "spellbook": "",
    "preparation": {
      "spontaneousPrepared": false
    },
    "shortDescription": "<p>This spell functions as <i>restoration</i>, except it only affects an eidolon.</p>"
  }
}
