{
  "_id": "jnva2egott9dvb92",
  "name": "Reveal Secrets",
  "type": "spell",
  "img": "systems/pf1/icons/misc/magic-swirl.png",
  "system": {
    "actions": [
      {
        "_id": "u3hc4i6in0go48bn",
        "name": "Use",
        "img": "systems/pf1/icons/misc/magic-swirl.png",
        "activation": {
          "type": "standard",
          "unchained": {
            "cost": 2,
            "type": "action"
          }
        },
        "duration": {
          "value": "1 round"
        },
        "target": {
          "value": "creature touched"
        },
        "range": {
          "units": "touch"
        },
        "actionType": "spellsave",
        "save": {
          "type": "will",
          "description": "Will negates"
        }
      }
    ],
    "learnedAt": {
      "class": {
        "sorcerer": 1,
        "wizard": 1,
        "bard": 1,
        "witch": 1,
        "inquisitor": 1,
        "psychic": 1,
        "mesmerist": 1
      }
    },
    "school": "enc",
    "subschool": "compulsion",
    "types": "language-dependent, mind-affecting",
    "components": {
      "verbal": true,
      "somatic": true,
      "material": true
    },
    "materials": {
      "value": "a drop of alcoholic liquid"
    },
    "shortDescription": "<p>When you cast this spell, you ask the target whether it has a secret about a specific topic that can be described in 10 words or fewer. This can concern a person, place, or thing (such as a town's mayor, the ring worn by a traveling merchant, or the bridge spanning a nearby river) or an easily distinguished event (such as a historic battle or a recent rash of disappearances). If the target knows a secret about the topic (information it believes isn't common knowledge and which it would not normally tell you), it states it has a secret. The target doesn't mention anything about the secret and doesn't remember telling you it has a secret. If the target succeeds at its saving throw, it isn't compelled to reveal whether it knows a secret and is aware that you asked.</p>"
  }
}
