{
  "_id": "qdiec9pwx6jclgla",
  "name": "Root",
  "type": "spell",
  "img": "systems/pf1/icons/misc/magic-swirl.png",
  "system": {
    "actions": [
      {
        "_id": "9em2kyky27fp70fo",
        "name": "Use",
        "img": "systems/pf1/icons/misc/magic-swirl.png",
        "activation": {
          "type": "standard",
          "unchained": {
            "cost": 2,
            "type": "action"
          }
        },
        "duration": {
          "value": "1 minute (D)"
        },
        "target": {
          "value": "creature touched"
        },
        "range": {
          "units": "touch"
        },
        "actionType": "spellsave",
        "save": {
          "type": "will",
          "description": "Will negates (harmless)"
        }
      }
    ],
    "uses": {
      "autoDeductChargesCost": "0"
    },
    "learnedAt": {
      "class": {
        "sorcerer": 0,
        "wizard": 0
      }
    },
    "level": 0,
    "school": "trs",
    "types": "earth",
    "components": {
      "verbal": true,
      "somatic": true,
      "material": true
    },
    "materials": {
      "value": "a pinch of dirt"
    },
    "shortDescription": "<p>This spell strengthens the subject's connection to the ground below, bolstering its defense against combat maneuvers. It gains a +2 insight bonus to its CMD to resist being moved or tripped and a +2 competence bonus on all Acrobatics checks made to balance or remain standing on earth, sand, stone, or a similar rocky substance.</p>"
  }
}
