{
  "_id": "mjddoap3a58b2bux",
  "name": "Sanctify Armor",
  "type": "spell",
  "img": "systems/pf1/icons/misc/magic-swirl.png",
  "system": {
    "actions": [
      {
        "_id": "6gdebhy1tupuphd1",
        "name": "Use",
        "img": "systems/pf1/icons/misc/magic-swirl.png",
        "activation": {
          "type": "standard",
          "unchained": {
            "cost": 2,
            "type": "action"
          }
        },
        "duration": {
          "value": "1 minute/level"
        },
        "target": {
          "value": "armor touched"
        },
        "range": {
          "units": "touch"
        },
        "actionType": "spellsave",
        "save": {
          "type": "will",
          "description": "Will negates (harmless, object)"
        }
      }
    ],
    "learnedAt": {
      "class": {
        "paladin": 3,
        "inquisitor": 4
      }
    },
    "level": 3,
    "school": "abj",
    "types": "good",
    "components": {
      "verbal": true,
      "somatic": true
    },
    "shortDescription": "<p>You imbue your armor with a righteous aura. It gains a +1 enhancement bonus per four caster levels (maximum +5 at 20th level). When using your judgment or smite ability, you gain DR 5/evil.</p><p>An outfit of regular clothing counts as armor that grants no AC bonus for the purpose of this spell.</p>"
  }
}
