{
  "_id": "k8f0wbuejnhobphf",
  "name": "Sculpt Corpse",
  "type": "spell",
  "img": "systems/pf1/icons/misc/magic-swirl.png",
  "system": {
    "actions": [
      {
        "_id": "1q3y49inu97bq230",
        "name": "Use",
        "img": "systems/pf1/icons/misc/magic-swirl.png",
        "activation": {
          "type": "standard",
          "unchained": {
            "cost": 2,
            "type": "action"
          }
        },
        "duration": {
          "value": "instantaneous"
        },
        "target": {
          "value": "one dead creature touched"
        },
        "range": {
          "units": "touch"
        },
        "actionType": "spellsave",
        "save": {
          "type": "will",
          "description": "Will partial; see text"
        }
      }
    ],
    "learnedAt": {
      "class": {
        "sorcerer": 1,
        "wizard": 1,
        "occultist": 1
      }
    },
    "school": "nec",
    "components": {
      "verbal": true,
      "somatic": true,
      "material": true
    },
    "materials": {
      "value": "lump of wax"
    },
    "sr": false,
    "shortDescription": "<p>With a clammy caress and a word to the powers lurking beyond death, you can reshape a dead body look like another creature or even a specific person so long as you have firsthand knowledge of how that creature or person actually looks.</p><p>You can make the corpse one size larger or smaller and change anything else about it including its apparent type, gender, or age. Creatures with a reason to suspect deception may make a Will saving throw to realize that the corpse was altered. If you chose to make the corpse look like a specific individual anyone who knows that individual can make a Will save to realize that the corpse is not actually that person. However, if a creature fails its Will save by 5 or less they believe the corpse is that of someone who closely resembled the person they knew rather than a deliberate fake. This spell merely changes the appearance of the corpse. Any spell or effect that targets the corpse (such as <i>speak with dead</i> or <i>raise dead</i>) treats it as if it still had its original appearance.</p>"
  }
}
