{
  "_id": "zqxepdoycyr9h8pm",
  "name": "Shadow Transmutation, Greater",
  "type": "spell",
  "img": "systems/pf1/icons/misc/magic-swirl.png",
  "system": {
    "actions": [
      {
        "_id": "qvwrssxmmtavqmij",
        "name": "Use",
        "img": "systems/pf1/icons/misc/magic-swirl.png",
        "activation": {
          "type": "standard",
          "unchained": {
            "cost": 2,
            "type": "action"
          }
        },
        "duration": {
          "value": "see text"
        },
        "target": {
          "value": "see text"
        },
        "actionType": "spellsave",
        "save": {
          "type": "will",
          "description": "Will disbelief (if interacted with); varies; see text"
        }
      }
    ],
    "learnedAt": {
      "class": {
        "sorcerer": 9,
        "wizard": 9,
        "witch": 9,
        "shaman": 9
      }
    },
    "level": 9,
    "school": "ill",
    "subschool": "shadow",
    "types": "shadow",
    "components": {
      "verbal": true,
      "somatic": true
    },
    "shortDescription": "<p>This spell functions like <i>shadow transmutation</i>, except it can mimic <i>greater <i>polymorph</i></i> instead of <i>polymorph</i>. The illusory attacks and special abilities of any shape assumed using greater <i>shadow transmutation</i> deal three-fifths (60%) damage to nonbelievers, and nondamaging effects are 60% likely to work against nonbelievers.</p>"
  }
}
