{
  "_id": "74udjqlnkgv8svuv",
  "name": "Shadow Trap",
  "type": "spell",
  "img": "systems/pf1/icons/misc/magic-swirl.png",
  "system": {
    "actions": [
      {
        "_id": "7des6ij155dmycs0",
        "name": "Use",
        "img": "systems/pf1/icons/misc/magic-swirl.png",
        "activation": {
          "type": "standard",
          "unchained": {
            "cost": 2,
            "type": "action"
          }
        },
        "duration": {
          "value": "1 round/level (D)"
        },
        "target": {
          "value": "one creature"
        },
        "range": {
          "units": "close"
        },
        "actionType": "spellsave",
        "save": {
          "type": "will",
          "description": "Will negates"
        }
      }
    ],
    "learnedAt": {
      "class": {
        "sorcerer": 1,
        "wizard": 1,
        "cleric": 1,
        "oracle": 1,
        "bard": 1,
        "witch": 1,
        "antipaladin": 1,
        "bloodrager": 1,
        "shaman": 1,
        "psychic": 1,
        "mesmerist": 1,
        "occultist": 1
      }
    },
    "school": "ill",
    "subschool": "shadow",
    "components": {
      "verbal": true,
      "somatic": true
    },
    "shortDescription": "<p>You pin the target's shadow to its current location, causing the target to become entangled and preventing it from moving farther than 5 feet from its original position, as if its shadow were anchored to the terrain. Each round on its turn, the target can attempt a new saving throw to end the effect as a full-round action. A flying creature can only hover in place or fall while entangled in this manner. This spell automatically fails when cast on a creature that doesn't throw a shadow, and it ends if the creature is entirely in an area with no illumination.</p>"
  }
}
