{
  "_id": "n3lp01euzcdmtbw5",
  "name": "Shapechange",
  "type": "spell",
  "img": "systems/pf1/icons/misc/magic-swirl.png",
  "system": {
    "actions": [
      {
        "_id": "vtn19hdvl2hfktc2",
        "name": "Use",
        "img": "systems/pf1/icons/misc/magic-swirl.png",
        "activation": {
          "type": "standard",
          "unchained": {
            "cost": 2,
            "type": "action"
          }
        },
        "duration": {
          "value": "10 min./level"
        },
        "target": {
          "value": "you"
        },
        "range": {
          "units": "personal"
        },
        "actionType": ""
      }
    ],
    "learnedAt": {
      "class": {
        "sorcerer": 9,
        "wizard": 9,
        "druid": 9,
        "shaman": 9
      },
      "domain": {
        "Animal": 9,
        "Scalykind": 9
      },
      "bloodline": {
        "Fey": 9,
        "Nanite": 9,
        "Protean": 9
      }
    },
    "level": 9,
    "school": "trs",
    "subschool": "polymorph",
    "components": {
      "verbal": true,
      "somatic": true,
      "focus": true
    },
    "materials": {
      "focus": "jade circlet worth 1,500 gp"
    },
    "sr": false,
    "shortDescription": "<p>This spell allows you to take the form of a wide variety of creatures. This spell can function as <i>alter self, beast form IV, elemental body IV</i>, <i>form of the dragon III, giant form II,</i> and <i>plant shape III</i> depending on what form you take. You can change form once each round as a free action. The change takes place either immediately before your regular action or immediately after it, but not during the action.</p>"
  }
}
