{
  "name": "Shared Training",
  "type": "spell",
  "img": "icons/skills/social/diplomacy-handshake-blue.webp",
  "system": {
    "actions": [
      {
        "_id": "hC57xoYbupmtS1kr",
        "name": "Use",
        "img": "icons/skills/social/diplomacy-handshake-blue.webp",
        "activation": {
          "type": "standard",
          "unchained": {
            "cost": 2,
            "type": "action"
          }
        },
        "duration": {
          "value": "10 minutes/level"
        },
        "target": {
          "value": "you plus one willing creature per 3 levels, no two of which can be more than 30 ft. apart"
        },
        "range": {
          "units": "close"
        },
        "actionType": ""
      }
    ],
    "uses": {
      "autoDeductChargesCost": ""
    },
    "learnedAt": {
      "class": {
        "arcanist": 3,
        "bard": 2,
        "cleric": 3,
        "hunter": 2,
        "inquisitor": 2,
        "magus": 2,
        "oracle": 3,
        "paladin": 2,
        "psychic": 3,
        "ranger": 2,
        "skald": 2,
        "sorcerer": 3,
        "warpriest": 3,
        "wizard": 3
      }
    },
    "level": 2,
    "school": "div",
    "types": "mind-affecting",
    "components": {
      "verbal": true,
      "somatic": true
    },
    "spellbook": "",
    "sr": false,
    "shortDescription": "<p>Select one teamwork feat you have. You can grant this feat to allies within range for the duration of the spell. Allies do not need to meet the prerequisites of this teamwork feat. At caster level 9th, you can grant two teamwork feats you have to your allies. At caster level 13th, you can grant three teamwork feats, and at caster level 17th, you can grant up to four teamwork feats.</p>"
  },
  "_id": "M6z9LD9YgCPjVVX3"
}
