{
  "_id": "q4zwddc3trxyg1xo",
  "name": "Shield of Wings",
  "type": "spell",
  "img": "systems/pf1/icons/misc/magic-swirl.png",
  "system": {
    "actions": [
      {
        "_id": "kpylm7jx8h9i4q3j",
        "name": "Use",
        "img": "systems/pf1/icons/misc/magic-swirl.png",
        "activation": {
          "type": "standard",
          "unchained": {
            "cost": 2,
            "type": "action"
          }
        },
        "duration": {
          "value": "1 minute/level (see below)"
        },
        "target": {
          "value": "you"
        },
        "range": {
          "units": "personal"
        },
        "actionType": ""
      }
    ],
    "learnedAt": {
      "class": {
        "cleric": 3,
        "oracle": 3,
        "ranger": 3,
        "paladin": 3,
        "inquisitor": 3,
        "hunter": 3
      }
    },
    "level": 3,
    "school": "trs",
    "types": "fire",
    "components": {
      "verbal": true,
      "somatic": true,
      "divineFocus": 1
    },
    "sr": false,
    "shortDescription": "<p>You gain five burning wings that grant a fly speed equal to the number of wings x 10 (average maneuverability) for an initial fly speed of 50 feet. The first time in a round where you would take fire damage, a wing vanishes (reducing the fly speed granted) and you gain fire resistance 30 for the remainder of the round. When you are down to one wing (and a fly speed of 10 feet), your maneuverability drops to poor. When you lose your final wing, you become immune to fire damage for 1 additional minute, after which the effects of this spell end.</p>"
  }
}
