{
  "_id": "nk37t5em8q4v1djs",
  "name": "Sirocco",
  "type": "spell",
  "img": "systems/pf1/icons/misc/magic-swirl.png",
  "system": {
    "actions": [
      {
        "_id": "n8sttd4vhvcf0ahy",
        "name": "Use",
        "img": "systems/pf1/icons/misc/magic-swirl.png",
        "activation": {
          "type": "standard",
          "unchained": {
            "cost": 2,
            "type": "action"
          }
        },
        "duration": {
          "value": "1 round/level (D)"
        },
        "range": {
          "units": "medium"
        },
        "actionType": "spellsave",
        "save": {
          "type": "fort",
          "description": "Fortitude partial, see text"
        },
        "spellArea": "cylinder (20-ft. radius, 60 ft. high)"
      }
    ],
    "learnedAt": {
      "class": {
        "sorcerer": 6,
        "wizard": 6,
        "druid": 6,
        "magus": 6,
        "occultist": 6,
        "hunter": 6
      },
      "subDomain": {
        "Storms": 6
      }
    },
    "level": 6,
    "school": "evo",
    "types": "air, fire",
    "components": {
      "verbal": true,
      "somatic": true,
      "material": true,
      "divineFocus": 2
    },
    "materials": {
      "value": "handful of fine sand cast into the air"
    },
    "shortDescription": "<p>A blast of furnace-hot wind blasts downward, inflicting 4d6 fire damage +1 point per caster level to all creatures in the area and knocking them prone. A successful Fortitude save halves the fire damage and negates being knocked prone. Flying creatures forced into the ground by the powerful downdraft take damage as if they fell unless they make a DC 15 Fly check, in which case they remain at their original altitude.</p><p>Any creature that takes damage from a <i>sirocco</i> becomes fatigued (or exhausted, if already fatigued, such as from a previous round of exposure to a <i>sirocco</i> spell). Creatures with the water subtype take a -4 penalty on all saving throws against this spell and take double normal damage.</p>"
  }
}
