{
  "_id": "gqtg9ruv8kkd0knf",
  "name": "Stone Call",
  "type": "spell",
  "img": "systems/pf1/icons/misc/magic-swirl.png",
  "system": {
    "actions": [
      {
        "_id": "huqo28zxk26z73el",
        "name": "Use",
        "img": "systems/pf1/icons/misc/magic-swirl.png",
        "activation": {
          "type": "standard",
          "unchained": {
            "cost": 2,
            "type": "action"
          }
        },
        "duration": {
          "value": "1 round/level"
        },
        "range": {
          "units": "medium"
        },
        "actionType": "",
        "spellArea": "cylinder (40-ft. radius, 20 ft. high)"
      }
    ],
    "learnedAt": {
      "class": {
        "sorcerer": 2,
        "wizard": 2,
        "druid": 2,
        "ranger": 2,
        "magus": 2,
        "bloodrager": 2,
        "hunter": 2
      },
      "domain": {
        "Ruins": 2
      }
    },
    "level": 2,
    "school": "con",
    "subschool": "creation",
    "types": "earth",
    "components": {
      "verbal": true,
      "somatic": true,
      "divineFocus": 1
    },
    "sr": false,
    "shortDescription": "<p>A rain of dirt, gravel, and small pebbles fills the area, dealing 2d6 points of bludgeoning damage to every creature in the area. This damage only occurs once, when the spell is cast.</p><p>For the remaining duration of the spell, this debris covers the ground, making the entire area difficult terrain. At the end of the duration, the rocks disappear, leaving no aftereffects (other than the damage dealt).</p>"
  }
}
