{
  "_id": "5kkfeituhm3d8vps",
  "name": "Stumble Gap",
  "type": "spell",
  "img": "systems/pf1/icons/misc/magic-swirl.png",
  "system": {
    "actions": [
      {
        "_id": "xnsilp1esagr1la5",
        "name": "Use",
        "img": "systems/pf1/icons/misc/magic-swirl.png",
        "activation": {
          "type": "standard",
          "unchained": {
            "cost": 2,
            "type": "action"
          }
        },
        "duration": {
          "value": "1 round + 1 round/level"
        },
        "range": {
          "units": "close"
        },
        "actionType": "spellsave",
        "save": {
          "type": "ref",
          "description": "Reflex partial"
        },
        "spellEffect": "see text"
      }
    ],
    "learnedAt": {
      "class": {
        "sorcerer": 1,
        "wizard": 1
      }
    },
    "school": "con",
    "subschool": "creation",
    "components": {
      "verbal": true,
      "somatic": true,
      "focus": true
    },
    "materials": {
      "focus": "miniature shovel costing 10 gp"
    },
    "sr": false,
    "shortDescription": "<p>You create a shallow extradimensional hole perfectly sized to trip anyone who steps within it. This hole occupies a single 5-foot square with a depth of six inches. Any creature occupying the square when you first create the hole, or who later steps into the square containing the hole, must make a Reflex saving throw to avoid falling prone in an adjacent square and taking 1d6 points of damage. A creature that makes its saving throw still stumbles ever so slightly and takes a -1 penalty on all rolls and checks for 1 round. The spell has no effect on creatures adjacent to the square containing the hole.</p>"
  }
}
