{
  "_id": "7vzu76eg8om0gpf0",
  "name": "Stunning Barrier",
  "type": "spell",
  "img": "systems/pf1/icons/misc/magic-swirl.png",
  "system": {
    "actions": [
      {
        "_id": "gnz837p2ymmf5cnk",
        "name": "Use",
        "img": "systems/pf1/icons/misc/magic-swirl.png",
        "activation": {
          "type": "standard",
          "unchained": {
            "cost": 2,
            "type": "action"
          }
        },
        "duration": {
          "value": "1 round/level or until discharged"
        },
        "target": {
          "value": "you"
        },
        "range": {
          "units": "personal"
        },
        "actionType": "spellsave",
        "save": {
          "type": "will",
          "description": "none and Will negates (see text)"
        }
      }
    ],
    "learnedAt": {
      "class": {
        "sorcerer": 1,
        "wizard": 1,
        "cleric": 1,
        "oracle": 1,
        "paladin": 1,
        "inquisitor": 1,
        "psychic": 1
      }
    },
    "school": "abj",
    "components": {
      "verbal": true,
      "somatic": true
    },
    "sr": false,
    "shortDescription": "<p>You are closely surrounded by a barely visible magical field.</p><p>The field provides a +1 deflection bonus to AC and a +1 resistance bonus on saves. Any creature that strikes you with a melee attack is stunned for 1 round (Will negates). Once the field has stunned an opponent, the spell is discharged.</p>"
  }
}
