{
  "_id": "d52bcya77s9kcoes",
  "name": "Summon Giant Ally I",
  "type": "spell",
  "img": "systems/pf1/icons/misc/magic-swirl.png",
  "system": {
    "actions": [
      {
        "_id": "93c0chycm6asyj9x",
        "name": "Use",
        "img": "systems/pf1/icons/misc/magic-swirl.png",
        "activation": {
          "type": "standard",
          "unchained": {
            "cost": 2,
            "type": "action"
          }
        },
        "duration": {
          "value": "1 round/level (D)"
        },
        "range": {
          "units": "close"
        },
        "actionType": "other",
        "spellEffect": "one or more giants"
      }
    ],
    "learnedAt": {
      "class": {
        "druid": 6,
        "hunter": 6
      }
    },
    "level": 6,
    "school": "con",
    "subschool": "summoning",
    "types": "see text",
    "components": {
      "verbal": true,
      "somatic": true,
      "focus": true,
      "divineFocus": 3
    },
    "materials": {
      "focus": "bit of cloth from a giant's bag"
    },
    "sr": false,
    "shortDescription": "<p>This spell functions as summon nature's ally VI, except its casting time is shorter and you can summon one cave, hill, marsh, river, slag, stone, or wood giant.</p>"
  }
}
