{
  "_id": "hv2ptafk0j3jwqda",
  "name": "Summon Erodaemon",
  "type": "spell",
  "img": "systems/pf1/icons/misc/magic-swirl.png",
  "system": {
    "actions": [
      {
        "_id": "2nhsm72qhdbhljns",
        "name": "Use",
        "img": "systems/pf1/icons/misc/magic-swirl.png",
        "activation": {
          "type": "round",
          "unchained": {
            "cost": 3,
            "type": "action"
          }
        },
        "duration": {
          "value": "1 round/level (D)"
        },
        "range": {
          "units": "close"
        },
        "actionType": "other",
        "spellEffect": "one summoned creature"
      }
    ],
    "learnedAt": {
      "class": {
        "sorcerer": 8,
        "wizard": 8,
        "cleric": 8,
        "oracle": 8,
        "summoner": 6,
        "witch": 8,
        "unchained Summoner": 6
      }
    },
    "level": 8,
    "school": "con",
    "subschool": "summoning",
    "types": "evil",
    "components": {
      "verbal": true,
      "somatic": true,
      "focus": true
    },
    "materials": {
      "focus": "a bent or tarnished wedding band"
    },
    "sr": false,
    "shortDescription": "<p>This spell functions like <i>summon monster</i>, except it summons a single erodaemon.</p>"
  }
}
