{
  "_id": "ye3wcbdcfjiv6z6d",
  "name": "Tears to Wine",
  "type": "spell",
  "img": "systems/pf1/icons/misc/magic-swirl.png",
  "system": {
    "actions": [
      {
        "_id": "txhkqkejqm0h7bxh",
        "name": "Use",
        "img": "systems/pf1/icons/misc/magic-swirl.png",
        "activation": {
          "type": "standard",
          "unchained": {
            "cost": 2,
            "type": "action"
          }
        },
        "duration": {
          "value": "10 minutes/level"
        },
        "target": {
          "value": "1 cu. ft./2 levels of liquid (see text)"
        },
        "range": {
          "value": "10",
          "units": "ft"
        },
        "actionType": "spellsave",
        "save": {
          "type": "will",
          "description": "Will negates (object)"
        }
      }
    ],
    "learnedAt": {
      "class": {
        "sorcerer": 2,
        "wizard": 2,
        "cleric": 2,
        "oracle": 2,
        "druid": 1,
        "bard": 1,
        "alchemist": 1,
        "witch": 2,
        "shaman": 1,
        "medium": 1,
        "occultist": 1,
        "hunter": 1
      }
    },
    "level": 2,
    "school": "trs",
    "components": {
      "verbal": true,
      "somatic": true,
      "material": true
    },
    "materials": {
      "value": "a single grape"
    },
    "shortDescription": "<p>Legend claims runelords used this spell to literally benefit from drinking the tears of their captured foes. This spell turns nonmagic liquids-including spoiled, rotten, diseased, poisonous, or otherwise contaminated drinks, tears, seawater, and similar fluids-into mead or wine of average quality. This spell does not prevent subsequent natural decay or spoilage. Unholy water and similar liquids of significance are spoiled by <i>Tears to Wine</i>, but the spell has no effect on creatures of any type or on magic potions.  Creatures that drink the mead or wine created by this spell become sharp-witted and clear-minded, gaining a +2 enhancement bonus on all Intelligence- and Wisdom-based skill checks. This increases to a +5 bonus at caster level 9th, and to +10 (the maximum) at caster level 15th.</p>"
  }
}
