{
  "_id": "if867t28tu6zxaei",
  "name": "Teleportation Circle",
  "type": "spell",
  "img": "systems/pf1/icons/misc/magic-swirl.png",
  "system": {
    "actions": [
      {
        "_id": "jx50g0nvrsrgk25s",
        "name": "Use",
        "img": "systems/pf1/icons/misc/magic-swirl.png",
        "activation": {
          "cost": 10,
          "type": "minute",
          "unchained": {
            "cost": 10,
            "type": "minute"
          }
        },
        "duration": {
          "value": "10 min./level"
        },
        "range": {
          "value": "0",
          "units": "ft"
        },
        "actionType": "other",
        "spellEffect": "5-ft.-radius circle that teleports those who activate it"
      }
    ],
    "learnedAt": {
      "class": {
        "sorcerer": 9,
        "wizard": 9,
        "summoner": 6,
        "witch": 9,
        "psychic": 9,
        "unchained Summoner": 6
      },
      "domain": {
        "Rune": 9
      }
    },
    "level": 9,
    "school": "con",
    "subschool": "teleportation",
    "components": {
      "verbal": true,
      "material": true
    },
    "materials": {
      "value": "amber dust to cover circle worth 1,000 gp",
      "gpValue": 1000
    },
    "spellbook": "",
    "preparation": {
      "spontaneousPrepared": false
    },
    "shortDescription": "<p>You create a circle on the floor or other horizontal surface that teleports, as <i>greater teleport,</i> any creature who stands on it to a designated spot. Once you designate the destination for the circle, you can't change it. The spell fails if you attempt to set the circle to teleport creatures into a solid object, to a place with which you are not familiar and have no clear description, or to another plane.</p><p>The circle itself is subtle and nearly impossible to notice. If you intend to keep creatures from activating it accidentally, you need to mark the circle in some way.</p><p><i>Teleportation circle</i> can be made permanent with a <i>permanency</i> spell. A permanent <i>teleportation circle</i> that is disabled becomes inactive for 10 minutes, then can be triggered again as normal.</p><p>Magic traps such as <i>teleportation circle</i> are hard to detect and disable. A character with the trapfinding class feature can use the Disable Device to disarm magic traps. The DC in each case is 25 + spell level, or 34 in the case of <i>teleportation circle</i>.</p>"
  }
}
