{
  "_id": "lovx4kiq18gbvg4e",
  "name": "Telepathy",
  "type": "spell",
  "img": "systems/pf1/icons/misc/magic-swirl.png",
  "system": {
    "actions": [
      {
        "_id": "hb3q1jtfj5cdeyp3",
        "name": "Use",
        "img": "systems/pf1/icons/misc/magic-swirl.png",
        "activation": {
          "type": "standard",
          "unchained": {
            "cost": 2,
            "type": "action"
          }
        },
        "duration": {
          "value": "1 minute/level"
        },
        "target": {
          "value": "you"
        },
        "range": {
          "units": "personal"
        },
        "actionType": ""
      }
    ],
    "learnedAt": {
      "class": {
        "sorcerer": 6,
        "wizard": 6,
        "psychic": 5,
        "medium": 4,
        "mesmerist": 4,
        "spiritualist": 6
      }
    },
    "level": 6,
    "school": "div",
    "types": "mind-affecting",
    "components": {
      "verbal": true
    },
    "sr": false,
    "shortDescription": "<p>You can mentally communicate with any other creature within 100 feet that has a language. It is possible to address multiple creatures at once telepathically, although maintaining a telepathic conversation with more than one creature at a time is just as difficult as speaking and listening to multiple people simultaneously.</p>"
  }
}
