{
  "_id": "4gvcypqu5drxqkmd",
  "name": "Titanic Anchoring",
  "type": "spell",
  "img": "systems/pf1/icons/misc/magic-swirl.png",
  "system": {
    "actions": [
      {
        "_id": "jedx7ualw3ophbfr",
        "name": "Use",
        "img": "systems/pf1/icons/misc/magic-swirl.png",
        "activation": {
          "type": "standard",
          "unchained": {
            "cost": 2,
            "type": "action"
          }
        },
        "duration": {
          "value": "1 round/level"
        },
        "target": {
          "value": "you"
        },
        "range": {
          "units": "personal"
        },
        "actionType": ""
      }
    ],
    "learnedAt": {
      "class": {
        "cleric": 3,
        "oracle": 3,
        "ranger": 3,
        "paladin": 3,
        "antipaladin": 3,
        "magus": 3,
        "bloodrager": 3,
        "hunter": 3
      }
    },
    "level": 3,
    "school": "trs",
    "components": {
      "verbal": true,
      "somatic": true,
      "material": true
    },
    "materials": {
      "value": "a shaving of oak root"
    },
    "sr": false,
    "shortDescription": "<p>You become grounded and nearly immovable. You are immune to the pull and push special abilities, and all bull rush, grapple, overrun, reposition, and trip combat maneuvers made by creatures your size or smaller always fail. You gain a +10 bonus to your CMD against those combat maneuver checks made by creatures larger than you.</p>"
  }
}
