{
  "_id": "fok7mlsri0kdkqu5",
  "name": "Touch of Blindness",
  "type": "spell",
  "img": "systems/pf1/icons/misc/magic-swirl.png",
  "system": {
    "actions": [
      {
        "_id": "q8r6ephjwnqjyi7m",
        "name": "Use",
        "img": "systems/pf1/icons/misc/magic-swirl.png",
        "activation": {
          "type": "standard",
          "unchained": {
            "cost": 2,
            "type": "action"
          }
        },
        "duration": {
          "value": "1 round/level (see text)"
        },
        "target": {
          "value": "creature or creatures touched (up to one/level)"
        },
        "range": {
          "units": "touch"
        },
        "actionType": "spellsave",
        "save": {
          "type": "fort",
          "description": "Fortitude negates"
        }
      }
    ],
    "learnedAt": {
      "class": {
        "sorcerer": 1,
        "wizard": 1,
        "cleric": 1,
        "oracle": 1,
        "bard": 1,
        "witch": 1,
        "antipaladin": 1,
        "shaman": 1
      }
    },
    "school": "nec",
    "types": "darkness, shadow",
    "components": {
      "verbal": true
    },
    "sr": false,
    "shortDescription": "<p>A touch from your hand, which is engulfed in darkness, disrupts a creature's vision by coating its eyes in supernatural darkness. Each touch causes the target to become blinded for 1 round unless it makes a successful Fortitude saving throw. You can use this melee touch attack up to one time per caster level. Any touch attack not used after 1 round per caster level is lost.</p>"
  }
}
