{
  "_id": "mxqi375ya2rka7cp",
  "name": "True Resurrection",
  "type": "spell",
  "img": "systems/pf1/icons/misc/magic-swirl.png",
  "system": {
    "actions": [
      {
        "_id": "5q9q9it912kjn151",
        "name": "Use",
        "img": "systems/pf1/icons/misc/magic-swirl.png",
        "activation": {
          "cost": 10,
          "type": "minute",
          "unchained": {
            "cost": 10,
            "type": "minute"
          }
        },
        "duration": {
          "value": "instantaneous"
        },
        "target": {
          "value": "dead creature touched"
        },
        "range": {
          "units": "touch"
        },
        "actionType": "heal",
        "save": {
          "description": "none; see text"
        }
      }
    ],
    "learnedAt": {
      "class": {
        "cleric": 9,
        "oracle": 9
      },
      "subDomain": {
        "Resurrection": 9
      }
    },
    "level": 9,
    "school": "con",
    "subschool": "healing",
    "components": {
      "verbal": true,
      "somatic": true,
      "material": true,
      "divineFocus": 1
    },
    "materials": {
      "value": "diamond worth 25,000 gp",
      "gpValue": 25000
    },
    "spellbook": "",
    "preparation": {
      "spontaneousPrepared": false
    },
    "shortDescription": "<p>This spell functions like <i>raise dead,</i> except that you can resurrect a creature that has been dead for as long as 10 years per caster level.</p><p>This spell can even bring back creatures whose bodies have been destroyed, provided that you unambiguously identify the deceased in some fashion (reciting the deceased's time and place of birth or death is the most common method).</p><p>Upon completion of the spell, the creature is immediately restored to full hit points, vigor, and health, with no negative levels (or Constitution points) and all of the prepared spells possessed by the creature when it died.</p><p>You can revive someone killed by a death effect or someone who has been turned into an undead creature and then destroyed.</p><p>This spell can also resurrect elementals or outsiders, but it can't resurrect constructs or undead creatures.</p><p>Even <i>true resurrection</i> can't restore to life a creature who has died of old age.</p>"
  }
}
