{
  "_id": "tkz1c9dphqsqewal",
  "name": "Vampiric Hunger",
  "type": "spell",
  "img": "systems/pf1/icons/misc/magic-swirl.png",
  "system": {
    "actions": [
      {
        "_id": "l61dguowlbgx6v1q",
        "name": "Use",
        "img": "systems/pf1/icons/misc/magic-swirl.png",
        "activation": {
          "type": "round",
          "unchained": {
            "cost": 3,
            "type": "action"
          }
        },
        "duration": {
          "value": "1 minute/level"
        },
        "target": {
          "value": "one creature"
        },
        "range": {
          "units": "touch"
        },
        "actionType": "spellsave",
        "save": {
          "type": "will",
          "description": "Will negates"
        }
      }
    ],
    "learnedAt": {
      "class": {
        "sorcerer": 3,
        "wizard": 3,
        "cleric": 3,
        "oracle": 3,
        "druid": 3,
        "witch": 3,
        "antipaladin": 3,
        "hunter": 3
      }
    },
    "level": 3,
    "school": "nec",
    "subschool": "polymorph",
    "types": "evil",
    "components": {
      "verbal": true,
      "somatic": true
    },
    "shortDescription": "<p>The target of this spell grows the fangs of a vampire, as well as a thirst for blood. For the duration of this spell, the target gains the ability to drain an opponent's blood during a grapple; if the target establishes or maintains a pin, it drains blood, dealing 1d4 points of Constitution damage. Each round it drains blood in this way, the target heals 5 hit points or gains 5 temporary hit points for the duration of the spell (up to a maximum number of temporary hit points equal to its full normal hit points). If the target does not drain blood in this way while under the effects of this spell, it becomes exhausted at the end of the spell's duration.</p>"
  }
}
