{
  "_id": "cvym88lup9fa8sl5",
  "name": "Veil of Heaven",
  "type": "spell",
  "img": "systems/pf1/icons/misc/magic-swirl.png",
  "system": {
    "actions": [
      {
        "_id": "m7996exkownrhfay",
        "name": "Use",
        "img": "systems/pf1/icons/misc/magic-swirl.png",
        "activation": {
          "type": "standard",
          "unchained": {
            "cost": 2,
            "type": "action"
          }
        },
        "duration": {
          "value": "10 minutes/level (D)"
        },
        "target": {
          "value": "you or all creatures within 5 ft.; see text"
        },
        "range": {
          "units": "personal"
        },
        "actionType": "spellsave",
        "save": {
          "type": "will",
          "description": "Will half"
        }
      }
    ],
    "learnedAt": {
      "class": {
        "paladin": 1
      }
    },
    "school": "abj",
    "types": "good",
    "components": {
      "verbal": true,
      "somatic": true,
      "divineFocus": 1
    },
    "sr": false,
    "shortDescription": "<p>You surround yourself with a veil of positive energy, making it harder for evil outsiders to harm you. For the duration of this spell, you gain a +2 sacred bonus to AC and on saves. Both of these bonuses apply only against attacks or effects created by outsiders with the evil subtype. You can dismiss this spell as a swift action to deal 1d8 points of damage + 1 point per paladin level to all such outsiders within 5 feet. A Will save halves this damage.</p>"
  }
}
