{
  "_id": "uk340huvgyg1z8yh",
  "name": "Warding Weapon",
  "type": "spell",
  "img": "systems/pf1/icons/misc/magic-swirl.png",
  "system": {
    "actions": [
      {
        "_id": "csys0sinwcj96tvi",
        "name": "Use",
        "img": "systems/pf1/icons/misc/magic-swirl.png",
        "activation": {
          "type": "standard",
          "unchained": {
            "cost": 2,
            "type": "action"
          }
        },
        "duration": {
          "value": "1 round/level"
        },
        "target": {
          "value": "you"
        },
        "range": {
          "units": "personal"
        },
        "actionType": ""
      }
    ],
    "learnedAt": {
      "class": {
        "sorcerer": 2,
        "wizard": 2,
        "summoner": 2,
        "magus": 1,
        "bloodrager": 1,
        "psychic": 2,
        "occultist": 1,
        "unchained Summoner": 2
      },
      "subDomain": {
        "Duels": 2
      }
    },
    "level": 2,
    "school": "abj",
    "components": {
      "verbal": true,
      "somatic": true,
      "focus": true
    },
    "materials": {
      "focus": "one melee weapon you are proficient in and you are holding"
    },
    "sr": false,
    "shortDescription": "<p>The focus of this spell flies upward above your head and takes a defensive position within your space. It lunges at opponents, as if guided by a martially trained hand, parrying and turning back melee attacks aimed at you, but does not strike back at any opponent nor does it damage them. The weapon serves only as a defense. While it protects you, you can cast spells without provoking attacks of opportunity, without the need to cast them defensively.  A creature with the Disruptive feat (<i>Core Rulebook</i> 122) can easily bypass this spell's defenses. You provoke attacks of opportunity for casting spells against these creatures even when subject to this spell, though you can still choose to cast defensively.</p>"
  }
}
