{
  "_id": "ifjagt7v39crbejg",
  "name": "Ward Shield",
  "type": "spell",
  "img": "systems/pf1/icons/misc/magic-swirl.png",
  "system": {
    "actions": [
      {
        "_id": "wkfocsa9osjhtpc7",
        "name": "Use",
        "img": "systems/pf1/icons/misc/magic-swirl.png",
        "activation": {
          "type": "standard",
          "unchained": {
            "cost": 2,
            "type": "action"
          }
        },
        "duration": {
          "value": "1 minute/level"
        },
        "target": {
          "value": "shield touched"
        },
        "range": {
          "units": "touch"
        },
        "actionType": "spellsave",
        "save": {
          "type": "will",
          "description": "Will negates (harmless)"
        }
      }
    ],
    "learnedAt": {
      "class": {
        "sorcerer": 4,
        "wizard": 4,
        "cleric": 4,
        "oracle": 4,
        "inquisitor": 4,
        "magus": 4
      }
    },
    "level": 4,
    "school": "abj",
    "components": {
      "verbal": true,
      "somatic": true
    },
    "shortDescription": "<p>With a touch, you enchant a shield and enable it to protect its wielder from hostile spells. The shield grants spell resistance 10 + your caster level against spells so long as the shield can be interposed between the wielder and the spell effect. A <i>spell shield</i> does not provide spell resistance against area effect spells such as <i>fireball</i>, but does provide a +5 bonus on Reflex saving throws against such spells.</p>"
  }
}
