{
  "_id": "phwxplqf9cop3izc",
  "name": "Warp Metal",
  "type": "spell",
  "img": "systems/pf1/icons/misc/magic-swirl.png",
  "system": {
    "actions": [
      {
        "_id": "k51x9cj2p1cr5vjj",
        "name": "Use",
        "img": "systems/pf1/icons/misc/magic-swirl.png",
        "activation": {
          "type": "standard",
          "unchained": {
            "cost": 2,
            "type": "action"
          }
        },
        "duration": {
          "value": "instantaneous"
        },
        "target": {
          "value": "1 Small wooden object/level, all within a 20-ft. radius; see text"
        },
        "range": {
          "units": "close"
        },
        "actionType": "spellsave",
        "save": {
          "type": "will",
          "description": "Will negates (object)"
        }
      }
    ],
    "learnedAt": {
      "class": {
        "sorcerer": 4,
        "wizard": 4,
        "cleric": 4,
        "oracle": 4,
        "druid": 4,
        "bloodrager": 4,
        "psychic": 4,
        "medium": 4,
        "occultist": 4,
        "hunter": 4
      }
    },
    "level": 4,
    "school": "trs",
    "types": "earth",
    "components": {
      "verbal": true,
      "somatic": true,
      "material": true
    },
    "materials": {
      "value": "a twisted wire"
    },
    "shortDescription": "<p>You cause metal to bend and warp, permanently destroying its straightness, form, and strength. A warped door springs open (or becomes stuck, requiring a successful Strength check to open, at your option). A vehicle grinds to a halt and ceases to operate. Warped ranged weapons are useless. A warped melee weapon imposes a -4 penalty on attack rolls.  You can warp one Small or smaller object or its equivalent per caster level. A Medium object counts as two Small objects, a Large object as four, a Huge object as eight, a Gargantuan object as 16, and a Colossal object as 32.  Alternatively, you can un<i>warp metal</i> (effectively warping it back to normal) with this spell. <i>Make whole</i>, on the other hand, does nothing to repair a warped item.  You can combine multiple consecutive castings of <i>warp metal</i> to warp (or unwarp) an object that is too large for you to warp with a single casting. Until the object is completely warped, it suffers no ill effects.</p>"
  }
}
