{
  "_id": "e5kr1ggh1k4c2i8z",
  "name": "Wither Limb",
  "type": "spell",
  "img": "systems/pf1/icons/misc/magic-swirl.png",
  "system": {
    "actions": [
      {
        "_id": "52tdsx1tfh6x5n8b",
        "name": "Use",
        "img": "systems/pf1/icons/misc/magic-swirl.png",
        "activation": {
          "type": "standard",
          "unchained": {
            "cost": 2,
            "type": "action"
          }
        },
        "duration": {
          "value": "instantaneous"
        },
        "target": {
          "value": "living creature touched"
        },
        "range": {
          "units": "touch"
        },
        "actionType": "spellsave",
        "save": {
          "type": "fort",
          "description": "Fortitude negates"
        }
      }
    ],
    "learnedAt": {
      "class": {
        "sorcerer": 6,
        "wizard": 6,
        "cleric": 6,
        "oracle": 6,
        "witch": 6,
        "inquisitor": 6,
        "shaman": 6,
        "spiritualist": 5
      }
    },
    "level": 6,
    "school": "nec",
    "components": {
      "verbal": true,
      "somatic": true
    },
    "shortDescription": "<p>You cause one limb of the target to shrivel and weaken. The target takes 2d6 points of damage. The points are permanently lost until the target's limb is restored by <i>heal</i>, <i>limited <i>wish</i></i>, <i>miracle</i>, <i>regenerate</i>, or <i>wish</i>. <i>Wither limb</i> affects only living creatures of the humanoid or monstrous humanoid type, or similar bipedal creatures at the GM's discretion. You choose the limb affected. This spell's effects stack, until all a target's arms and legs (or equivalent limbs) are withered. <i>Arm</i>: The target looses the use of one arm, which might affect what weapons and shields it can use. The creature must immediately drop all objects held in the withered limb, though it can shift a two-handed weapon it is holding in both hands to a remaining arm as an immediate action. Worn objects-gauntlets, rings, and magic items in the wrist slot-remain. This prevents the creature from using two-weapon fighting, claw attacks from that arm, and so on. If multiple castings of this spell wither all of a creature's arms, it can't manipulate objects or cast spells requiring somatic components. <i>Leg</i>: The creature's movement speeds are halved, except for flying or other speeds that don't involve its legs. If multiple castings of this spell wither all of a creature's legs, it can only crawl at a speed of 5 feet each round. <i>Wing</i>: The creature loses access to any fly speed that depends on its wings if even a single wing is withered.</p>"
  }
}
