{
  "_id": "KgxFsHNv0g1GbvmS",
  "name": "Warpriest",
  "type": "class",
  "img": "systems/pf1/icons/skills/yellow_21.jpg",
  "system": {
    "description": {
      "value": "<p>Capable of calling upon the power of the gods in the form of blessings and spells, warpriests blend divine magic with martial skill. They are unflinching bastions of their faith, shouting gospel as they pummel foes into submission, and never shy away from a challenge to their beliefs. While clerics might be subtle and use diplomacy to accomplish their aims, warpriests aren’t above using violence whenever the situation warrants it. In many faiths, warpriests form the core of the church’s martial forces—reclaiming lost relics, rescuing captured clergy, and defending the church’s tenets from all challenges.</p>\n<p><b>Role</b>: Warpriests can serve as capable healers or spellcasters, calling upon their divine powers from the center of the fight, where their armor and martial skills are put to the test.</p>\n<p><b>Alignment</b>: A warpriest’s alignment must be within one step of his deity’s, along either the law/chaos axis or the good/evil axis.</p>\n<p><b>Hit Die</b>: d8.</p>\n<p><b>Parent Classes</b>: <em>Cleric</em> and <em>fighter</em>.</p>\n<p><b>Starting Wealth</b>: 5d6 × 10 gp (average 175 gp.) In addition, each character begins play with an outfit worth 10 gp or less.</p>\n<h2>Class Skills</h2>\n<p>The warpriest’s class skills are <em>Climb</em> (<em>Str</em>), <em>Craft</em> (<em>Int</em>), <em>Diplomacy</em> (<em>Cha</em>), <em>Handle Animal</em> (<em>Cha</em>), <em>Heal</em> (<em>Wis</em>), <em>Intimidate</em> (<em>Cha</em>), <em>Knowledge</em> (engineering) (<em>Int</em>), <em>Knowledge</em> (religion) (<em>Int</em>), <em>Profession</em> (<em>Wis</em>), <em>Ride</em> (<em>Dex</em>), <em>Sense Motive</em> (<em>Wis</em>), <em>Spellcraft</em> (<em>Int</em>), <em>Survival</em> (<em>Wis</em>), and <em>Swim</em> (<em>Str</em>).</p>\n<p><b>Skill Ranks per Level</b>: 2 + <em>Int</em> modifier.</p>"
    },
    "links": {
      "classAssociations": [
        {
          "name": "Blessings",
          "level": 1,
          "_index": 0,
          "uuid": "Compendium.pf1.class-abilities.4QeavCZeba7ApFD2"
        },
        {
          "name": "Focus Weapon",
          "level": 1,
          "_index": 1,
          "uuid": "Compendium.pf1.class-abilities.bXznpN0piipekXTH"
        },
        {
          "name": "Sacred Weapon",
          "level": 1,
          "_index": 2,
          "uuid": "Compendium.pf1.class-abilities.YGbFrqaGvnCbAKKV"
        },
        {
          "name": "Fervor",
          "level": 2,
          "_index": 3,
          "uuid": "Compendium.pf1.class-abilities.Rzexvt4z8taA8dCu"
        },
        {
          "name": "Bonus Feats (WAR)",
          "level": 3,
          "_index": 4,
          "uuid": "Compendium.pf1.class-abilities.HL0mn3TDEKQWeF03"
        },
        {
          "name": "Channel Energy (WAR)",
          "level": 4,
          "_index": 5,
          "uuid": "Compendium.pf1.class-abilities.Ktda1hno3geFi4j8"
        },
        {
          "name": "Sacred Armor",
          "level": 7,
          "_index": 6,
          "uuid": "Compendium.pf1.class-abilities.UBv1y1h93jrnhWxO"
        },
        {
          "name": "Aspect of War",
          "level": 20,
          "_index": 7,
          "uuid": "Compendium.pf1.class-abilities.Yjps5mzhrDe2gJMr"
        }
      ]
    },
    "tag": "warpriest",
    "useCustomTag": true,
    "armorProf": {
      "value": ["lgt", "med", "hvy", "shl"]
    },
    "weaponProf": {
      "value": ["sim", "mar"],
      "custom": "Favored Weapon"
    },
    "bab": "med",
    "skillsPerLevel": 2,
    "savingThrows": {
      "fort": {
        "value": "high"
      },
      "will": {
        "value": "high"
      }
    },
    "classSkills": {
      "clm": true,
      "art": true,
      "crf": true,
      "dip": true,
      "han": true,
      "hea": true,
      "int": true,
      "ken": true,
      "kre": true,
      "lor": true,
      "pro": true,
      "rid": true,
      "sen": true,
      "spl": true,
      "sur": true,
      "swm": true
    }
  }
}
